{
  "_class": "shapePath",
  "booleanOperation": -1,
  "clippingMaskMode": 0,
  "do_objectID": "DCBFA38C-D2DD-4A91-99C9-32348D5DE22D",
  "edited": true,
  "exportOptions": {
    "_class": "exportOptions",
    "exportFormats": [
    ],
    "includedLayerIds": [
    ],
    "layerOptions": 0,
    "shouldTrim": false
  },
  "frame": {
    "_class": "rect",
    "constrainProportions": false,
    "height": 24.00000010439112,
    "width": 24.00013077078518,
    "x": -0.0001296519872067137,
    "y": -5.439112094052234e-8
  },
  "hasClippingMask": false,
  "isClosed": true,
  "isFixedToViewport": false,
  "isFlippedHorizontal": false,
  "isFlippedVertical": false,
  "isLocked": false,
  "isVisible": true,
  "layerListExpandedType": 1,
  "name": "cannabis",
  "nameIsFixed": false,
  "pointRadiusBehaviour": 1,
  "points": [
    {
      "_class": "curvePoint",
      "cornerRadius": 0,
      "curveFrom": "{0.98029303151362812, 0.70201171880452096}",
      "curveMode": 4,
      "curveTo": "{0.98333988992465393, 0.70361328130422796}",
      "hasCurveFrom": true,
      "hasCurveTo": false,
      "point": "{0.98333988992465393, 0.70361328130422796}"
    },
    {
      "_class": "curvePoint",
      "cornerRadius": 0,
      "curveFrom": "{0.958867366918145, 0.50648437509029531}",
      "curveMode": 4,
      "curveTo": "{0.92007851560854637, 0.6706250000602636}",
      "hasCurveFrom": true,
      "hasCurveTo": true,
      "point": "{0.83337976889993226, 0.65320312506345113}"
    },
    {
      "_class": "curvePoint",
      "cornerRadius": 0,
      "curveFrom": "{1.0015624469598279, 0.31927734387454731}",
      "curveMode": 2,
      "curveTo": "{0.99753903136578093, 0.33744140637122394}",
      "hasCurveFrom": true,
      "hasCurveTo": true,
      "point": "{0.99925777200789812, 0.32968750012264264}"
    },
    {
      "_class": "curvePoint",
      "cornerRadius": 0,
      "curveFrom": "{0.98494144370480863, 0.29490234387900705}",
      "curveMode": 2,
      "curveTo": "{0.99839840168683958, 0.30839843762653774}",
      "hasCurveFrom": true,
      "hasCurveTo": true,
      "point": "{0.99085938023391651, 0.30083984387792068}"
    },
    {
      "_class": "curvePoint",
      "cornerRadius": 0,
      "curveFrom": "{0.96652357523303045, 0.29166015637960024}",
      "curveMode": 2,
      "curveTo": "{0.97695320594769597, 0.29166015637960024}",
      "hasCurveFrom": true,
      "hasCurveTo": true,
      "point": "{0.96875012561031859, 0.29166015637960024}"
    },
    {
      "_class": "curvePoint",
      "cornerRadius": 0,
      "curveFrom": "{0.95445332845088959, 0.29406250012916069}",
      "curveMode": 2,
      "curveTo": "{0.96427749371208193, 0.2918945313795574}",
      "hasCurveFrom": true,
      "hasCurveTo": true,
      "point": "{0.96203141219113342, 0.29240234387946445}"
    },
    {
      "_class": "curvePoint",
      "cornerRadius": 0,
      "curveFrom": "{0.64841983843573381, 0.44533203135148391}",
      "curveMode": 4,
      "curveTo": "{0.79300889495383953, 0.33066406262246395}",
      "hasCurveFrom": true,
      "hasCurveTo": true,
      "point": "{0.64840030729207332, 0.44818359385096224}"
    },
    {
      "_class": "curvePoint",
      "cornerRadius": 0,
      "curveFrom": "{0.64841983843573381, 0.20757812514498422}",
      "curveMode": 3,
      "curveTo": "{0.64841983843573381, 0.44246093760200922}",
      "hasCurveFrom": true,
      "hasCurveTo": true,
      "point": "{0.64841983843573381, 0.43958984385253452}"
    },
    {
      "_class": "curvePoint",
      "cornerRadius": 0,
      "curveFrom": "{0.52055830446631446, 0.0054254926340620265}",
      "curveMode": 2,
      "curveTo": "{0.53127203876052131, 0.02216796892890751}",
      "hasCurveFrom": true,
      "hasCurveTo": true,
      "point": "{0.52629159712711371, 0.014394531430329783}"
    },
    {
      "_class": "curvePoint",
      "cornerRadius": 0,
      "curveFrom": "{0.48935820446525513, 1.8296339093209807e-10}",
      "curveMode": 2,
      "curveTo": "{0.51064755560853037, -1.150512694390855e-06}",
      "hasCurveFrom": true,
      "hasCurveTo": true,
      "point": "{0.50000267776018525, 1.8296339093209807e-10}"
    },
    {
      "_class": "curvePoint",
      "cornerRadius": 0,
      "curveFrom": "{0.46871378561618882, 0.022167968928907465}",
      "curveMode": 2,
      "curveTo": "{0.47943638348576062, 0.0054296876819699561}",
      "hasCurveFrom": true,
      "hasCurveTo": true,
      "point": "{0.47369422724959648, 0.014394531430329718}"
    },
    {
      "_class": "curvePoint",
      "cornerRadius": 0,
      "curveFrom": "{0.35156598594097638, 0.44246093760200916}",
      "curveMode": 3,
      "curveTo": "{0.35156598594097638, 0.20757812514498419}",
      "hasCurveFrom": true,
      "hasCurveTo": true,
      "point": "{0.35156598594097638, 0.43958984385253447}"
    },
    {
      "_class": "curvePoint",
      "cornerRadius": 0,
      "curveFrom": "{0.20699646056653112, 0.33068359387246038}",
      "curveMode": 4,
      "curveTo": "{0.35158551708463676, 0.44533203135148386}",
      "hasCurveFrom": true,
      "hasCurveTo": true,
      "point": "{0.35158551708463676, 0.44818359385096218}"
    },
    {
      "_class": "curvePoint",
      "cornerRadius": 0,
      "curveFrom": "{0.035727861808288693, 0.29191406262955372}",
      "curveMode": 2,
      "curveTo": "{0.045552027069481096, 0.29408203137915712}",
      "hasCurveFrom": true,
      "hasCurveTo": true,
      "point": "{0.037954412185576825, 0.2924023438794644}"
    },
    {
      "_class": "curvePoint",
      "cornerRadius": 0,
      "curveFrom": "{0.023032618429014252, 0.29166015637960019}",
      "curveMode": 2,
      "curveTo": "{0.03348178028734014, 0.29166015637960019}",
      "hasCurveFrom": true,
      "hasCurveTo": true,
      "point": "{0.031235698766391585, 0.29166015637960019}"
    },
    {
      "_class": "curvePoint",
      "cornerRadius": 0,
      "curveFrom": "{0.0015872805692635431, 0.30839203319532765}",
      "curveMode": 2,
      "curveTo": "{0.01504438067190157, 0.29490234387900699}",
      "hasCurveFrom": true,
      "hasCurveTo": true,
      "point": "{0.0091264441427936372, 0.30083984387792062}"
    },
    {
      "_class": "curvePoint",
      "cornerRadius": 0,
      "curveFrom": "{0.0024663241545897514, 0.33744140637122394}",
      "curveMode": 2,
      "curveTo": "{-0.0015727063656693231, 0.31927158124591543}",
      "hasCurveFrom": true,
      "hasCurveTo": true,
      "point": "{0.00074758351247259671, 0.32968750012264264}"
    },
    {
      "_class": "curvePoint",
      "cornerRadius": 0,
      "curveFrom": "{0.079926839911824268, 0.6706250000602636}",
      "curveMode": 4,
      "curveTo": "{0.041137988602225735, 0.50648437509029531}",
      "hasCurveFrom": true,
      "hasCurveTo": true,
      "point": "{0.16662558662043847, 0.65320312506345113}"
    },
    {
      "_class": "curvePoint",
      "cornerRadius": 0,
      "curveFrom": "{0.0064260865673964754, 0.70902184014883218}",
      "curveMode": 2,
      "curveTo": "{0.019731855150403012, 0.70201171880452096}",
      "hasCurveFrom": true,
      "hasCurveTo": true,
      "point": "{0.016665465595716713, 0.70361328130422796}"
    },
    {
      "_class": "curvePoint",
      "cornerRadius": 0,
      "curveFrom": "{-2.2545463034126082e-07, 0.74280856113626015}",
      "curveMode": 2,
      "curveTo": "{1.6147859149465526e-05, 0.71964838270136278}",
      "hasCurveFrom": true,
      "hasCurveTo": true,
      "point": "{7.96120225956213e-06, 0.73122847191881146}"
    },
    {
      "_class": "curvePoint",
      "cornerRadius": 0,
      "curveFrom": "{0.021411533505199316, 0.7613867187936576}",
      "curveMode": 2,
      "curveTo": "{0.0063946817782157758, 0.75344415629795047}",
      "hasCurveFrom": true,
      "hasCurveTo": true,
      "point": "{0.016626403308395876, 0.75886718754411853}"
    },
    {
      "_class": "curvePoint",
      "cornerRadius": 0,
      "curveFrom": "{0.28933976223887126, 0.82082031253278331}",
      "curveMode": 3,
      "curveTo": "{0.13529763218912128, 0.82082031253278331}",
      "hasCurveFrom": true,
      "hasCurveTo": true,
      "point": "{0.27734764003137202, 0.82082031253278331}"
    },
    {
      "_class": "curvePoint",
      "cornerRadius": 0,
      "curveFrom": "{0.28932023109521082, 0.86363281252495017}",
      "curveMode": 4,
      "curveTo": "{0.30070688784923699, 0.82062500003281902}",
      "hasCurveFrom": true,
      "hasCurveTo": true,
      "point": "{0.31152714143711091, 0.82021484378289411}"
    },
    {
      "_class": "curvePoint",
      "cornerRadius": 0,
      "curveFrom": "{0.27517968308506513, 0.90791015626684901}",
      "curveMode": 2,
      "curveTo": "{0.27926169211009338, 0.89503906251920395}",
      "hasCurveFrom": true,
      "hasCurveTo": true,
      "point": "{0.27869528894394113, 0.89681640626887871}"
    },
    {
      "_class": "curvePoint",
      "cornerRadius": 0,
      "curveFrom": "{0.29454808816524636, 0.93652588420078808}",
      "curveMode": 2,
      "curveTo": "{0.27812888577778894, 0.92003906251462986}",
      "hasCurveFrom": true,
      "hasCurveTo": true,
      "point": "{0.2863319661151662, 0.92828125001312189}"
    },
    {
      "_class": "curvePoint",
      "cornerRadius": 0,
      "curveFrom": "{0.3213513066983032, 0.93496093751189968}",
      "curveMode": 2,
      "curveTo": "{0.30666182828737548, 0.93952800135840042}",
      "hasCurveFrom": true,
      "hasCurveTo": true,
      "point": "{0.31777710740844595, 0.93607421876169594}"
    },
    {
      "_class": "curvePoint",
      "cornerRadius": 0,
      "curveFrom": "{0.46875284790350963, 0.85933593752573623}",
      "curveMode": 4,
      "curveTo": "{0.39144858129555854, 0.9126562500159805}",
      "hasCurveFrom": false,
      "hasCurveTo": true,
      "point": "{0.46875284790350963, 0.85933593752573623}"
    },
    {
      "_class": "curvePoint",
      "cornerRadius": 0,
      "curveFrom": "{0.46875284790350963, 0.99300781250127934}",
      "curveMode": 4,
      "curveTo": "{0.46875284790350963, 0.98437500000285882}",
      "hasCurveFrom": true,
      "hasCurveTo": false,
      "point": "{0.46875284790350963, 0.98437500000285882}"
    },
    {
      "_class": "curvePoint",
      "cornerRadius": 0,
      "curveFrom": "{0.48437776283184741, 1}",
      "curveMode": 4,
      "curveTo": "{0.47574499733394077, 1}",
      "hasCurveFrom": false,
      "hasCurveTo": true,
      "point": "{0.48437776283184741, 1}"
    },
    {
      "_class": "curvePoint",
      "cornerRadius": 0,
      "curveFrom": "{0.52426035818642969, 1}",
      "curveMode": 4,
      "curveTo": "{0.51562759268852298, 1}",
      "hasCurveFrom": true,
      "hasCurveTo": false,
      "point": "{0.51562759268852298, 1}"
    },
    {
      "_class": "curvePoint",
      "cornerRadius": 0,
      "curveFrom": "{0.53125250761686071, 0.98437500000285882}",
      "curveMode": 4,
      "curveTo": "{0.53125250761686071, 0.99300781250127934}",
      "hasCurveFrom": false,
      "hasCurveTo": true,
      "point": "{0.53125250761686071, 0.98437500000285882}"
    },
    {
      "_class": "curvePoint",
      "cornerRadius": 0,
      "curveFrom": "{0.60855677422481191, 0.91267578126597715}",
      "curveMode": 4,
      "curveTo": "{0.53125250761686071, 0.85935546877573277}",
      "hasCurveFrom": true,
      "hasCurveTo": false,
      "point": "{0.53125250761686071, 0.85935546877573277}"
    },
    {
      "_class": "curvePoint",
      "cornerRadius": 0,
      "curveFrom": "{0.69334352723299497, 0.93954753260839685}",
      "curveMode": 2,
      "curveTo": "{0.67865404882206715, 0.93496093751189979}",
      "hasCurveFrom": true,
      "hasCurveTo": true,
      "point": "{0.68222824811192451, 0.93609375001169259}"
    },
    {
      "_class": "curvePoint",
      "cornerRadius": 0,
      "curveFrom": "{0.72187646974258168, 0.92005859376462629}",
      "curveMode": 2,
      "curveTo": "{0.70545726735512415, 0.93654541545078451}",
      "hasCurveFrom": true,
      "hasCurveTo": true,
      "point": "{0.71367338940520431, 0.92830078126311832}"
    },
    {
      "_class": "curvePoint",
      "cornerRadius": 0,
      "curveFrom": "{0.72074366341027718, 0.89505859376920038}",
      "curveMode": 2,
      "curveTo": "{0.72482567243530538, 0.90792968751684555}",
      "hasCurveFrom": true,
      "hasCurveTo": true,
      "point": "{0.72131006657642949, 0.89683593751887525}"
    },
    {
      "_class": "curvePoint",
      "cornerRadius": 0,
      "curveFrom": "{0.69929846767113368, 0.82064453128281556}",
      "curveMode": 4,
      "curveTo": "{0.71066559328149936, 0.8636523437749466}",
      "hasCurveFrom": true,
      "hasCurveTo": true,
      "point": "{0.68847821408325971, 0.82023437503289065}"
    },
    {
      "_class": "curvePoint",
      "cornerRadius": 0,
      "curveFrom": "{0.86468819218758897, 0.82083984378277985}",
      "curveMode": 3,
      "curveTo": "{0.71068512442515974, 0.82083984378277985}",
      "hasCurveFrom": true,
      "hasCurveTo": true,
      "point": "{0.7226577154889986, 0.82083984378277985}"
    },
    {
      "_class": "curvePoint",
      "cornerRadius": 0,
      "curveFrom": "{0.99361327149003598, 0.75345703129510855}",
      "curveMode": 2,
      "curveTo": "{0.9785938220151712, 0.76140625004365403}",
      "hasCurveFrom": true,
      "hasCurveTo": true,
      "point": "{0.9833789522119748, 0.75888671879411507}"
    },
    {
      "_class": "curvePoint",
      "cornerRadius": 0,
      "curveFrom": "{0.99998042432333367, 0.71964843755129426}",
      "curveMode": 2,
      "curveTo": "{1.0000194866106544, 0.74283203129705244}",
      "hasCurveFrom": true,
      "hasCurveTo": true,
      "point": "{0.99999995546699405, 0.73125000004917162}"
    },
    {
      "_class": "curvePoint",
      "cornerRadius": 0,
      "curveFrom": "{0.98333988992465393, 0.70361328130422818}",
      "curveMode": 4,
      "curveTo": "{0.99357420920271511, 0.70900390630324184}",
      "hasCurveFrom": false,
      "hasCurveTo": true,
      "point": "{0.98333988992465393, 0.70361328130422818}"
    }
  ],
  "resizingConstraint": 63,
  "resizingType": 0,
  "rotation": 0,
  "sharedStyleID": "6384751B-1CEA-4B08-9A1E-01F42BC9555A",
  "shouldBreakMaskChain": false,
  "style": {
    "_class": "style",
    "blur": {
      "_class": "blur",
      "center": "{0.5, 0.5}",
      "isEnabled": false,
      "motionAngle": 0,
      "radius": 10,
      "saturation": 1,
      "type": 0
    },
    "borderOptions": {
      "_class": "borderOptions",
      "dashPattern": [
      ],
      "isEnabled": true,
      "lineCapStyle": 0,
      "lineJoinStyle": 9223372036854776000
    },
    "borders": [
    ],
    "colorControls": {
      "_class": "colorControls",
      "brightness": 0,
      "contrast": 1,
      "hue": 0,
      "isEnabled": false,
      "saturation": 1
    },
    "contextSettings": {
      "_class": "graphicsContextSettings",
      "blendMode": 0,
      "opacity": 1
    },
    "do_objectID": "0695979C-5556-43B7-8705-C7E8820D0C66",
    "endMarkerType": 0,
    "fills": [
      {
        "_class": "fill",
        "color": {
          "_class": "color",
          "alpha": 1,
          "blue": 0,
          "green": 0,
          "red": 0
        },
        "contextSettings": {
          "_class": "graphicsContextSettings",
          "blendMode": 0,
          "opacity": 1
        },
        "fillType": 0,
        "gradient": {
          "_class": "gradient",
          "elipseLength": 0,
          "from": "{0.5, 0}",
          "gradientType": 0,
          "stops": [
            {
              "_class": "gradientStop",
              "color": {
                "_class": "color",
                "alpha": 1,
                "blue": 1,
                "green": 1,
                "red": 1
              },
              "position": 0
            },
            {
              "_class": "gradientStop",
              "color": {
                "_class": "color",
                "alpha": 1,
                "blue": 0,
                "green": 0,
                "red": 0
              },
              "position": 1
            }
          ],
          "to": "{0.5, 1}"
        },
        "isEnabled": true,
        "noiseIndex": 0,
        "noiseIntensity": 0,
        "patternFillType": 1,
        "patternTileScale": 1
      }
    ],
    "innerShadows": [
    ],
    "miterLimit": 10,
    "shadows": [
    ],
    "startMarkerType": 0,
    "windingRule": 1
  }
}