{
  "_class": "shapePath",
  "booleanOperation": -1,
  "clippingMaskMode": 0,
  "do_objectID": "AEA20F92-CF34-4456-8279-B24AB91CDAA9",
  "edited": true,
  "exportOptions": {
    "_class": "exportOptions",
    "exportFormats": [
    ],
    "includedLayerIds": [
    ],
    "layerOptions": 0,
    "shouldTrim": false
  },
  "frame": {
    "_class": "rect",
    "constrainProportions": false,
    "height": 21.0000000875,
    "width": 16.05247726224259,
    "x": 3.974720371645626,
    "y": 1.499999956249999
  },
  "hasClippingMask": false,
  "isClosed": true,
  "isFixedToViewport": false,
  "isFlippedHorizontal": false,
  "isFlippedVertical": false,
  "isLocked": false,
  "isVisible": true,
  "layerListExpandedType": 1,
  "name": "yen-sign",
  "nameIsFixed": false,
  "pointRadiusBehaviour": 1,
  "points": [
    {
      "_class": "curvePoint",
      "cornerRadius": 0,
      "curveFrom": "{0.9648217783729427, 1.5860328923216521e-17}",
      "curveMode": 4,
      "curveTo": "{0.99139477983612934, 0}",
      "hasCurveFrom": false,
      "hasCurveTo": true,
      "point": "{0.9648217783729427, 1.5860328923216521e-17}"
    },
    {
      "_class": "curvePoint",
      "cornerRadius": 0,
      "curveFrom": "{0.76070608581505783, 1.5860328923216521e-17}",
      "curveMode": 4,
      "curveTo": "{0.77413859204919622, 1.5860328923216521e-17}",
      "hasCurveFrom": true,
      "hasCurveTo": false,
      "point": "{0.77413859204919622, 1.5860328923216521e-17}"
    },
    {
      "_class": "curvePoint",
      "cornerRadius": 0,
      "curveFrom": "{0.74260140349948023, 0.014955357142857164}",
      "curveMode": 4,
      "curveTo": "{0.74844162360127942, 0.0058035714285714479}",
      "hasCurveFrom": false,
      "hasCurveTo": true,
      "point": "{0.74260140349948023, 0.014955357142857164}"
    },
    {
      "_class": "curvePoint",
      "cornerRadius": 0,
      "curveFrom": "{0.53848571094159547, 0.34508928571428577}",
      "curveMode": 4,
      "curveTo": "{0.58082730667964022, 0.26763392857142859}",
      "hasCurveFrom": true,
      "hasCurveTo": false,
      "point": "{0.58082730667964022, 0.26763392857142859}"
    },
    {
      "_class": "curvePoint",
      "cornerRadius": 0,
      "curveFrom": "{0.50169232430026001, 0.42812500000000003}",
      "curveMode": 4,
      "curveTo": "{0.50169232430026001, 0.42812500000000003}",
      "hasCurveFrom": false,
      "hasCurveTo": true,
      "point": "{0.50169232430026001, 0.42812500000000003}"
    },
    {
      "_class": "curvePoint",
      "cornerRadius": 0,
      "curveFrom": "{0.49789618123409046, 0.42812500000000003}",
      "curveMode": 4,
      "curveTo": "{0.49789618123409046, 0.42812500000000003}",
      "hasCurveFrom": true,
      "hasCurveTo": false,
      "point": "{0.49789618123409046, 0.42812500000000003}"
    },
    {
      "_class": "curvePoint",
      "cornerRadius": 0,
      "curveFrom": "{0.41876119885471025, 0.26763392857142859}",
      "curveMode": 4,
      "curveTo": "{0.46110279459275505, 0.34508928571428577}",
      "hasCurveFrom": false,
      "hasCurveTo": true,
      "point": "{0.41876119885471025, 0.26763392857142859}"
    },
    {
      "_class": "curvePoint",
      "cornerRadius": 0,
      "curveFrom": "{0.25114688193307105, 0.0058035714285714479}",
      "curveMode": 4,
      "curveTo": "{0.25698710203487035, 0.014955357142857164}",
      "hasCurveFrom": true,
      "hasCurveTo": false,
      "point": "{0.25698710203487035, 0.014955357142857164}"
    },
    {
      "_class": "curvePoint",
      "cornerRadius": 0,
      "curveFrom": "{0.22544991348515428, 1.5860328923216521e-17}",
      "curveMode": 4,
      "curveTo": "{0.23888241971929258, 1.5860328923216521e-17}",
      "hasCurveFrom": false,
      "hasCurveTo": true,
      "point": "{0.22544991348515428, 1.5860328923216521e-17}"
    },
    {
      "_class": "curvePoint",
      "cornerRadius": 0,
      "curveFrom": "{0.0084857367033111149, 1.5860328923216521e-17}",
      "curveMode": 4,
      "curveTo": "{0.035058738166497828, 1.5860328923216521e-17}",
      "hasCurveFrom": true,
      "hasCurveTo": false,
      "point": "{0.035058738166497828, 1.5860328923216521e-17}"
    },
    {
      "_class": "curvePoint",
      "cornerRadius": 0,
      "curveFrom": "{0.0041055716269616568, 0.039285714285714306}",
      "curveMode": 4,
      "curveTo": "{-0.0081588905868168245, 0.021651785714285738}",
      "hasCurveFrom": false,
      "hasCurveTo": true,
      "point": "{0.0041055716269616568, 0.039285714285714306}"
    },
    {
      "_class": "curvePoint",
      "cornerRadius": 0,
      "curveFrom": "{0.23800638670402272, 0.375}",
      "curveMode": 1,
      "curveTo": "{0.23800638670402272, 0.375}",
      "hasCurveFrom": false,
      "hasCurveTo": false,
      "point": "{0.23800638670402272, 0.375}"
    },
    {
      "_class": "curvePoint",
      "cornerRadius": 0,
      "curveFrom": "{0.048491244400636173, 0.375}",
      "curveMode": 4,
      "curveTo": "{0.067763970736573795, 0.375}",
      "hasCurveFrom": true,
      "hasCurveTo": false,
      "point": "{0.067763970736573795, 0.375}"
    },
    {
      "_class": "curvePoint",
      "cornerRadius": 0,
      "curveFrom": "{0.03272265012577813, 0.4017857142857143}",
      "curveMode": 4,
      "curveTo": "{0.03272265012577813, 0.38705357142857144}",
      "hasCurveFrom": false,
      "hasCurveTo": true,
      "point": "{0.03272265012577813, 0.4017857142857143}"
    },
    {
      "_class": "curvePoint",
      "cornerRadius": 0,
      "curveFrom": "{0.03272265012577813, 0.48794642857142856}",
      "curveMode": 4,
      "curveTo": "{0.03272265012577813, 0.4732142857142857}",
      "hasCurveFrom": true,
      "hasCurveTo": false,
      "point": "{0.03272265012577813, 0.4732142857142857}"
    },
    {
      "_class": "curvePoint",
      "cornerRadius": 0,
      "curveFrom": "{0.067763970736573795, 0.5}",
      "curveMode": 4,
      "curveTo": "{0.048491244400636173, 0.5}",
      "hasCurveFrom": false,
      "hasCurveTo": true,
      "point": "{0.067763970736573795, 0.5}"
    },
    {
      "_class": "curvePoint",
      "cornerRadius": 0,
      "curveFrom": "{0.32531767722592186, 0.5}",
      "curveMode": 1,
      "curveTo": "{0.32531767722592186, 0.5}",
      "hasCurveFrom": false,
      "hasCurveTo": false,
      "point": "{0.32531767722592186, 0.5}"
    },
    {
      "_class": "curvePoint",
      "cornerRadius": 0,
      "curveFrom": "{0.38313585623373481, 0.58303571428571421}",
      "curveMode": 1,
      "curveTo": "{0.38313585623373481, 0.58303571428571421}",
      "hasCurveFrom": false,
      "hasCurveTo": false,
      "point": "{0.38313585623373481, 0.58303571428571421}"
    },
    {
      "_class": "curvePoint",
      "cornerRadius": 0,
      "curveFrom": "{0.38313585623373481, 0.6428571428571429}",
      "curveMode": 1,
      "curveTo": "{0.38313585623373481, 0.6428571428571429}",
      "hasCurveFrom": false,
      "hasCurveTo": false,
      "point": "{0.38313585623373481, 0.6428571428571429}"
    },
    {
      "_class": "curvePoint",
      "cornerRadius": 0,
      "curveFrom": "{0.048491244400636173, 0.6428571428571429}",
      "curveMode": 4,
      "curveTo": "{0.067763970736573795, 0.6428571428571429}",
      "hasCurveFrom": true,
      "hasCurveTo": false,
      "point": "{0.067763970736573795, 0.6428571428571429}"
    },
    {
      "_class": "curvePoint",
      "cornerRadius": 0,
      "curveFrom": "{0.03272265012577813, 0.6696428571428571}",
      "curveMode": 4,
      "curveTo": "{0.03272265012577813, 0.65491071428571423}",
      "hasCurveFrom": false,
      "hasCurveTo": true,
      "point": "{0.03272265012577813, 0.6696428571428571}"
    },
    {
      "_class": "curvePoint",
      "cornerRadius": 0,
      "curveFrom": "{0.03272265012577813, 0.75580357142857146}",
      "curveMode": 4,
      "curveTo": "{0.03272265012577813, 0.7410714285714286}",
      "hasCurveFrom": true,
      "hasCurveTo": false,
      "point": "{0.03272265012577813, 0.7410714285714286}"
    },
    {
      "_class": "curvePoint",
      "cornerRadius": 0,
      "curveFrom": "{0.067763970736573795, 0.7678571428571429}",
      "curveMode": 4,
      "curveTo": "{0.048491244400636173, 0.7678571428571429}",
      "hasCurveFrom": false,
      "hasCurveTo": true,
      "point": "{0.067763970736573795, 0.7678571428571429}"
    },
    {
      "_class": "curvePoint",
      "cornerRadius": 0,
      "curveFrom": "{0.38313585623373481, 0.7678571428571429}",
      "curveMode": 1,
      "curveTo": "{0.38313585623373481, 0.7678571428571429}",
      "hasCurveFrom": false,
      "hasCurveTo": false,
      "point": "{0.38313585623373481, 0.7678571428571429}"
    },
    {
      "_class": "curvePoint",
      "cornerRadius": 0,
      "curveFrom": "{0.38313585623373481, 0.98794642857142867}",
      "curveMode": 4,
      "curveTo": "{0.38313585623373481, 0.9732142857142857}",
      "hasCurveFrom": true,
      "hasCurveTo": false,
      "point": "{0.38313585623373481, 0.9732142857142857}"
    },
    {
      "_class": "curvePoint",
      "cornerRadius": 0,
      "curveFrom": "{0.41817717684453048, 1}",
      "curveMode": 4,
      "curveTo": "{0.39890445050859286, 1}",
      "hasCurveFrom": false,
      "hasCurveTo": true,
      "point": "{0.41817717684453048, 1}"
    },
    {
      "_class": "curvePoint",
      "cornerRadius": 0,
      "curveFrom": "{0.60097606603084786, 1}",
      "curveMode": 4,
      "curveTo": "{0.58170333969491017, 1}",
      "hasCurveFrom": true,
      "hasCurveTo": false,
      "point": "{0.58170333969491017, 1}"
    },
    {
      "_class": "curvePoint",
      "cornerRadius": 0,
      "curveFrom": "{0.61674466030570585, 0.9732142857142857}",
      "curveMode": 4,
      "curveTo": "{0.61674466030570585, 0.98794642857142867}",
      "hasCurveFrom": false,
      "hasCurveTo": true,
      "point": "{0.61674466030570585, 0.9732142857142857}"
    },
    {
      "_class": "curvePoint",
      "cornerRadius": 0,
      "curveFrom": "{0.61674466030570585, 0.7678571428571429}",
      "curveMode": 1,
      "curveTo": "{0.61674466030570585, 0.7678571428571429}",
      "hasCurveFrom": false,
      "hasCurveTo": false,
      "point": "{0.61674466030570585, 0.7678571428571429}"
    },
    {
      "_class": "curvePoint",
      "cornerRadius": 0,
      "curveFrom": "{0.95138927213880442, 0.7678571428571429}",
      "curveMode": 4,
      "curveTo": "{0.93211654580286674, 0.7678571428571429}",
      "hasCurveFrom": true,
      "hasCurveTo": false,
      "point": "{0.93211654580286674, 0.7678571428571429}"
    },
    {
      "_class": "curvePoint",
      "cornerRadius": 0,
      "curveFrom": "{0.96715786641366241, 0.7410714285714286}",
      "curveMode": 4,
      "curveTo": "{0.96715786641366241, 0.75580357142857146}",
      "hasCurveFrom": false,
      "hasCurveTo": true,
      "point": "{0.96715786641366241, 0.7410714285714286}"
    },
    {
      "_class": "curvePoint",
      "cornerRadius": 0,
      "curveFrom": "{0.96715786641366241, 0.65491071428571423}",
      "curveMode": 4,
      "curveTo": "{0.96715786641366241, 0.6696428571428571}",
      "hasCurveFrom": true,
      "hasCurveTo": false,
      "point": "{0.96715786641366241, 0.6696428571428571}"
    },
    {
      "_class": "curvePoint",
      "cornerRadius": 0,
      "curveFrom": "{0.93211654580286674, 0.6428571428571429}",
      "curveMode": 4,
      "curveTo": "{0.95138927213880442, 0.6428571428571429}",
      "hasCurveFrom": false,
      "hasCurveTo": true,
      "point": "{0.93211654580286674, 0.6428571428571429}"
    },
    {
      "_class": "curvePoint",
      "cornerRadius": 0,
      "curveFrom": "{0.61674466030570585, 0.6428571428571429}",
      "curveMode": 1,
      "curveTo": "{0.61674466030570585, 0.6428571428571429}",
      "hasCurveFrom": false,
      "hasCurveTo": false,
      "point": "{0.61674466030570585, 0.6428571428571429}"
    },
    {
      "_class": "curvePoint",
      "cornerRadius": 0,
      "curveFrom": "{0.61674466030570585, 0.58303571428571421}",
      "curveMode": 1,
      "curveTo": "{0.61674466030570585, 0.58303571428571421}",
      "hasCurveFrom": false,
      "hasCurveTo": false,
      "point": "{0.61674466030570585, 0.58303571428571421}"
    },
    {
      "_class": "curvePoint",
      "cornerRadius": 0,
      "curveFrom": "{0.67456283931351879, 0.5}",
      "curveMode": 1,
      "curveTo": "{0.67456283931351879, 0.5}",
      "hasCurveFrom": false,
      "hasCurveTo": false,
      "point": "{0.67456283931351879, 0.5}"
    },
    {
      "_class": "curvePoint",
      "cornerRadius": 0,
      "curveFrom": "{0.95138927213880442, 0.5}",
      "curveMode": 4,
      "curveTo": "{0.93211654580286674, 0.5}",
      "hasCurveFrom": true,
      "hasCurveTo": false,
      "point": "{0.93211654580286674, 0.5}"
    },
    {
      "_class": "curvePoint",
      "cornerRadius": 0,
      "curveFrom": "{0.96715786641366241, 0.4732142857142857}",
      "curveMode": 4,
      "curveTo": "{0.96715786641366241, 0.48794642857142856}",
      "hasCurveFrom": false,
      "hasCurveTo": true,
      "point": "{0.96715786641366241, 0.4732142857142857}"
    },
    {
      "_class": "curvePoint",
      "cornerRadius": 0,
      "curveFrom": "{0.96715786641366241, 0.38705357142857144}",
      "curveMode": 4,
      "curveTo": "{0.96715786641366241, 0.4017857142857143}",
      "hasCurveFrom": true,
      "hasCurveTo": false,
      "point": "{0.96715786641366241, 0.4017857142857143}"
    },
    {
      "_class": "curvePoint",
      "cornerRadius": 0,
      "curveFrom": "{0.93211654580286674, 0.375}",
      "curveMode": 4,
      "curveTo": "{0.95138927213880442, 0.375}",
      "hasCurveFrom": false,
      "hasCurveTo": true,
      "point": "{0.93211654580286674, 0.375}"
    },
    {
      "_class": "curvePoint",
      "cornerRadius": 0,
      "curveFrom": "{0.7618741298354178, 0.375}",
      "curveMode": 1,
      "curveTo": "{0.7618741298354178, 0.375}",
      "hasCurveFrom": false,
      "hasCurveTo": false,
      "point": "{0.7618741298354178, 0.375}"
    },
    {
      "_class": "curvePoint",
      "cornerRadius": 0,
      "curveFrom": "{1.0083314181313472, 0.021651785714285721}",
      "curveMode": 4,
      "curveTo": "{0.99577494491247875, 0.039285714285714292}",
      "hasCurveFrom": true,
      "hasCurveTo": false,
      "point": "{0.99577494491247875, 0.039285714285714292}"
    }
  ],
  "resizingConstraint": 63,
  "resizingType": 0,
  "rotation": 0,
  "sharedStyleID": "6384751B-1CEA-4B08-9A1E-01F42BC9555A",
  "shouldBreakMaskChain": false,
  "style": {
    "_class": "style",
    "blur": {
      "_class": "blur",
      "center": "{0.5, 0.5}",
      "isEnabled": false,
      "motionAngle": 0,
      "radius": 10,
      "saturation": 1,
      "type": 0
    },
    "borderOptions": {
      "_class": "borderOptions",
      "dashPattern": [
      ],
      "isEnabled": true,
      "lineCapStyle": 0,
      "lineJoinStyle": 9223372036854776000
    },
    "borders": [
    ],
    "colorControls": {
      "_class": "colorControls",
      "brightness": 0,
      "contrast": 1,
      "hue": 0,
      "isEnabled": false,
      "saturation": 1
    },
    "contextSettings": {
      "_class": "graphicsContextSettings",
      "blendMode": 0,
      "opacity": 1
    },
    "do_objectID": "E5E47881-A02B-4238-966A-659C82EC5AE7",
    "endMarkerType": 0,
    "fills": [
      {
        "_class": "fill",
        "color": {
          "_class": "color",
          "alpha": 1,
          "blue": 0,
          "green": 0,
          "red": 0
        },
        "contextSettings": {
          "_class": "graphicsContextSettings",
          "blendMode": 0,
          "opacity": 1
        },
        "fillType": 0,
        "gradient": {
          "_class": "gradient",
          "elipseLength": 0,
          "from": "{0.5, 0}",
          "gradientType": 0,
          "stops": [
            {
              "_class": "gradientStop",
              "color": {
                "_class": "color",
                "alpha": 1,
                "blue": 1,
                "green": 1,
                "red": 1
              },
              "position": 0
            },
            {
              "_class": "gradientStop",
              "color": {
                "_class": "color",
                "alpha": 1,
                "blue": 0,
                "green": 0,
                "red": 0
              },
              "position": 1
            }
          ],
          "to": "{0.5, 1}"
        },
        "isEnabled": true,
        "noiseIndex": 0,
        "noiseIntensity": 0,
        "patternFillType": 1,
        "patternTileScale": 1
      }
    ],
    "innerShadows": [
    ],
    "miterLimit": 10,
    "shadows": [
    ],
    "startMarkerType": 0,
    "windingRule": 1
  }
}