{
  "_class": "shapePath",
  "booleanOperation": -1,
  "clippingMaskMode": 0,
  "do_objectID": "56468DF9-4F2B-428E-8AA2-054A8EA80E93",
  "edited": true,
  "exportOptions": {
    "_class": "exportOptions",
    "exportFormats": [
    ],
    "includedLayerIds": [
    ],
    "layerOptions": 0,
    "shouldTrim": false
  },
  "frame": {
    "_class": "rect",
    "constrainProportions": false,
    "height": 24.01,
    "width": 23.62274193548387,
    "x": 0.1886290322580635,
    "y": -0.005000000000000783
  },
  "hasClippingMask": false,
  "isClosed": true,
  "isFixedToViewport": false,
  "isFlippedHorizontal": false,
  "isFlippedVertical": false,
  "isLocked": false,
  "isVisible": true,
  "layerListExpandedType": 1,
  "name": "icons / brand / fa google",
  "nameIsFixed": false,
  "pointRadiusBehaviour": 1,
  "points": [
    {
      "_class": "curvePoint",
      "cornerRadius": 0,
      "curveFrom": "{1, 0.79697580645161292}",
      "curveMode": 3,
      "curveTo": "{1, 0.47842741935483873}",
      "hasCurveFrom": true,
      "hasCurveTo": true,
      "point": "{1, 0.5116935483870968}"
    },
    {
      "_class": "curvePoint",
      "cornerRadius": 0,
      "curveFrom": "{0.22704918032786886, 1}",
      "curveMode": 3,
      "curveTo": "{0.80143442622950822, 1}",
      "hasCurveFrom": true,
      "hasCurveTo": true,
      "point": "{0.50819672131147542, 1}"
    },
    {
      "_class": "curvePoint",
      "cornerRadius": 0,
      "curveFrom": "{0, 0.22338709677419355}",
      "curveMode": 2,
      "curveTo": "{0, 0.77661290322580645}",
      "hasCurveFrom": true,
      "hasCurveTo": true,
      "point": "{0, 0.5}"
    },
    {
      "_class": "curvePoint",
      "cornerRadius": 0,
      "curveFrom": "{0.64508196721311473, 0}",
      "curveMode": 3,
      "curveTo": "{0.22704918032786886, 0}",
      "hasCurveFrom": true,
      "hasCurveTo": true,
      "point": "{0.50819672131147542, 0}"
    },
    {
      "_class": "curvePoint",
      "cornerRadius": 0,
      "curveFrom": "{0.84897540983606556, 0.1308467741935484}",
      "curveMode": 4,
      "curveTo": "{0.76024590163934425, 0.049395161290322578}",
      "hasCurveFrom": false,
      "hasCurveTo": true,
      "point": "{0.84897540983606556, 0.1308467741935484}"
    },
    {
      "_class": "curvePoint",
      "cornerRadius": 0,
      "curveFrom": "{0.52971311475409832, 0.089919354838709678}",
      "curveMode": 4,
      "curveTo": "{0.71065573770491808, 0.2616935483870968}",
      "hasCurveFrom": true,
      "hasCurveTo": false,
      "point": "{0.71065573770491808, 0.2616935483870968}"
    },
    {
      "_class": "curvePoint",
      "cornerRadius": 0,
      "curveFrom": "{0.19323770491803277, 0.67439516129032262}",
      "curveMode": 3,
      "curveTo": "{0.19323770491803277, 0.21895161290322579}",
      "hasCurveFrom": true,
      "hasCurveTo": true,
      "point": "{0.19323770491803277, 0.5}"
    },
    {
      "_class": "curvePoint",
      "cornerRadius": 0,
      "curveFrom": "{0.70942622950819667, 0.81572580645161297}",
      "curveMode": 3,
      "curveTo": "{0.33483606557377049, 0.81572580645161297}",
      "hasCurveFrom": true,
      "hasCurveTo": true,
      "point": "{0.50819672131147542, 0.81572580645161297}"
    },
    {
      "_class": "curvePoint",
      "cornerRadius": 0,
      "curveFrom": "{0.79672131147540981, 0.60020161290322582}",
      "curveMode": 4,
      "curveTo": "{0.7848360655737705, 0.67379032258064508}",
      "hasCurveFrom": false,
      "hasCurveTo": true,
      "point": "{0.79672131147540981, 0.60020161290322582}"
    },
    {
      "_class": "curvePoint",
      "cornerRadius": 0,
      "curveFrom": "{0.50819672131147542, 0.60020161290322582}",
      "curveMode": 1,
      "curveTo": "{0.50819672131147542, 0.60020161290322582}",
      "hasCurveFrom": false,
      "hasCurveTo": false,
      "point": "{0.50819672131147542, 0.60020161290322582}"
    },
    {
      "_class": "curvePoint",
      "cornerRadius": 0,
      "curveFrom": "{0.50819672131147542, 0.4282258064516129}",
      "curveMode": 1,
      "curveTo": "{0.50819672131147542, 0.4282258064516129}",
      "hasCurveFrom": false,
      "hasCurveTo": false,
      "point": "{0.50819672131147542, 0.4282258064516129}"
    },
    {
      "_class": "curvePoint",
      "cornerRadius": 0,
      "curveFrom": "{0.99672131147540977, 0.45383064516129029}",
      "curveMode": 4,
      "curveTo": "{0.99200819672131157, 0.4282258064516129}",
      "hasCurveFrom": true,
      "hasCurveTo": false,
      "point": "{0.99200819672131157, 0.4282258064516129}"
    }
  ],
  "resizingConstraint": 63,
  "resizingType": 0,
  "rotation": 0,
  "sharedStyleID": "6384751B-1CEA-4B08-9A1E-01F42BC9555A",
  "shouldBreakMaskChain": false,
  "style": {
    "_class": "style",
    "blur": {
      "_class": "blur",
      "center": "{0.5, 0.5}",
      "isEnabled": false,
      "motionAngle": 0,
      "radius": 10,
      "saturation": 1,
      "type": 0
    },
    "borderOptions": {
      "_class": "borderOptions",
      "dashPattern": [
      ],
      "isEnabled": true,
      "lineCapStyle": 0,
      "lineJoinStyle": 9223372036854776000
    },
    "borders": [
    ],
    "colorControls": {
      "_class": "colorControls",
      "brightness": 0,
      "contrast": 1,
      "hue": 0,
      "isEnabled": false,
      "saturation": 1
    },
    "contextSettings": {
      "_class": "graphicsContextSettings",
      "blendMode": 0,
      "opacity": 1
    },
    "do_objectID": "676B8A95-DAB4-4BB1-B5E6-F9DF92C39119",
    "endMarkerType": 0,
    "fills": [
      {
        "_class": "fill",
        "color": {
          "_class": "color",
          "alpha": 1,
          "blue": 0,
          "green": 0,
          "red": 0
        },
        "contextSettings": {
          "_class": "graphicsContextSettings",
          "blendMode": 0,
          "opacity": 1
        },
        "fillType": 0,
        "gradient": {
          "_class": "gradient",
          "elipseLength": 0,
          "from": "{0.5, 0}",
          "gradientType": 0,
          "stops": [
            {
              "_class": "gradientStop",
              "color": {
                "_class": "color",
                "alpha": 1,
                "blue": 1,
                "green": 1,
                "red": 1
              },
              "position": 0
            },
            {
              "_class": "gradientStop",
              "color": {
                "_class": "color",
                "alpha": 1,
                "blue": 0,
                "green": 0,
                "red": 0
              },
              "position": 1
            }
          ],
          "to": "{0.5, 1}"
        },
        "isEnabled": true,
        "noiseIndex": 0,
        "noiseIntensity": 0,
        "patternFillType": 1,
        "patternTileScale": 1
      }
    ],
    "innerShadows": [
    ],
    "miterLimit": 10,
    "shadows": [
    ],
    "startMarkerType": 0,
    "windingRule": 1
  }
}