{
  "_class": "shapePath",
  "booleanOperation": -1,
  "clippingMaskMode": 0,
  "do_objectID": "096A74DA-B9A5-48D3-B31B-E1DC15762E05",
  "edited": true,
  "exportOptions": {
    "_class": "exportOptions",
    "exportFormats": [
    ],
    "includedLayerIds": [
    ],
    "layerOptions": 0,
    "shouldTrim": false
  },
  "frame": {
    "_class": "rect",
    "constrainProportions": false,
    "height": 23.95118873313799,
    "width": 23.95652561247216,
    "x": 0,
    "y": 0.000005264087150991323
  },
  "hasClippingMask": false,
  "isClosed": true,
  "isFixedToViewport": false,
  "isFlippedHorizontal": false,
  "isFlippedVertical": false,
  "isLocked": false,
  "isVisible": true,
  "layerListExpandedType": 1,
  "name": "Shape-path",
  "nameIsFixed": false,
  "pointRadiusBehaviour": 1,
  "points": [
    {
      "_class": "curvePoint",
      "cornerRadius": 0,
      "curveFrom": "{1, 0.93078815286234673}",
      "curveMode": 1,
      "curveTo": "{1, 0.93078815286234673}",
      "hasCurveFrom": false,
      "hasCurveTo": false,
      "point": "{1, 0.93078815286234673}"
    },
    {
      "_class": "curvePoint",
      "cornerRadius": 0,
      "curveFrom": "{0.71696428571428572, 0.53628062417772338}",
      "curveMode": 4,
      "curveTo": "{0.67232142857142851, 0.59857128660161119}",
      "hasCurveFrom": true,
      "hasCurveTo": false,
      "point": "{0.67232142857142851, 0.59857128660161119}"
    },
    {
      "_class": "curvePoint",
      "cornerRadius": 0,
      "curveFrom": "{0.74352678571428577, 0.16923457032513653}",
      "curveMode": 3,
      "curveTo": "{0.74352678571428577, 0.45970106428025542}",
      "hasCurveFrom": true,
      "hasCurveTo": true,
      "point": "{0.74352678571428577, 0.3770933757611209}"
    },
    {
      "_class": "curvePoint",
      "cornerRadius": 0,
      "curveFrom": "{0.16674107142857145, -0.00022282315060154835}",
      "curveMode": 2,
      "curveTo": "{0.57678571428571423, 2.2021835655360325e-07}",
      "hasCurveFrom": true,
      "hasCurveTo": true,
      "point": "{0.37187500000000001, 2.2021835655360325e-07}"
    },
    {
      "_class": "curvePoint",
      "cornerRadius": 0,
      "curveFrom": "{0, 0.5847289171740806}",
      "curveMode": 2,
      "curveTo": "{0, 0.16901130630211184}",
      "hasCurveFrom": true,
      "hasCurveTo": true,
      "point": "{0, 0.37687011173809626}"
    },
    {
      "_class": "curvePoint",
      "cornerRadius": 0,
      "curveFrom": "{0.46049107142857143, 0.75396304662679403}",
      "curveMode": 3,
      "curveTo": "{0.16674107142857145, 0.75396304662679403}",
      "hasCurveFrom": true,
      "hasCurveTo": true,
      "point": "{0.3716517857142857, 0.75396304662679403}"
    },
    {
      "_class": "curvePoint",
      "cornerRadius": 0,
      "curveFrom": "{0.6060267857142857, 0.66934598190043726}",
      "curveMode": 4,
      "curveTo": "{0.54196428571428579, 0.72225955535728836}",
      "hasCurveFrom": false,
      "hasCurveTo": true,
      "point": "{0.6060267857142857, 0.66934598190043726}"
    },
    {
      "_class": "curvePoint",
      "cornerRadius": 0,
      "curveFrom": "{0.9319196428571429, 1}",
      "curveMode": 1,
      "curveTo": "{0.9319196428571429, 1}",
      "hasCurveFrom": false,
      "hasCurveTo": false,
      "point": "{0.9319196428571429, 1}"
    }
  ],
  "resizingConstraint": 63,
  "resizingType": 0,
  "rotation": 0,
  "shouldBreakMaskChain": false,
  "style": {
    "_class": "style",
    "blur": {
      "_class": "blur",
      "center": "{0.5, 0.5}",
      "isEnabled": false,
      "motionAngle": 0,
      "radius": 10,
      "saturation": 1,
      "type": 0
    },
    "borderOptions": {
      "_class": "borderOptions",
      "dashPattern": [
      ],
      "isEnabled": true,
      "lineCapStyle": 0,
      "lineJoinStyle": 0
    },
    "borders": [
    ],
    "colorControls": {
      "_class": "colorControls",
      "brightness": 0,
      "contrast": 1,
      "hue": 0,
      "isEnabled": false,
      "saturation": 1
    },
    "contextSettings": {
      "_class": "graphicsContextSettings",
      "blendMode": 0,
      "opacity": 1
    },
    "do_objectID": "C6954F74-5A0E-42D4-8C3B-D3941E8FE84D",
    "endMarkerType": 0,
    "fills": [
    ],
    "innerShadows": [
    ],
    "miterLimit": 10,
    "shadows": [
    ],
    "startMarkerType": 0,
    "windingRule": 1
  }
}