{
  "_class": "shapePath",
  "booleanOperation": -1,
  "clippingMaskMode": 0,
  "do_objectID": "EE4B446C-A358-414F-A838-BA36B0031BB6",
  "edited": true,
  "exportOptions": {
    "_class": "exportOptions",
    "exportFormats": [
    ],
    "includedLayerIds": [
    ],
    "layerOptions": 0,
    "shouldTrim": false
  },
  "frame": {
    "_class": "rect",
    "constrainProportions": false,
    "height": 15.00468756251953,
    "width": 9.688478928028323,
    "x": 7.156052342157226,
    "y": 4.497656218740234
  },
  "hasClippingMask": false,
  "isClosed": true,
  "isFixedToViewport": false,
  "isFlippedHorizontal": false,
  "isFlippedVertical": false,
  "isLocked": false,
  "isVisible": true,
  "layerListExpandedType": 1,
  "name": "angle-left",
  "nameIsFixed": false,
  "pointRadiusBehaviour": 1,
  "points": [
    {
      "_class": "curvePoint",
      "cornerRadius": 0,
      "curveFrom": "{0.03404921881801673, 0.44689159637613252}",
      "curveMode": 4,
      "curveTo": "{-0.01143005662956984, 0.47625741955638873}",
      "hasCurveFrom": false,
      "hasCurveTo": true,
      "point": "{0.03404921881801673, 0.44689159637613252}"
    },
    {
      "_class": "curvePoint",
      "cornerRadius": 0,
      "curveFrom": "{0.73752652201791835, -0.0073414557950640252}",
      "curveMode": 4,
      "curveTo": "{0.69204724657033179, 0.022024367385192166}",
      "hasCurveFrom": true,
      "hasCurveTo": false,
      "point": "{0.69204724657033179, 0.022024367385192166}"
    },
    {
      "_class": "curvePoint",
      "cornerRadius": 0,
      "curveFrom": "{0.85606293142918111, 0.022024367385192166}",
      "curveMode": 4,
      "curveTo": "{0.81106747806082413, -0.0073414557950640252}",
      "hasCurveFrom": false,
      "hasCurveTo": true,
      "point": "{0.85606293142918111, 0.022024367385192166}"
    },
    {
      "_class": "curvePoint",
      "cornerRadius": 0,
      "curveFrom": "{1.0108859967826669, 0.12199312714776638}",
      "curveMode": 4,
      "curveTo": "{0.96540672133508032, 0.092627303967510177}",
      "hasCurveFrom": true,
      "hasCurveTo": false,
      "point": "{0.96540672133508032, 0.092627303967510177}"
    },
    {
      "_class": "curvePoint",
      "cornerRadius": 0,
      "curveFrom": "{0.96540672133508032, 0.19853170884098725}",
      "curveMode": 4,
      "curveTo": "{1.0108859967826669, 0.16947828803498907}",
      "hasCurveFrom": false,
      "hasCurveTo": true,
      "point": "{0.96540672133508032, 0.19853170884098725}"
    },
    {
      "_class": "curvePoint",
      "cornerRadius": 0,
      "curveFrom": "{0.49948605903693377, 0.50000000000000011}",
      "curveMode": 1,
      "curveTo": "{0.49948605903693377, 0.50000000000000011}",
      "hasCurveFrom": false,
      "hasCurveTo": false,
      "point": "{0.49948605903693377, 0.50000000000000011}"
    },
    {
      "_class": "curvePoint",
      "cornerRadius": 0,
      "curveFrom": "{1.0113698188618967, 0.8305217119650109}",
      "curveMode": 4,
      "curveTo": "{0.96589054341431013, 0.80115588878475485}",
      "hasCurveFrom": true,
      "hasCurveTo": false,
      "point": "{0.96589054341431013, 0.80115588878475485}"
    },
    {
      "_class": "curvePoint",
      "cornerRadius": 0,
      "curveFrom": "{0.96589054341431013, 0.90706029365823182}",
      "curveMode": 4,
      "curveTo": "{1.0113698188618967, 0.87800687285223378}",
      "hasCurveFrom": false,
      "hasCurveTo": true,
      "point": "{0.96589054341431013, 0.90706029365823182}"
    },
    {
      "_class": "curvePoint",
      "cornerRadius": 0,
      "curveFrom": "{0.81106747806082413, 1.0073414557950642}",
      "curveMode": 4,
      "curveTo": "{0.85654675350841059, 0.97797563261480802}",
      "hasCurveFrom": true,
      "hasCurveTo": false,
      "point": "{0.85654675350841059, 0.97797563261480802}"
    },
    {
      "_class": "curvePoint",
      "cornerRadius": 0,
      "curveFrom": "{0.69253106864956149, 0.97797563261480802}",
      "curveMode": 4,
      "curveTo": "{0.73752652201791835, 1.0073414557950642}",
      "hasCurveFrom": false,
      "hasCurveTo": true,
      "point": "{0.69253106864956149, 0.97797563261480802}"
    },
    {
      "_class": "curvePoint",
      "cornerRadius": 0,
      "curveFrom": "{-0.01143005662956984, 0.52374258044361155}",
      "curveMode": 4,
      "curveTo": "{0.034533040897246292, 0.55310840362386759}",
      "hasCurveFrom": true,
      "hasCurveTo": false,
      "point": "{0.034533040897246292, 0.55310840362386759}"
    }
  ],
  "resizingConstraint": 63,
  "resizingType": 0,
  "rotation": 0,
  "sharedStyleID": "6384751B-1CEA-4B08-9A1E-01F42BC9555A",
  "shouldBreakMaskChain": false,
  "style": {
    "_class": "style",
    "blur": {
      "_class": "blur",
      "center": "{0.5, 0.5}",
      "isEnabled": false,
      "motionAngle": 0,
      "radius": 10,
      "saturation": 1,
      "type": 0
    },
    "borderOptions": {
      "_class": "borderOptions",
      "dashPattern": [
      ],
      "isEnabled": true,
      "lineCapStyle": 0,
      "lineJoinStyle": 9223372036854776000
    },
    "borders": [
    ],
    "colorControls": {
      "_class": "colorControls",
      "brightness": 0,
      "contrast": 1,
      "hue": 0,
      "isEnabled": false,
      "saturation": 1
    },
    "contextSettings": {
      "_class": "graphicsContextSettings",
      "blendMode": 0,
      "opacity": 1
    },
    "do_objectID": "72B9F0BC-2C8E-4B6C-9D5E-2C829ECE9CA6",
    "endMarkerType": 0,
    "fills": [
      {
        "_class": "fill",
        "color": {
          "_class": "color",
          "alpha": 1,
          "blue": 0,
          "green": 0,
          "red": 0
        },
        "contextSettings": {
          "_class": "graphicsContextSettings",
          "blendMode": 0,
          "opacity": 1
        },
        "fillType": 0,
        "gradient": {
          "_class": "gradient",
          "elipseLength": 0,
          "from": "{0.5, 0}",
          "gradientType": 0,
          "stops": [
            {
              "_class": "gradientStop",
              "color": {
                "_class": "color",
                "alpha": 1,
                "blue": 1,
                "green": 1,
                "red": 1
              },
              "position": 0
            },
            {
              "_class": "gradientStop",
              "color": {
                "_class": "color",
                "alpha": 1,
                "blue": 0,
                "green": 0,
                "red": 0
              },
              "position": 1
            }
          ],
          "to": "{0.5, 1}"
        },
        "isEnabled": true,
        "noiseIndex": 0,
        "noiseIntensity": 0,
        "patternFillType": 1,
        "patternTileScale": 1
      }
    ],
    "innerShadows": [
    ],
    "miterLimit": 10,
    "shadows": [
    ],
    "startMarkerType": 0,
    "windingRule": 1
  }
}