{
  "_class": "shapePath",
  "booleanOperation": -1,
  "clippingMaskMode": 0,
  "do_objectID": "8A8FFEDA-C1D3-4452-A1E4-FFC26E29B279",
  "edited": true,
  "exportOptions": {
    "_class": "exportOptions",
    "exportFormats": [
    ],
    "includedLayerIds": [
    ],
    "layerOptions": 0,
    "shouldTrim": false
  },
  "frame": {
    "_class": "rect",
    "constrainProportions": false,
    "height": 4.500000018750001,
    "width": 21.0000000875,
    "x": 1.499999956249999,
    "y": 9.749999990625
  },
  "hasClippingMask": false,
  "isClosed": true,
  "isFixedToViewport": false,
  "isFlippedHorizontal": false,
  "isFlippedVertical": false,
  "isLocked": false,
  "isVisible": true,
  "layerListExpandedType": 1,
  "name": "minus",
  "nameIsFixed": false,
  "pointRadiusBehaviour": 1,
  "points": [
    {
      "_class": "curvePoint",
      "cornerRadius": 0,
      "curveFrom": "{0.9285714285714286, 0}",
      "curveMode": 4,
      "curveTo": "{0.96801339285714294, 0}",
      "hasCurveFrom": false,
      "hasCurveTo": true,
      "point": "{0.9285714285714286, 0}"
    },
    {
      "_class": "curvePoint",
      "cornerRadius": 0,
      "curveFrom": "{0.031986607142857136, 0}",
      "curveMode": 4,
      "curveTo": "{0.071428571428571425, 0}",
      "hasCurveFrom": true,
      "hasCurveTo": false,
      "point": "{0.071428571428571425, 0}"
    },
    {
      "_class": "curvePoint",
      "cornerRadius": 0,
      "curveFrom": "{0, 0.33333333333333331}",
      "curveMode": 4,
      "curveTo": "{0, 0.14927083333333346}",
      "hasCurveFrom": false,
      "hasCurveTo": true,
      "point": "{0, 0.33333333333333331}"
    },
    {
      "_class": "curvePoint",
      "cornerRadius": 0,
      "curveFrom": "{0, 0.85072916666666687}",
      "curveMode": 4,
      "curveTo": "{0, 0.66666666666666663}",
      "hasCurveFrom": true,
      "hasCurveTo": false,
      "point": "{0, 0.66666666666666663}"
    },
    {
      "_class": "curvePoint",
      "cornerRadius": 0,
      "curveFrom": "{0.071428571428571425, 1}",
      "curveMode": 4,
      "curveTo": "{0.031986607142857143, 1}",
      "hasCurveFrom": false,
      "hasCurveTo": true,
      "point": "{0.071428571428571425, 1}"
    },
    {
      "_class": "curvePoint",
      "cornerRadius": 0,
      "curveFrom": "{0.96801339285714294, 1}",
      "curveMode": 4,
      "curveTo": "{0.9285714285714286, 1}",
      "hasCurveFrom": true,
      "hasCurveTo": false,
      "point": "{0.9285714285714286, 1}"
    },
    {
      "_class": "curvePoint",
      "cornerRadius": 0,
      "curveFrom": "{1, 0.66666666666666663}",
      "curveMode": 4,
      "curveTo": "{1, 0.85072916666666687}",
      "hasCurveFrom": false,
      "hasCurveTo": true,
      "point": "{1, 0.66666666666666663}"
    },
    {
      "_class": "curvePoint",
      "cornerRadius": 0,
      "curveFrom": "{1, 0.14927083333333316}",
      "curveMode": 4,
      "curveTo": "{1, 0.33333333333333331}",
      "hasCurveFrom": true,
      "hasCurveTo": false,
      "point": "{1, 0.33333333333333331}"
    }
  ],
  "resizingConstraint": 63,
  "resizingType": 0,
  "rotation": 0,
  "sharedStyleID": "6384751B-1CEA-4B08-9A1E-01F42BC9555A",
  "shouldBreakMaskChain": false,
  "style": {
    "_class": "style",
    "blur": {
      "_class": "blur",
      "center": "{0.5, 0.5}",
      "isEnabled": false,
      "motionAngle": 0,
      "radius": 10,
      "saturation": 1,
      "type": 0
    },
    "borderOptions": {
      "_class": "borderOptions",
      "dashPattern": [
      ],
      "isEnabled": true,
      "lineCapStyle": 0,
      "lineJoinStyle": 9223372036854776000
    },
    "borders": [
    ],
    "colorControls": {
      "_class": "colorControls",
      "brightness": 0,
      "contrast": 1,
      "hue": 0,
      "isEnabled": false,
      "saturation": 1
    },
    "contextSettings": {
      "_class": "graphicsContextSettings",
      "blendMode": 0,
      "opacity": 1
    },
    "do_objectID": "3A7CD6BC-A074-4F8D-8D29-BECF4EF36025",
    "endMarkerType": 0,
    "fills": [
      {
        "_class": "fill",
        "color": {
          "_class": "color",
          "alpha": 1,
          "blue": 0,
          "green": 0,
          "red": 0
        },
        "contextSettings": {
          "_class": "graphicsContextSettings",
          "blendMode": 0,
          "opacity": 1
        },
        "fillType": 0,
        "gradient": {
          "_class": "gradient",
          "elipseLength": 0,
          "from": "{0.5, 0}",
          "gradientType": 0,
          "stops": [
            {
              "_class": "gradientStop",
              "color": {
                "_class": "color",
                "alpha": 1,
                "blue": 1,
                "green": 1,
                "red": 1
              },
              "position": 0
            },
            {
              "_class": "gradientStop",
              "color": {
                "_class": "color",
                "alpha": 1,
                "blue": 0,
                "green": 0,
                "red": 0
              },
              "position": 1
            }
          ],
          "to": "{0.5, 1}"
        },
        "isEnabled": true,
        "noiseIndex": 0,
        "noiseIntensity": 0,
        "patternFillType": 1,
        "patternTileScale": 1
      }
    ],
    "innerShadows": [
    ],
    "miterLimit": 10,
    "shadows": [
    ],
    "startMarkerType": 0,
    "windingRule": 1
  }
}