{
  "_class": "shapePath",
  "booleanOperation": -1,
  "clippingMaskMode": 0,
  "do_objectID": "9FC4E544-B70A-4E4F-A380-E6D9A0BFFF86",
  "edited": true,
  "exportOptions": {
    "_class": "exportOptions",
    "exportFormats": [
    ],
    "includedLayerIds": [
    ],
    "layerOptions": 0,
    "shouldTrim": false
  },
  "frame": {
    "_class": "rect",
    "constrainProportions": false,
    "height": 24.0000704125003,
    "width": 23.99997666249991,
    "x": -0.00003520625014807875,
    "y": -0.00003520625014630242
  },
  "hasClippingMask": false,
  "isClosed": true,
  "isFixedToViewport": false,
  "isFlippedHorizontal": false,
  "isFlippedVertical": false,
  "isLocked": false,
  "isVisible": true,
  "layerListExpandedType": 1,
  "name": "arrows-alt",
  "nameIsFixed": false,
  "pointRadiusBehaviour": 1,
  "points": [
    {
      "_class": "curvePoint",
      "cornerRadius": 0,
      "curveFrom": "{0.68789471474093211, 0.8315908254175034}",
      "curveMode": 4,
      "curveTo": "{0.71742404045316432, 0.802059661934584}",
      "hasCurveFrom": false,
      "hasCurveTo": true,
      "point": "{0.68789471474093211, 0.8315908254175034}"
    },
    {
      "_class": "curvePoint",
      "cornerRadius": 0,
      "curveFrom": "{0.51490821768380612, 1.0045766467481052}",
      "curveMode": 4,
      "curveTo": "{0.53321487618640229, 0.98627005975568416}",
      "hasCurveFrom": true,
      "hasCurveTo": false,
      "point": "{0.53321487618640229, 0.98627005975568416}"
    },
    {
      "_class": "curvePoint",
      "cornerRadius": 0,
      "curveFrom": "{0.46692379582401922, 0.98627005975568416}",
      "curveMode": 4,
      "curveTo": "{0.48523045432661538, 1.0045766467481052}",
      "hasCurveFrom": false,
      "hasCurveTo": true,
      "point": "{0.46692379582401922, 0.98627005975568416}"
    },
    {
      "_class": "curvePoint",
      "cornerRadius": 0,
      "curveFrom": "{0.28271463155725729, 0.80206161505386186}",
      "curveMode": 4,
      "curveTo": "{0.31224395726948945, 0.8315908254175034}",
      "hasCurveFrom": true,
      "hasCurveTo": false,
      "point": "{0.31224395726948945, 0.8315908254175034}"
    },
    {
      "_class": "curvePoint",
      "cornerRadius": 0,
      "curveFrom": "{0.3453904740141347, 0.75157152859903709}",
      "curveMode": 4,
      "curveTo": "{0.30362871448116641, 0.75156957547975911}",
      "hasCurveFrom": false,
      "hasCurveTo": true,
      "point": "{0.3453904740141347, 0.75157152859903709}"
    },
    {
      "_class": "curvePoint",
      "cornerRadius": 0,
      "curveFrom": "{0.4453163528480007, 0.75157152859903709}",
      "curveMode": 1,
      "curveTo": "{0.4453163528480007, 0.75157152859903709}",
      "hasCurveFrom": false,
      "hasCurveTo": false,
      "point": "{0.4453163528480007, 0.75157152859903709}"
    },
    {
      "_class": "curvePoint",
      "cornerRadius": 0,
      "curveFrom": "{0.44531439972109332, 0.55468733978318407}",
      "curveMode": 1,
      "curveTo": "{0.44531439972109332, 0.55468733978318407}",
      "hasCurveFrom": false,
      "hasCurveTo": false,
      "point": "{0.44531439972109332, 0.55468733978318407}"
    },
    {
      "_class": "curvePoint",
      "cornerRadius": 0,
      "curveFrom": "{0.24843139495253402, 0.55468733978318407}",
      "curveMode": 1,
      "curveTo": "{0.24843139495253402, 0.55468733978318407}",
      "hasCurveFrom": false,
      "hasCurveTo": false,
      "point": "{0.24843139495253402, 0.55468733978318407}"
    },
    {
      "_class": "curvePoint",
      "cornerRadius": 0,
      "curveFrom": "{0.24843139495253402, 0.69637442468430255}",
      "curveMode": 4,
      "curveTo": "{0.24843139495253402, 0.65461282828272949}",
      "hasCurveFrom": true,
      "hasCurveTo": false,
      "point": "{0.24843139495253402, 0.65461282828272949}"
    },
    {
      "_class": "curvePoint",
      "cornerRadius": 0,
      "curveFrom": "{0.16840983243147692, 0.68775921554917296}",
      "curveMode": 4,
      "curveTo": "{0.19794111127061639, 0.7172884259128145}",
      "hasCurveFrom": false,
      "hasCurveTo": true,
      "point": "{0.16840983243147692, 0.68775921554917296}"
    },
    {
      "_class": "curvePoint",
      "cornerRadius": 0,
      "curveFrom": "{-0.0045766646256490458, 0.5147733942185716}",
      "curveMode": 4,
      "curveTo": "{0.013729993876947141, 0.53307998121099243}",
      "hasCurveFrom": true,
      "hasCurveTo": false,
      "point": "{0.013729993876947141, 0.53307998121099243}"
    },
    {
      "_class": "curvePoint",
      "cornerRadius": 0,
      "curveFrom": "{0.013729993876947141, 0.46678915979738339}",
      "curveMode": 4,
      "curveTo": "{-0.0045766646256490458, 0.48509379367052635}",
      "hasCurveFrom": false,
      "hasCurveTo": true,
      "point": "{0.013729993876947141, 0.46678915979738339}"
    },
    {
      "_class": "curvePoint",
      "cornerRadius": 0,
      "curveFrom": "{0.19793915814370905, 0.28258071509556126}",
      "curveMode": 4,
      "curveTo": "{0.16840983243147692, 0.31210992545920274}",
      "hasCurveFrom": true,
      "hasCurveTo": false,
      "point": "{0.16840983243147692, 0.31210992545920274}"
    },
    {
      "_class": "curvePoint",
      "cornerRadius": 0,
      "curveFrom": "{0.24843139495253402, 0.34525631272564633}",
      "curveMode": 4,
      "curveTo": "{0.24843139495253402, 0.30349471632407327}",
      "hasCurveFrom": false,
      "hasCurveTo": true,
      "point": "{0.24843139495253402, 0.34525631272564633}"
    },
    {
      "_class": "curvePoint",
      "cornerRadius": 0,
      "curveFrom": "{0.24843139495253402, 0.4453126602168157}",
      "curveMode": 1,
      "curveTo": "{0.24843139495253402, 0.4453126602168157}",
      "hasCurveFrom": false,
      "hasCurveTo": false,
      "point": "{0.24843139495253402, 0.4453126602168157}"
    },
    {
      "_class": "curvePoint",
      "cornerRadius": 0,
      "curveFrom": "{0.44531439972109332, 0.4453126602168157}",
      "curveMode": 1,
      "curveTo": "{0.44531439972109332, 0.4453126602168157}",
      "hasCurveFrom": false,
      "hasCurveTo": false,
      "point": "{0.44531439972109332, 0.4453126602168157}"
    },
    {
      "_class": "curvePoint",
      "cornerRadius": 0,
      "curveFrom": "{0.44531439972109332, 0.24843042452024064}",
      "curveMode": 1,
      "curveTo": "{0.44531439972109332, 0.24843042452024064}",
      "hasCurveFrom": false,
      "hasCurveTo": false,
      "point": "{0.44531439972109332, 0.24843042452024064}"
    },
    {
      "_class": "curvePoint",
      "cornerRadius": 0,
      "curveFrom": "{0.3034939487245592, 0.24843042452024064}",
      "curveMode": 4,
      "curveTo": "{0.34525570825752749, 0.24843042452024064}",
      "hasCurveFrom": true,
      "hasCurveTo": false,
      "point": "{0.34525570825752749, 0.24843042452024064}"
    },
    {
      "_class": "curvePoint",
      "cornerRadius": 0,
      "curveFrom": "{0.31210919151288224, 0.16840917458249632}",
      "curveMode": 4,
      "curveTo": "{0.28257986580065014, 0.19794033806541581}",
      "hasCurveFrom": false,
      "hasCurveTo": true,
      "point": "{0.31210919151288224, 0.16840917458249632}"
    },
    {
      "_class": "curvePoint",
      "cornerRadius": 0,
      "curveFrom": "{0.48509568857000823, -0.0045766467481052281}",
      "curveMode": 4,
      "curveTo": "{0.46678903006741201, 0.013729940244315689}",
      "hasCurveFrom": true,
      "hasCurveTo": false,
      "point": "{0.46678903006741201, 0.013729940244315689}"
    },
    {
      "_class": "curvePoint",
      "cornerRadius": 0,
      "curveFrom": "{0.5330801104297952, 0.013729940244315689}",
      "curveMode": 4,
      "curveTo": "{0.51477345192719892, -0.0045766467481052281}",
      "hasCurveFrom": false,
      "hasCurveTo": true,
      "point": "{0.5330801104297952, 0.013729940244315689}"
    },
    {
      "_class": "curvePoint",
      "cornerRadius": 0,
      "curveFrom": "{0.71728927469655723, 0.19793838494613783}",
      "curveMode": 4,
      "curveTo": "{0.68775994898432502, 0.16840917458249632}",
      "hasCurveFrom": true,
      "hasCurveTo": false,
      "point": "{0.68775994898432502, 0.16840917458249632}"
    },
    {
      "_class": "curvePoint",
      "cornerRadius": 0,
      "curveFrom": "{0.65461343223967972, 0.24843042452024064}",
      "curveMode": 4,
      "curveTo": "{0.69637519177264806, 0.24843042452024064}",
      "hasCurveFrom": false,
      "hasCurveTo": true,
      "point": "{0.65461343223967972, 0.24843042452024064}"
    },
    {
      "_class": "curvePoint",
      "cornerRadius": 0,
      "curveFrom": "{0.55468755340581377, 0.24843042452024064}",
      "curveMode": 1,
      "curveTo": "{0.55468755340581377, 0.24843042452024064}",
      "hasCurveFrom": false,
      "hasCurveTo": false,
      "point": "{0.55468755340581377, 0.24843042452024064}"
    },
    {
      "_class": "curvePoint",
      "cornerRadius": 0,
      "curveFrom": "{0.55468755340581377, 0.4453126602168157}",
      "curveMode": 1,
      "curveTo": "{0.55468755340581377, 0.4453126602168157}",
      "hasCurveFrom": false,
      "hasCurveTo": false,
      "point": "{0.55468755340581377, 0.4453126602168157}"
    },
    {
      "_class": "curvePoint",
      "cornerRadius": 0,
      "curveFrom": "{0.75157055817437313, 0.4453126602168157}",
      "curveMode": 1,
      "curveTo": "{0.75157055817437313, 0.4453126602168157}",
      "hasCurveFrom": false,
      "hasCurveTo": false,
      "point": "{0.75157055817437313, 0.4453126602168157}"
    },
    {
      "_class": "curvePoint",
      "cornerRadius": 0,
      "curveFrom": "{0.75157055817437313, 0.30362557531569728}",
      "curveMode": 4,
      "curveTo": "{0.75157055817437313, 0.34538717171727029}",
      "hasCurveFrom": true,
      "hasCurveTo": false,
      "point": "{0.75157055817437313, 0.34538717171727029}"
    },
    {
      "_class": "curvePoint",
      "cornerRadius": 0,
      "curveFrom": "{0.831590167568523, 0.31224078445082676}",
      "curveMode": 4,
      "curveTo": "{0.80206084185629078, 0.28271157408718522}",
      "hasCurveFrom": false,
      "hasCurveTo": true,
      "point": "{0.831590167568523, 0.31224078445082676}"
    },
    {
      "_class": "curvePoint",
      "cornerRadius": 0,
      "curveFrom": "{1.0045766646256491, 0.48522660578142829}",
      "curveMode": 4,
      "curveTo": "{0.98627000612305282, 0.46692001878900741}",
      "hasCurveFrom": true,
      "hasCurveTo": false,
      "point": "{0.98627000612305282, 0.46692001878900741}"
    },
    {
      "_class": "curvePoint",
      "cornerRadius": 0,
      "curveFrom": "{0.98627000612305282, 0.53321084020261655}",
      "curveMode": 4,
      "curveTo": "{1.0045766646256491, 0.51490620632947359}",
      "hasCurveFrom": false,
      "hasCurveTo": true,
      "point": "{0.98627000612305282, 0.53321084020261655}"
    },
    {
      "_class": "curvePoint",
      "cornerRadius": 0,
      "curveFrom": "{0.80206084185629056, 0.71741928490443851}",
      "curveMode": 4,
      "curveTo": "{0.83159016756852278, 0.68789007454079709}",
      "hasCurveFrom": true,
      "hasCurveTo": false,
      "point": "{0.83159016756852278, 0.68789007454079709}"
    },
    {
      "_class": "curvePoint",
      "cornerRadius": 0,
      "curveFrom": "{0.7515705581743729, 0.6547436872743535}",
      "curveMode": 4,
      "curveTo": "{0.75156860504746559, 0.69650528367592657}",
      "hasCurveFrom": false,
      "hasCurveTo": true,
      "point": "{0.7515705581743729, 0.6547436872743535}"
    },
    {
      "_class": "curvePoint",
      "cornerRadius": 0,
      "curveFrom": "{0.7515705581743729, 0.55468733978318407}",
      "curveMode": 1,
      "curveTo": "{0.7515705581743729, 0.55468733978318407}",
      "hasCurveFrom": false,
      "hasCurveTo": false,
      "point": "{0.7515705581743729, 0.55468733978318407}"
    },
    {
      "_class": "curvePoint",
      "cornerRadius": 0,
      "curveFrom": "{0.55468950653272098, 0.55468733978318407}",
      "curveMode": 1,
      "curveTo": "{0.55468950653272098, 0.55468733978318407}",
      "hasCurveFrom": false,
      "hasCurveTo": false,
      "point": "{0.55468950653272098, 0.55468733978318407}"
    },
    {
      "_class": "curvePoint",
      "cornerRadius": 0,
      "curveFrom": "{0.55468950653272098, 0.75156957547975911}",
      "curveMode": 1,
      "curveTo": "{0.55468950653272098, 0.75156957547975911}",
      "hasCurveFrom": false,
      "hasCurveTo": false,
      "point": "{0.55468950653272098, 0.75156957547975911}"
    },
    {
      "_class": "curvePoint",
      "cornerRadius": 0,
      "curveFrom": "{0.69650995752925515, 0.75156957547975911}",
      "curveMode": 4,
      "curveTo": "{0.65474819799628692, 0.75156957547975911}",
      "hasCurveFrom": true,
      "hasCurveTo": false,
      "point": "{0.65474819799628692, 0.75156957547975911}"
    }
  ],
  "resizingConstraint": 63,
  "resizingType": 0,
  "rotation": 0,
  "sharedStyleID": "6384751B-1CEA-4B08-9A1E-01F42BC9555A",
  "shouldBreakMaskChain": false,
  "style": {
    "_class": "style",
    "blur": {
      "_class": "blur",
      "center": "{0.5, 0.5}",
      "isEnabled": false,
      "motionAngle": 0,
      "radius": 10,
      "saturation": 1,
      "type": 0
    },
    "borderOptions": {
      "_class": "borderOptions",
      "dashPattern": [
      ],
      "isEnabled": true,
      "lineCapStyle": 0,
      "lineJoinStyle": 9223372036854776000
    },
    "borders": [
    ],
    "colorControls": {
      "_class": "colorControls",
      "brightness": 0,
      "contrast": 1,
      "hue": 0,
      "isEnabled": false,
      "saturation": 1
    },
    "contextSettings": {
      "_class": "graphicsContextSettings",
      "blendMode": 0,
      "opacity": 1
    },
    "do_objectID": "59ABD432-1BC5-4C4D-95D3-C5D0C7C1ED6E",
    "endMarkerType": 0,
    "fills": [
      {
        "_class": "fill",
        "color": {
          "_class": "color",
          "alpha": 1,
          "blue": 0,
          "green": 0,
          "red": 0
        },
        "contextSettings": {
          "_class": "graphicsContextSettings",
          "blendMode": 0,
          "opacity": 1
        },
        "fillType": 0,
        "gradient": {
          "_class": "gradient",
          "elipseLength": 0,
          "from": "{0.5, 0}",
          "gradientType": 0,
          "stops": [
            {
              "_class": "gradientStop",
              "color": {
                "_class": "color",
                "alpha": 1,
                "blue": 1,
                "green": 1,
                "red": 1
              },
              "position": 0
            },
            {
              "_class": "gradientStop",
              "color": {
                "_class": "color",
                "alpha": 1,
                "blue": 0,
                "green": 0,
                "red": 0
              },
              "position": 1
            }
          ],
          "to": "{0.5, 1}"
        },
        "isEnabled": true,
        "noiseIndex": 0,
        "noiseIntensity": 0,
        "patternFillType": 1,
        "patternTileScale": 1
      }
    ],
    "innerShadows": [
    ],
    "miterLimit": 10,
    "shadows": [
    ],
    "startMarkerType": 0,
    "windingRule": 1
  }
}