{
  "_class": "shapePath",
  "booleanOperation": -1,
  "clippingMaskMode": 0,
  "do_objectID": "B124130E-12BA-4FBC-9323-66027F556CEF",
  "edited": true,
  "exportOptions": {
    "_class": "exportOptions",
    "exportFormats": [
    ],
    "includedLayerIds": [
    ],
    "layerOptions": 0,
    "shouldTrim": false
  },
  "frame": {
    "_class": "rect",
    "constrainProportions": false,
    "height": 18.000000075,
    "width": 24.0000001,
    "x": -5.000000058430487e-8,
    "y": 2.999999962499999
  },
  "hasClippingMask": false,
  "isClosed": true,
  "isFixedToViewport": false,
  "isFlippedHorizontal": false,
  "isFlippedVertical": false,
  "isLocked": false,
  "isVisible": true,
  "layerListExpandedType": 1,
  "name": "folder",
  "nameIsFixed": false,
  "pointRadiusBehaviour": 1,
  "points": [
    {
      "_class": "curvePoint",
      "cornerRadius": 0,
      "curveFrom": "{0.90625, 0.16666666666666666}",
      "curveMode": 4,
      "curveTo": "{0.95802734374999998, 0.16666666666666666}",
      "hasCurveFrom": false,
      "hasCurveTo": true,
      "point": "{0.90625, 0.16666666666666666}"
    },
    {
      "_class": "curvePoint",
      "cornerRadius": 0,
      "curveFrom": "{0.53125, 0.16666666666666666}",
      "curveMode": 1,
      "curveTo": "{0.53125, 0.16666666666666666}",
      "hasCurveFrom": false,
      "hasCurveTo": false,
      "point": "{0.53125, 0.16666666666666666}"
    },
    {
      "_class": "curvePoint",
      "cornerRadius": 0,
      "curveFrom": "{0.40625, 0}",
      "curveMode": 1,
      "curveTo": "{0.40625, 0}",
      "hasCurveFrom": false,
      "hasCurveTo": false,
      "point": "{0.40625, 0}"
    },
    {
      "_class": "curvePoint",
      "cornerRadius": 0,
      "curveFrom": "{0.041972656249999997, 0}",
      "curveMode": 4,
      "curveTo": "{0.09375, 0}",
      "hasCurveFrom": true,
      "hasCurveTo": false,
      "point": "{0.09375, 0}"
    },
    {
      "_class": "curvePoint",
      "cornerRadius": 0,
      "curveFrom": "{0, 0.125}",
      "curveMode": 4,
      "curveTo": "{0, 0.055963541666666651}",
      "hasCurveFrom": false,
      "hasCurveTo": true,
      "point": "{0, 0.125}"
    },
    {
      "_class": "curvePoint",
      "cornerRadius": 0,
      "curveFrom": "{0, 0.94403645833333327}",
      "curveMode": 4,
      "curveTo": "{0, 0.875}",
      "hasCurveFrom": true,
      "hasCurveTo": false,
      "point": "{0, 0.875}"
    },
    {
      "_class": "curvePoint",
      "cornerRadius": 0,
      "curveFrom": "{0.09375, 1}",
      "curveMode": 4,
      "curveTo": "{0.041972656249999997, 1}",
      "hasCurveFrom": false,
      "hasCurveTo": true,
      "point": "{0.09375, 1}"
    },
    {
      "_class": "curvePoint",
      "cornerRadius": 0,
      "curveFrom": "{0.95802734374999998, 1}",
      "curveMode": 4,
      "curveTo": "{0.90625, 1}",
      "hasCurveFrom": true,
      "hasCurveTo": false,
      "point": "{0.90625, 1}"
    },
    {
      "_class": "curvePoint",
      "cornerRadius": 0,
      "curveFrom": "{1, 0.875}",
      "curveMode": 4,
      "curveTo": "{1, 0.94403645833333327}",
      "hasCurveFrom": false,
      "hasCurveTo": true,
      "point": "{1, 0.875}"
    },
    {
      "_class": "curvePoint",
      "cornerRadius": 0,
      "curveFrom": "{1, 0.22263020833333336}",
      "curveMode": 4,
      "curveTo": "{1, 0.29166666666666669}",
      "hasCurveFrom": true,
      "hasCurveTo": false,
      "point": "{1, 0.29166666666666669}"
    }
  ],
  "resizingConstraint": 63,
  "resizingType": 0,
  "rotation": 0,
  "sharedStyleID": "6384751B-1CEA-4B08-9A1E-01F42BC9555A",
  "shouldBreakMaskChain": false,
  "style": {
    "_class": "style",
    "blur": {
      "_class": "blur",
      "center": "{0.5, 0.5}",
      "isEnabled": false,
      "motionAngle": 0,
      "radius": 10,
      "saturation": 1,
      "type": 0
    },
    "borderOptions": {
      "_class": "borderOptions",
      "dashPattern": [
      ],
      "isEnabled": true,
      "lineCapStyle": 0,
      "lineJoinStyle": 9223372036854776000
    },
    "borders": [
    ],
    "colorControls": {
      "_class": "colorControls",
      "brightness": 0,
      "contrast": 1,
      "hue": 0,
      "isEnabled": false,
      "saturation": 1
    },
    "contextSettings": {
      "_class": "graphicsContextSettings",
      "blendMode": 0,
      "opacity": 1
    },
    "do_objectID": "FB3CC1F6-2B98-425C-B52E-1B9C3362E6E1",
    "endMarkerType": 0,
    "fills": [
      {
        "_class": "fill",
        "color": {
          "_class": "color",
          "alpha": 1,
          "blue": 0,
          "green": 0,
          "red": 0
        },
        "contextSettings": {
          "_class": "graphicsContextSettings",
          "blendMode": 0,
          "opacity": 1
        },
        "fillType": 0,
        "gradient": {
          "_class": "gradient",
          "elipseLength": 0,
          "from": "{0.5, 0}",
          "gradientType": 0,
          "stops": [
            {
              "_class": "gradientStop",
              "color": {
                "_class": "color",
                "alpha": 1,
                "blue": 1,
                "green": 1,
                "red": 1
              },
              "position": 0
            },
            {
              "_class": "gradientStop",
              "color": {
                "_class": "color",
                "alpha": 1,
                "blue": 0,
                "green": 0,
                "red": 0
              },
              "position": 1
            }
          ],
          "to": "{0.5, 1}"
        },
        "isEnabled": true,
        "noiseIndex": 0,
        "noiseIntensity": 0,
        "patternFillType": 1,
        "patternTileScale": 1
      }
    ],
    "innerShadows": [
    ],
    "miterLimit": 10,
    "shadows": [
    ],
    "startMarkerType": 0,
    "windingRule": 1
  }
}