{
  "_class": "shapePath",
  "booleanOperation": -1,
  "clippingMaskMode": 0,
  "do_objectID": "21AF60B1-ED8A-4382-969B-E6B2F6A768E6",
  "edited": true,
  "exportOptions": {
    "_class": "exportOptions",
    "exportFormats": [
    ],
    "includedLayerIds": [
    ],
    "layerOptions": 0,
    "shouldTrim": false
  },
  "frame": {
    "_class": "rect",
    "constrainProportions": false,
    "height": 24.0000704125003,
    "width": 23.99998838124996,
    "x": 0.00001166875004976475,
    "y": -0.00003520625014630242
  },
  "hasClippingMask": false,
  "isClosed": true,
  "isFixedToViewport": false,
  "isFlippedHorizontal": false,
  "isFlippedVertical": false,
  "isLocked": false,
  "isVisible": true,
  "layerListExpandedType": 1,
  "name": "gavel",
  "nameIsFixed": false,
  "pointRadiusBehaviour": 1,
  "points": [
    {
      "_class": "curvePoint",
      "cornerRadius": 0,
      "curveFrom": "{0.98627147767161971, 0.38937923033428606}",
      "curveMode": 1,
      "curveTo": "{0.98627147767161971, 0.38937923033428606}",
      "hasCurveFrom": false,
      "hasCurveTo": false,
      "point": "{0.98627147767161971, 0.38937923033428606}"
    },
    {
      "_class": "curvePoint",
      "cornerRadius": 0,
      "curveFrom": "{0.9237714471540267, 0.32687941343921839}",
      "curveMode": 4,
      "curveTo": "{0.94207809671782039, 0.34518600043163927}",
      "hasCurveFrom": true,
      "hasCurveTo": false,
      "point": "{0.94207809671782039, 0.34518600043163927}"
    },
    {
      "_class": "curvePoint",
      "cornerRadius": 0,
      "curveFrom": "{0.8757870487241447, 0.34518600043163927}",
      "curveMode": 4,
      "curveTo": "{0.89409174516198475, 0.32687941343921839}",
      "hasCurveFrom": false,
      "hasCurveTo": true,
      "point": "{0.8757870487241447, 0.34518600043163927}"
    },
    {
      "_class": "curvePoint",
      "cornerRadius": 0,
      "curveFrom": "{0.86473821520420657, 0.35623479618712051}",
      "curveMode": 1,
      "curveTo": "{0.86473821520420657, 0.35623479618712051}",
      "hasCurveFrom": false,
      "hasCurveTo": false,
      "point": "{0.86473821520420657, 0.35623479618712051}"
    },
    {
      "_class": "curvePoint",
      "cornerRadius": 0,
      "curveFrom": "{0.64376545105734906, 0.13526474043533071}",
      "curveMode": 1,
      "curveTo": "{0.64376545105734906, 0.13526474043533071}",
      "hasCurveFrom": false,
      "hasCurveTo": false,
      "point": "{0.64376545105734906, 0.13526474043533071}"
    },
    {
      "_class": "curvePoint",
      "cornerRadius": 0,
      "curveFrom": "{0.67312093414108098, 0.10590935768742864}",
      "curveMode": 4,
      "curveTo": "{0.65481428457728719, 0.12421594467984955}",
      "hasCurveFrom": true,
      "hasCurveTo": false,
      "point": "{0.65481428457728719, 0.12421594467984955}"
    },
    {
      "_class": "curvePoint",
      "cornerRadius": 0,
      "curveFrom": "{0.65481428457728719, 0.057925123266240414}",
      "curveMode": 4,
      "curveTo": "{0.67312093414108098, 0.076229757139383361}",
      "hasCurveFrom": false,
      "hasCurveTo": true,
      "point": "{0.65481428457728719, 0.057925123266240414}"
    },
    {
      "_class": "curvePoint",
      "cornerRadius": 0,
      "curveFrom": "{0.59231425405969418, -0.0045766467481052281}",
      "curveMode": 4,
      "curveTo": "{0.61062090362348798, 0.013729940244315689}",
      "hasCurveFrom": true,
      "hasCurveTo": false,
      "point": "{0.61062090362348798, 0.013729940244315689}"
    },
    {
      "_class": "curvePoint",
      "cornerRadius": 0,
      "curveFrom": "{0.54432985562981218, 0.013729940244315689}",
      "curveMode": 4,
      "curveTo": "{0.56263455206765223, -0.0045766467481052281}",
      "hasCurveFrom": false,
      "hasCurveTo": true,
      "point": "{0.54432985562981218, 0.013729940244315689}"
    },
    {
      "_class": "curvePoint",
      "cornerRadius": 0,
      "curveFrom": "{0.28295472800523824, 0.27510417449948871}",
      "curveMode": 4,
      "curveTo": "{0.30126137756903199, 0.25679758750706783}",
      "hasCurveFrom": true,
      "hasCurveTo": false,
      "point": "{0.30126137756903199, 0.25679758750706783}"
    },
    {
      "_class": "curvePoint",
      "cornerRadius": 0,
      "curveFrom": "{0.30126137756903199, 0.32308840892067697}",
      "curveMode": 4,
      "curveTo": "{0.28295472800523824, 0.30478377504753396}",
      "hasCurveFrom": false,
      "hasCurveTo": true,
      "point": "{0.30126137756903199, 0.32308840892067697}"
    },
    {
      "_class": "curvePoint",
      "cornerRadius": 0,
      "curveFrom": "{0.36376140808662499, 0.38558822581574465}",
      "curveMode": 4,
      "curveTo": "{0.34545475852283125, 0.36728163882332371}",
      "hasCurveFrom": true,
      "hasCurveTo": false,
      "point": "{0.34545475852283125, 0.36728163882332371}"
    },
    {
      "_class": "curvePoint",
      "cornerRadius": 0,
      "curveFrom": "{0.41174580651650705, 0.36728163882332371}",
      "curveMode": 4,
      "curveTo": "{0.39344111007866694, 0.38558822581574465}",
      "hasCurveFrom": false,
      "hasCurveTo": true,
      "point": "{0.41174580651650705, 0.36728163882332371}"
    },
    {
      "_class": "curvePoint",
      "cornerRadius": 0,
      "curveFrom": "{0.42279464003644529, 0.35623284306784253}",
      "curveMode": 1,
      "curveTo": "{0.42279464003644529, 0.35623284306784253}",
      "hasCurveFrom": false,
      "hasCurveTo": false,
      "point": "{0.42279464003644529, 0.35623284306784253}"
    },
    {
      "_class": "curvePoint",
      "cornerRadius": 0,
      "curveFrom": "{0.50013452155005933, 0.4335724602369328}",
      "curveMode": 1,
      "curveTo": "{0.50013452155005933, 0.4335724602369328}",
      "hasCurveFrom": false,
      "hasCurveTo": false,
      "point": "{0.50013452155005933, 0.4335724602369328}"
    },
    {
      "_class": "curvePoint",
      "cornerRadius": 0,
      "curveFrom": "{0.34185319426425492, 0.59185324652369165}",
      "curveMode": 1,
      "curveTo": "{0.34185319426425492, 0.59185324652369165}",
      "hasCurveFrom": false,
      "hasCurveTo": false,
      "point": "{0.34185319426425492, 0.59185324652369165}"
    },
    {
      "_class": "curvePoint",
      "cornerRadius": 0,
      "curveFrom": "{0.30639614570124296, 0.55639631915140864}",
      "curveMode": 4,
      "curveTo": "{0.33080436074431668, 0.58080445076821052}",
      "hasCurveFrom": true,
      "hasCurveTo": false,
      "point": "{0.33080436074431668, 0.58080445076821052}"
    },
    {
      "_class": "curvePoint",
      "cornerRadius": 0,
      "curveFrom": "{0.24241564571076443, 0.58080445076821052}",
      "curveMode": 4,
      "curveTo": "{0.26682386075383818, 0.55639631915140864}",
      "hasCurveFrom": false,
      "hasCurveTo": true,
      "point": "{0.24241564571076443, 0.58080445076821052}"
    },
    {
      "_class": "curvePoint",
      "cornerRadius": 0,
      "curveFrom": "{-0.0061020537607684366, 0.8293252070550573}",
      "curveMode": 4,
      "curveTo": "{0.018306161282305309, 0.80491707543825541}",
      "hasCurveFrom": true,
      "hasCurveTo": false,
      "point": "{0.018306161282305309, 0.80491707543825541}"
    },
    {
      "_class": "curvePoint",
      "cornerRadius": 0,
      "curveFrom": "{0.018306161282305309, 0.89330548836282686}",
      "curveMode": 4,
      "curveTo": "{-0.0061020537607684366, 0.86889735674602497}",
      "hasCurveFrom": false,
      "hasCurveTo": true,
      "point": "{0.018306161282305309, 0.89330548836282686}"
    },
    {
      "_class": "curvePoint",
      "cornerRadius": 0,
      "curveFrom": "{0.13110309135893131, 1.0061020329042003}",
      "curveMode": 4,
      "curveTo": "{0.10669487631585754, 0.98169390128739831}",
      "hasCurveFrom": true,
      "hasCurveTo": false,
      "point": "{0.10669487631585754, 0.98169390128739831}"
    },
    {
      "_class": "curvePoint",
      "cornerRadius": 0,
      "curveFrom": "{0.19508359134940984, 0.98169390128739831}",
      "curveMode": 4,
      "curveTo": "{0.17067537630633606, 1.0061020329042003}",
      "hasCurveFrom": false,
      "hasCurveTo": true,
      "point": "{0.19508359134940984, 0.98169390128739831}"
    },
    {
      "_class": "curvePoint",
      "cornerRadius": 0,
      "curveFrom": "{0.44360324394689638, 0.7331750981198295}",
      "curveMode": 4,
      "curveTo": "{0.41919502890382265, 0.75758322973663139}",
      "hasCurveFrom": true,
      "hasCurveTo": false,
      "point": "{0.41919502890382265, 0.75758322973663139}"
    },
    {
      "_class": "curvePoint",
      "cornerRadius": 0,
      "curveFrom": "{0.41919502890382265, 0.66919481681205994}",
      "curveMode": 4,
      "curveTo": "{0.44360324394689638, 0.69360294842886183}",
      "hasCurveFrom": false,
      "hasCurveTo": true,
      "point": "{0.41919502890382265, 0.66919481681205994}"
    },
    {
      "_class": "curvePoint",
      "cornerRadius": 0,
      "curveFrom": "{0.40814619538388441, 0.65814602105657882}",
      "curveMode": 1,
      "curveTo": "{0.40814619538388441, 0.65814602105657882}",
      "hasCurveFrom": false,
      "hasCurveTo": false,
      "point": "{0.40814619538388441, 0.65814602105657882}"
    },
    {
      "_class": "curvePoint",
      "cornerRadius": 0,
      "curveFrom": "{0.56642752266968877, 0.49986523476981992}",
      "curveMode": 1,
      "curveTo": "{0.56642752266968877, 0.49986523476981992}",
      "hasCurveFrom": false,
      "hasCurveTo": false,
      "point": "{0.56642752266968877, 0.49986523476981992}"
    },
    {
      "_class": "curvePoint",
      "cornerRadius": 0,
      "curveFrom": "{0.6437674041833028, 0.57720485193891025}",
      "curveMode": 1,
      "curveTo": "{0.6437674041833028, 0.57720485193891025}",
      "hasCurveFrom": false,
      "hasCurveTo": false,
      "point": "{0.6437674041833028, 0.57720485193891025}"
    },
    {
      "_class": "curvePoint",
      "cornerRadius": 0,
      "curveFrom": "{0.61441192109957088, 0.60656023468681231}",
      "curveMode": 4,
      "curveTo": "{0.63271857066336457, 0.58825364769439137}",
      "hasCurveFrom": true,
      "hasCurveTo": false,
      "point": "{0.63271857066336457, 0.58825364769439137}"
    },
    {
      "_class": "curvePoint",
      "cornerRadius": 0,
      "curveFrom": "{0.63271857066336457, 0.65454446910800046}",
      "curveMode": 4,
      "curveTo": "{0.61441192109957088, 0.63623983523485761}",
      "hasCurveFrom": false,
      "hasCurveTo": true,
      "point": "{0.63271857066336457, 0.65454446910800046}"
    },
    {
      "_class": "curvePoint",
      "cornerRadius": 0,
      "curveFrom": "{0.69521860118095757, 0.71704428600306813}",
      "curveMode": 4,
      "curveTo": "{0.67691195161716389, 0.6987376990106472}",
      "hasCurveFrom": true,
      "hasCurveTo": false,
      "point": "{0.67691195161716389, 0.6987376990106472}"
    },
    {
      "_class": "curvePoint",
      "cornerRadius": 0,
      "curveFrom": "{0.74320299961083969, 0.6987376990106472}",
      "curveMode": 4,
      "curveTo": "{0.72489830317299964, 0.71704428600306813}",
      "hasCurveFrom": false,
      "hasCurveTo": true,
      "point": "{0.74320299961083969, 0.6987376990106472}"
    },
    {
      "_class": "curvePoint",
      "cornerRadius": 0,
      "curveFrom": "{1.0045761741094599, 0.43736541787475225}",
      "curveMode": 4,
      "curveTo": "{0.98627147767161993, 0.45567005174789516}",
      "hasCurveFrom": true,
      "hasCurveTo": false,
      "point": "{0.98627147767161993, 0.45567005174789516}"
    },
    {
      "_class": "curvePoint",
      "cornerRadius": 0,
      "curveFrom": "{0.98627147767161993, 0.38937923033428601}",
      "curveMode": 4,
      "curveTo": "{1.0045761741094599, 0.40768581732670695}",
      "hasCurveFrom": false,
      "hasCurveTo": true,
      "point": "{0.98627147767161993, 0.38937923033428601}"
    }
  ],
  "resizingConstraint": 63,
  "resizingType": 0,
  "rotation": 0,
  "sharedStyleID": "6384751B-1CEA-4B08-9A1E-01F42BC9555A",
  "shouldBreakMaskChain": false,
  "style": {
    "_class": "style",
    "blur": {
      "_class": "blur",
      "center": "{0.5, 0.5}",
      "isEnabled": false,
      "motionAngle": 0,
      "radius": 10,
      "saturation": 1,
      "type": 0
    },
    "borderOptions": {
      "_class": "borderOptions",
      "dashPattern": [
      ],
      "isEnabled": true,
      "lineCapStyle": 0,
      "lineJoinStyle": 9223372036854776000
    },
    "borders": [
    ],
    "colorControls": {
      "_class": "colorControls",
      "brightness": 0,
      "contrast": 1,
      "hue": 0,
      "isEnabled": false,
      "saturation": 1
    },
    "contextSettings": {
      "_class": "graphicsContextSettings",
      "blendMode": 0,
      "opacity": 1
    },
    "do_objectID": "FB12612D-548F-45C2-A719-F4846369CB0C",
    "endMarkerType": 0,
    "fills": [
      {
        "_class": "fill",
        "color": {
          "_class": "color",
          "alpha": 1,
          "blue": 0,
          "green": 0,
          "red": 0
        },
        "contextSettings": {
          "_class": "graphicsContextSettings",
          "blendMode": 0,
          "opacity": 1
        },
        "fillType": 0,
        "gradient": {
          "_class": "gradient",
          "elipseLength": 0,
          "from": "{0.5, 0}",
          "gradientType": 0,
          "stops": [
            {
              "_class": "gradientStop",
              "color": {
                "_class": "color",
                "alpha": 1,
                "blue": 1,
                "green": 1,
                "red": 1
              },
              "position": 0
            },
            {
              "_class": "gradientStop",
              "color": {
                "_class": "color",
                "alpha": 1,
                "blue": 0,
                "green": 0,
                "red": 0
              },
              "position": 1
            }
          ],
          "to": "{0.5, 1}"
        },
        "isEnabled": true,
        "noiseIndex": 0,
        "noiseIntensity": 0,
        "patternFillType": 1,
        "patternTileScale": 1
      }
    ],
    "innerShadows": [
    ],
    "miterLimit": 10,
    "shadows": [
    ],
    "startMarkerType": 0,
    "windingRule": 1
  }
}