{
  "_class": "shapePath",
  "booleanOperation": -1,
  "clippingMaskMode": 0,
  "do_objectID": "84C66E3C-3BD8-45A8-A071-45BFB7AAA7E3",
  "edited": true,
  "exportOptions": {
    "_class": "exportOptions",
    "exportFormats": [
    ],
    "includedLayerIds": [
    ],
    "layerOptions": 0,
    "shouldTrim": false
  },
  "frame": {
    "_class": "rect",
    "constrainProportions": false,
    "height": 24.00002944203334,
    "width": 18.0000469500002,
    "x": 2.999999962499999,
    "y": -5.000000058430487e-8
  },
  "hasClippingMask": false,
  "isClosed": true,
  "isFixedToViewport": false,
  "isFlippedHorizontal": false,
  "isFlippedVertical": false,
  "isLocked": false,
  "isVisible": true,
  "layerListExpandedType": 1,
  "name": "thumbtack",
  "nameIsFixed": false,
  "pointRadiusBehaviour": 1,
  "points": [
    {
      "_class": "curvePoint",
      "cornerRadius": 0,
      "curveFrom": "{0.77611256220686931, 0.41848972273586055}",
      "curveMode": 4,
      "curveTo": "{0.90108619508803356, 0.46206974758058816}",
      "hasCurveFrom": false,
      "hasCurveTo": true,
      "point": "{0.77611256220686931, 0.41848972273586055}"
    },
    {
      "_class": "curvePoint",
      "cornerRadius": 0,
      "curveFrom": "{0.74425066601389067, 0.18749977076564572}",
      "curveMode": 1,
      "curveTo": "{0.74425066601389067, 0.18749977076564572}",
      "hasCurveFrom": false,
      "hasCurveTo": false,
      "point": "{0.74425066601389067, 0.18749977076564572}"
    },
    {
      "_class": "curvePoint",
      "cornerRadius": 0,
      "curveFrom": "{0.88868258155577728, 0.18749977076564572}",
      "curveMode": 4,
      "curveTo": "{0.85416444228009825, 0.18749977076564572}",
      "hasCurveFrom": true,
      "hasCurveTo": false,
      "point": "{0.85416444228009825, 0.18749977076564572}"
    },
    {
      "_class": "curvePoint",
      "cornerRadius": 0,
      "curveFrom": "{0.91666427952010543, 0.14062482807423429}",
      "curveMode": 4,
      "curveTo": "{0.91666427952010543, 0.1665134682981784}",
      "hasCurveFrom": false,
      "hasCurveTo": true,
      "point": "{0.91666427952010543, 0.14062482807423429}"
    },
    {
      "_class": "curvePoint",
      "cornerRadius": 0,
      "curveFrom": "{0.91666427952010543, 0.020986302467467327}",
      "curveMode": 4,
      "curveTo": "{0.91666427952010543, 0.046874942691411431}",
      "hasCurveFrom": true,
      "hasCurveTo": false,
      "point": "{0.91666427952010543, 0.046874942691411431}"
    },
    {
      "_class": "curvePoint",
      "cornerRadius": 0,
      "curveFrom": "{0.85416444228009825, 0}",
      "curveMode": 4,
      "curveTo": "{0.88868258155577728, 0}",
      "hasCurveFrom": false,
      "hasCurveTo": true,
      "point": "{0.85416444228009825, 0}"
    },
    {
      "_class": "curvePoint",
      "cornerRadius": 0,
      "curveFrom": "{0.1113148142843378, 0}",
      "curveMode": 4,
      "curveTo": "{0.14583295356001677, 0}",
      "hasCurveFrom": true,
      "hasCurveTo": false,
      "point": "{0.14583295356001677, 0}"
    },
    {
      "_class": "curvePoint",
      "cornerRadius": 0,
      "curveFrom": "{0.083333116320009587, 0.046874942691411431}",
      "curveMode": 4,
      "curveTo": "{0.083333116320009587, 0.020986302467467327}",
      "hasCurveFrom": false,
      "hasCurveTo": true,
      "point": "{0.083333116320009587, 0.046874942691411431}"
    },
    {
      "_class": "curvePoint",
      "cornerRadius": 0,
      "curveFrom": "{0.083333116320009587, 0.1665134682981784}",
      "curveMode": 4,
      "curveTo": "{0.083333116320009587, 0.14062482807423429}",
      "hasCurveFrom": true,
      "hasCurveTo": false,
      "point": "{0.083333116320009587, 0.14062482807423429}"
    },
    {
      "_class": "curvePoint",
      "cornerRadius": 0,
      "curveFrom": "{0.14583295356001677, 0.18749977076564572}",
      "curveMode": 4,
      "curveTo": "{0.1113148142843378, 0.18749977076564572}",
      "hasCurveFrom": false,
      "hasCurveTo": true,
      "point": "{0.14583295356001677, 0.18749977076564572}"
    },
    {
      "_class": "curvePoint",
      "cornerRadius": 0,
      "curveFrom": "{0.25574672982622443, 0.18749977076564572}",
      "curveMode": 1,
      "curveTo": "{0.25574672982622443, 0.18749977076564572}",
      "hasCurveFrom": false,
      "hasCurveTo": false,
      "point": "{0.25574672982622443, 0.18749977076564572}"
    },
    {
      "_class": "curvePoint",
      "cornerRadius": 0,
      "curveFrom": "{0.097564850091536232, 0.46253849700750232}",
      "curveMode": 4,
      "curveTo": "{0.22388483363324574, 0.41848972273586055}",
      "hasCurveFrom": true,
      "hasCurveTo": false,
      "point": "{0.22388483363324574, 0.41848972273586055}"
    },
    {
      "_class": "curvePoint",
      "cornerRadius": 0,
      "curveFrom": "{0, 0.66651285700656704}",
      "curveMode": 3,
      "curveTo": "{0, 0.54152472856514278}",
      "hasCurveFrom": true,
      "hasCurveTo": true,
      "point": "{0, 0.64062421678262294}"
    },
    {
      "_class": "curvePoint",
      "cornerRadius": 0,
      "curveFrom": "{0.06249983724000719, 0.68749915947403439}",
      "curveMode": 4,
      "curveTo": "{0.027981697964328218, 0.68749915947403439}",
      "hasCurveFrom": false,
      "hasCurveTo": true,
      "point": "{0.06249983724000719, 0.68749915947403439}"
    },
    {
      "_class": "curvePoint",
      "cornerRadius": 0,
      "curveFrom": "{0.41666558160004796, 0.68749915947403439}",
      "curveMode": 1,
      "curveTo": "{0.41666558160004796, 0.68749915947403439}",
      "hasCurveFrom": false,
      "hasCurveTo": false,
      "point": "{0.41666558160004796, 0.68749915947403439}"
    },
    {
      "_class": "curvePoint",
      "cornerRadius": 0,
      "curveFrom": "{0.41666558160004796, 0.89306336127938279}",
      "curveMode": 4,
      "curveTo": "{0.41666558160004796, 0.89063758299510221}",
      "hasCurveFrom": true,
      "hasCurveTo": false,
      "point": "{0.41666558160004796, 0.89063758299510221}"
    },
    {
      "_class": "curvePoint",
      "cornerRadius": 0,
      "curveFrom": "{0.41886609670287317, 0.89762585570134679}",
      "curveMode": 4,
      "curveTo": "{0.417418183806813, 0.89545593647925692}",
      "hasCurveFrom": false,
      "hasCurveTo": true,
      "point": "{0.41886609670287317, 0.89762585570134679}"
    },
    {
      "_class": "curvePoint",
      "cornerRadius": 0,
      "curveFrom": "{0.48902476816466628, 1.0028640082887896}",
      "curveMode": 4,
      "curveTo": "{0.48136593394288041, 0.99137574108416959}",
      "hasCurveFrom": true,
      "hasCurveTo": false,
      "point": "{0.48136593394288041, 0.99137574108416959}"
    },
    {
      "_class": "curvePoint",
      "cornerRadius": 0,
      "curveFrom": "{0.5186340660571197, 0.99137574108416959}",
      "curveMode": 4,
      "curveTo": "{0.51095960687602382, 1.0028854926375232}",
      "hasCurveFrom": false,
      "hasCurveTo": true,
      "point": "{0.5186340660571197, 0.99137574108416959}"
    },
    {
      "_class": "curvePoint",
      "cornerRadius": 0,
      "curveFrom": "{0.58258007924359412, 0.89545594242167448}",
      "curveMode": 4,
      "curveTo": "{0.58113390329712689, 0.89762585570134679}",
      "hasCurveFrom": true,
      "hasCurveTo": false,
      "point": "{0.58113390329712689, 0.89762585570134679}"
    },
    {
      "_class": "curvePoint",
      "cornerRadius": 0,
      "curveFrom": "{0.58333441839995204, 0.89063758299510221}",
      "curveMode": 4,
      "curveTo": "{0.58333343569444729, 0.89306347516852458}",
      "hasCurveFrom": false,
      "hasCurveTo": true,
      "point": "{0.58333441839995204, 0.89063758299510221}"
    },
    {
      "_class": "curvePoint",
      "cornerRadius": 0,
      "curveFrom": "{0.58333441839995204, 0.68749915947403439}",
      "curveMode": 1,
      "curveTo": "{0.58333441839995204, 0.68749915947403439}",
      "hasCurveFrom": false,
      "hasCurveTo": false,
      "point": "{0.58333441839995204, 0.68749915947403439}"
    },
    {
      "_class": "curvePoint",
      "cornerRadius": 0,
      "curveFrom": "{0.97201830203567174, 0.68749915947403439}",
      "curveMode": 4,
      "curveTo": "{0.93750016275999282, 0.68749915947403439}",
      "hasCurveFrom": true,
      "hasCurveTo": false,
      "point": "{0.93750016275999282, 0.68749915947403439}"
    },
    {
      "_class": "curvePoint",
      "cornerRadius": 0,
      "curveFrom": "{0.99999739584011504, 0.54065754212535166}",
      "curveMode": 3,
      "curveTo": "{1, 0.66651285700656704}",
      "hasCurveFrom": true,
      "hasCurveTo": true,
      "point": "{1, 0.64062421678262294}"
    }
  ],
  "resizingConstraint": 63,
  "resizingType": 0,
  "rotation": 0,
  "sharedStyleID": "6384751B-1CEA-4B08-9A1E-01F42BC9555A",
  "shouldBreakMaskChain": false,
  "style": {
    "_class": "style",
    "blur": {
      "_class": "blur",
      "center": "{0.5, 0.5}",
      "isEnabled": false,
      "motionAngle": 0,
      "radius": 10,
      "saturation": 1,
      "type": 0
    },
    "borderOptions": {
      "_class": "borderOptions",
      "dashPattern": [
      ],
      "isEnabled": true,
      "lineCapStyle": 0,
      "lineJoinStyle": 9223372036854776000
    },
    "borders": [
    ],
    "colorControls": {
      "_class": "colorControls",
      "brightness": 0,
      "contrast": 1,
      "hue": 0,
      "isEnabled": false,
      "saturation": 1
    },
    "contextSettings": {
      "_class": "graphicsContextSettings",
      "blendMode": 0,
      "opacity": 1
    },
    "do_objectID": "47638790-0D4A-413E-BE39-92449CEADFC3",
    "endMarkerType": 0,
    "fills": [
      {
        "_class": "fill",
        "color": {
          "_class": "color",
          "alpha": 1,
          "blue": 0,
          "green": 0,
          "red": 0
        },
        "contextSettings": {
          "_class": "graphicsContextSettings",
          "blendMode": 0,
          "opacity": 1
        },
        "fillType": 0,
        "gradient": {
          "_class": "gradient",
          "elipseLength": 0,
          "from": "{0.5, 0}",
          "gradientType": 0,
          "stops": [
            {
              "_class": "gradientStop",
              "color": {
                "_class": "color",
                "alpha": 1,
                "blue": 1,
                "green": 1,
                "red": 1
              },
              "position": 0
            },
            {
              "_class": "gradientStop",
              "color": {
                "_class": "color",
                "alpha": 1,
                "blue": 0,
                "green": 0,
                "red": 0
              },
              "position": 1
            }
          ],
          "to": "{0.5, 1}"
        },
        "isEnabled": true,
        "noiseIndex": 0,
        "noiseIntensity": 0,
        "patternFillType": 1,
        "patternTileScale": 1
      }
    ],
    "innerShadows": [
    ],
    "miterLimit": 10,
    "shadows": [
    ],
    "startMarkerType": 0,
    "windingRule": 1
  }
}