{
  "_class": "shapePath",
  "booleanOperation": -1,
  "clippingMaskMode": 0,
  "do_objectID": "1AE90682-6D7E-4CAF-937A-C10CB8AAF3B5",
  "edited": true,
  "exportOptions": {
    "_class": "exportOptions",
    "exportFormats": [
    ],
    "includedLayerIds": [
    ],
    "layerOptions": 0,
    "shouldTrim": false
  },
  "frame": {
    "_class": "rect",
    "constrainProportions": false,
    "height": 23.86477822580645,
    "width": 24.01,
    "x": -0.005000000000000783,
    "y": 0.0676108870967731
  },
  "hasClippingMask": false,
  "isClosed": true,
  "isFixedToViewport": false,
  "isFlippedHorizontal": false,
  "isFlippedVertical": false,
  "isLocked": false,
  "isVisible": true,
  "layerListExpandedType": 1,
  "name": "icons / brand / fa facebook",
  "nameIsFixed": false,
  "pointRadiusBehaviour": 1,
  "points": [
    {
      "_class": "curvePoint",
      "cornerRadius": 0,
      "curveFrom": "{1, 0.22515212981744423}",
      "curveMode": 3,
      "curveTo": "{1, 0.75411764705882345}",
      "hasCurveFrom": true,
      "hasCurveTo": true,
      "point": "{1, 0.50304259634888437}"
    },
    {
      "_class": "curvePoint",
      "cornerRadius": 0,
      "curveFrom": "{0.22379032258064516, 0}",
      "curveMode": 2,
      "curveTo": "{0.77620967741935487, 0}",
      "hasCurveFrom": true,
      "hasCurveTo": true,
      "point": "{0.5, 0}"
    },
    {
      "_class": "curvePoint",
      "cornerRadius": 0,
      "curveFrom": "{0, 0.75411764705882345}",
      "curveMode": 3,
      "curveTo": "{0, 0.22515212981744423}",
      "hasCurveFrom": true,
      "hasCurveTo": true,
      "point": "{0, 0.50304259634888437}"
    },
    {
      "_class": "curvePoint",
      "cornerRadius": 0,
      "curveFrom": "{0.421875, 1}",
      "curveMode": 4,
      "curveTo": "{0.18284274193548386, 0.96223123732251525}",
      "hasCurveFrom": false,
      "hasCurveTo": true,
      "point": "{0.421875, 1}"
    },
    {
      "_class": "curvePoint",
      "cornerRadius": 0,
      "curveFrom": "{0.421875, 0.64845841784989855}",
      "curveMode": 1,
      "curveTo": "{0.421875, 0.64845841784989855}",
      "hasCurveFrom": false,
      "hasCurveTo": false,
      "point": "{0.421875, 0.64845841784989855}"
    },
    {
      "_class": "curvePoint",
      "cornerRadius": 0,
      "curveFrom": "{0.29485887096774194, 0.64845841784989855}",
      "curveMode": 1,
      "curveTo": "{0.29485887096774194, 0.64845841784989855}",
      "hasCurveFrom": false,
      "hasCurveTo": false,
      "point": "{0.29485887096774194, 0.64845841784989855}"
    },
    {
      "_class": "curvePoint",
      "cornerRadius": 0,
      "curveFrom": "{0.29485887096774194, 0.50304259634888437}",
      "curveMode": 1,
      "curveTo": "{0.29485887096774194, 0.50304259634888437}",
      "hasCurveFrom": false,
      "hasCurveTo": false,
      "point": "{0.29485887096774194, 0.50304259634888437}"
    },
    {
      "_class": "curvePoint",
      "cornerRadius": 0,
      "curveFrom": "{0.421875, 0.50304259634888437}",
      "curveMode": 1,
      "curveTo": "{0.421875, 0.50304259634888437}",
      "hasCurveFrom": false,
      "hasCurveTo": false,
      "point": "{0.421875, 0.50304259634888437}"
    },
    {
      "_class": "curvePoint",
      "cornerRadius": 0,
      "curveFrom": "{0.421875, 0.26614604462474645}",
      "curveMode": 4,
      "curveTo": "{0.421875, 0.39221095334685602}",
      "hasCurveFrom": true,
      "hasCurveTo": false,
      "point": "{0.421875, 0.39221095334685602}"
    },
    {
      "_class": "curvePoint",
      "cornerRadius": 0,
      "curveFrom": "{0.66544354838709674, 0.19651115618661258}",
      "curveMode": 3,
      "curveTo": "{0.49647177419354838, 0.19651115618661258}",
      "hasCurveFrom": true,
      "hasCurveTo": true,
      "point": "{0.6107258064516129, 0.19651115618661258}"
    },
    {
      "_class": "curvePoint",
      "cornerRadius": 0,
      "curveFrom": "{0.72266129032258064, 0.20632860040567952}",
      "curveMode": 4,
      "curveTo": "{0.72266129032258064, 0.20632860040567952}",
      "hasCurveFrom": false,
      "hasCurveTo": true,
      "point": "{0.72266129032258064, 0.20632860040567952}"
    },
    {
      "_class": "curvePoint",
      "cornerRadius": 0,
      "curveFrom": "{0.72266129032258064, 0.33006085192697771}",
      "curveMode": 1,
      "curveTo": "{0.72266129032258064, 0.33006085192697771}",
      "hasCurveFrom": false,
      "hasCurveTo": false,
      "point": "{0.72266129032258064, 0.33006085192697771}"
    },
    {
      "_class": "curvePoint",
      "cornerRadius": 0,
      "curveFrom": "{0.59750000000000003, 0.33006085192697771}",
      "curveMode": 4,
      "curveTo": "{0.65959677419354845, 0.33006085192697771}",
      "hasCurveFrom": true,
      "hasCurveTo": false,
      "point": "{0.65959677419354845, 0.33006085192697771}"
    },
    {
      "_class": "curvePoint",
      "cornerRadius": 0,
      "curveFrom": "{0.578125, 0.4086206896551724}",
      "curveMode": 4,
      "curveTo": "{0.578125, 0.36884381338742395}",
      "hasCurveFrom": false,
      "hasCurveTo": true,
      "point": "{0.578125, 0.4086206896551724}"
    },
    {
      "_class": "curvePoint",
      "cornerRadius": 0,
      "curveFrom": "{0.578125, 0.50304259634888437}",
      "curveMode": 1,
      "curveTo": "{0.578125, 0.50304259634888437}",
      "hasCurveFrom": false,
      "hasCurveTo": false,
      "point": "{0.578125, 0.50304259634888437}"
    },
    {
      "_class": "curvePoint",
      "cornerRadius": 0,
      "curveFrom": "{0.71679435483870957, 0.50304259634888437}",
      "curveMode": 1,
      "curveTo": "{0.71679435483870957, 0.50304259634888437}",
      "hasCurveFrom": false,
      "hasCurveTo": false,
      "point": "{0.71679435483870957, 0.50304259634888437}"
    },
    {
      "_class": "curvePoint",
      "cornerRadius": 0,
      "curveFrom": "{0.69461693548387093, 0.64845841784989855}",
      "curveMode": 1,
      "curveTo": "{0.69461693548387093, 0.64845841784989855}",
      "hasCurveFrom": false,
      "hasCurveTo": false,
      "point": "{0.69461693548387093, 0.64845841784989855}"
    },
    {
      "_class": "curvePoint",
      "cornerRadius": 0,
      "curveFrom": "{0.578125, 0.64845841784989855}",
      "curveMode": 1,
      "curveTo": "{0.578125, 0.64845841784989855}",
      "hasCurveFrom": false,
      "hasCurveTo": false,
      "point": "{0.578125, 0.64845841784989855}"
    },
    {
      "_class": "curvePoint",
      "cornerRadius": 0,
      "curveFrom": "{0.81715725806451611, 0.96223123732251525}",
      "curveMode": 4,
      "curveTo": "{0.578125, 1}",
      "hasCurveFrom": true,
      "hasCurveTo": false,
      "point": "{0.578125, 1}"
    }
  ],
  "resizingConstraint": 63,
  "resizingType": 0,
  "rotation": 0,
  "sharedStyleID": "6384751B-1CEA-4B08-9A1E-01F42BC9555A",
  "shouldBreakMaskChain": false,
  "style": {
    "_class": "style",
    "blur": {
      "_class": "blur",
      "center": "{0.5, 0.5}",
      "isEnabled": false,
      "motionAngle": 0,
      "radius": 10,
      "saturation": 1,
      "type": 0
    },
    "borderOptions": {
      "_class": "borderOptions",
      "dashPattern": [
      ],
      "isEnabled": true,
      "lineCapStyle": 0,
      "lineJoinStyle": 9223372036854776000
    },
    "borders": [
    ],
    "colorControls": {
      "_class": "colorControls",
      "brightness": 0,
      "contrast": 1,
      "hue": 0,
      "isEnabled": false,
      "saturation": 1
    },
    "contextSettings": {
      "_class": "graphicsContextSettings",
      "blendMode": 0,
      "opacity": 1
    },
    "do_objectID": "2BD3F586-4EBF-4787-B1E3-38CBF986BBF4",
    "endMarkerType": 0,
    "fills": [
      {
        "_class": "fill",
        "color": {
          "_class": "color",
          "alpha": 1,
          "blue": 0,
          "green": 0,
          "red": 0
        },
        "contextSettings": {
          "_class": "graphicsContextSettings",
          "blendMode": 0,
          "opacity": 1
        },
        "fillType": 0,
        "gradient": {
          "_class": "gradient",
          "elipseLength": 0,
          "from": "{0.5, 0}",
          "gradientType": 0,
          "stops": [
            {
              "_class": "gradientStop",
              "color": {
                "_class": "color",
                "alpha": 1,
                "blue": 1,
                "green": 1,
                "red": 1
              },
              "position": 0
            },
            {
              "_class": "gradientStop",
              "color": {
                "_class": "color",
                "alpha": 1,
                "blue": 0,
                "green": 0,
                "red": 0
              },
              "position": 1
            }
          ],
          "to": "{0.5, 1}"
        },
        "isEnabled": true,
        "noiseIndex": 0,
        "noiseIntensity": 0,
        "patternFillType": 1,
        "patternTileScale": 1
      }
    ],
    "innerShadows": [
    ],
    "miterLimit": 10,
    "shadows": [
    ],
    "startMarkerType": 0,
    "windingRule": 1
  }
}