{
  "_class": "shapePath",
  "booleanOperation": -1,
  "clippingMaskMode": 0,
  "do_objectID": "6BBE71FC-8A96-4177-A633-7031B5DD6F14",
  "edited": true,
  "exportOptions": {
    "_class": "exportOptions",
    "exportFormats": [
    ],
    "includedLayerIds": [
    ],
    "layerOptions": 0,
    "shouldTrim": false
  },
  "frame": {
    "_class": "rect",
    "constrainProportions": false,
    "height": 23.2500189972499,
    "width": 23.250000096875,
    "x": 0.3749999515624989,
    "y": 0.3749810511876035
  },
  "hasClippingMask": false,
  "isClosed": true,
  "isFixedToViewport": false,
  "isFlippedHorizontal": false,
  "isFlippedVertical": false,
  "isLocked": false,
  "isVisible": true,
  "layerListExpandedType": 1,
  "name": "redo-alt",
  "nameIsFixed": false,
  "pointRadiusBehaviour": 1,
  "points": [
    {
      "_class": "curvePoint",
      "cornerRadius": 0,
      "curveFrom": "{0.63452419354838707, 0.00024073207848992242}",
      "curveMode": 3,
      "curveTo": "{0.22509274193548387, -0.00049313829267458992}",
      "hasCurveFrom": true,
      "hasCurveTo": true,
      "point": "{0.50091733870967736, 8.1291868613992741e-07}"
    },
    {
      "_class": "curvePoint",
      "cornerRadius": 0,
      "curveFrom": "{0.84539112903225799, 0.13847852292812171}",
      "curveMode": 4,
      "curveTo": "{0.75583064516129028, 0.052889882827363781}",
      "hasCurveFrom": false,
      "hasCurveTo": true,
      "point": "{0.84539112903225799, 0.13847852292812171}"
    },
    {
      "_class": "curvePoint",
      "cornerRadius": 0,
      "curveFrom": "{0.94788104838709675, 0.035990703016646891}",
      "curveMode": 4,
      "curveTo": "{0.91739717741935478, 0.066472533076087179}",
      "hasCurveFrom": true,
      "hasCurveTo": false,
      "point": "{0.91739717741935478, 0.066472533076087179}"
    },
    {
      "_class": "curvePoint",
      "cornerRadius": 0,
      "curveFrom": "{1, 0.10068823106793594}",
      "curveMode": 4,
      "curveTo": "{1, 0.05757939514420074}",
      "hasCurveFrom": false,
      "hasCurveTo": true,
      "point": "{1, 0.10068823106793594}"
    },
    {
      "_class": "curvePoint",
      "cornerRadius": 0,
      "curveFrom": "{1, 0.39769202188587277}",
      "curveMode": 4,
      "curveTo": "{1, 0.37096825328756061}",
      "hasCurveFrom": true,
      "hasCurveTo": false,
      "point": "{1, 0.37096825328756061}"
    },
    {
      "_class": "curvePoint",
      "cornerRadius": 0,
      "curveFrom": "{0.95161290322580649, 0.41935531072697907}",
      "curveMode": 4,
      "curveTo": "{0.97833669354838704, 0.41935531072697907}",
      "hasCurveFrom": false,
      "hasCurveTo": true,
      "point": "{0.95161290322580649, 0.41935531072697907}"
    },
    {
      "_class": "curvePoint",
      "cornerRadius": 0,
      "curveFrom": "{0.63822379032258059, 0.41935531072697907}",
      "curveMode": 4,
      "curveTo": "{0.68133266129032255, 0.41935531072697907}",
      "hasCurveFrom": true,
      "hasCurveTo": false,
      "point": "{0.68133266129032255, 0.41935531072697907}"
    },
    {
      "_class": "curvePoint",
      "cornerRadius": 0,
      "curveFrom": "{0.64711693548387095, 0.33675255529571191}",
      "curveMode": 4,
      "curveTo": "{0.61663508064516126, 0.36723640148254549}",
      "hasCurveFrom": false,
      "hasCurveTo": true,
      "point": "{0.64711693548387095, 0.33675255529571191}"
    },
    {
      "_class": "curvePoint",
      "cornerRadius": 0,
      "curveFrom": "{0.66906451612903228, 0.19431517108581725}",
      "curveMode": 4,
      "curveTo": "{0.73129032258064508, 0.25257923662505694}",
      "hasCurveFrom": true,
      "hasCurveTo": false,
      "point": "{0.73129032258064508, 0.25257923662505694}"
    },
    {
      "_class": "curvePoint",
      "cornerRadius": 0,
      "curveFrom": "{0.3167177419354838, 0.15969423148791337}",
      "curveMode": 3,
      "curveTo": "{0.58854637096774187, 0.16204100377372516}",
      "hasCurveFrom": true,
      "hasCurveTo": true,
      "point": "{0.50300403225806445, 0.16130310114777405}"
    },
    {
      "_class": "curvePoint",
      "cornerRadius": 0,
      "curveFrom": "{0.16283064516129031, 0.68550227179032008}",
      "curveMode": 2,
      "curveTo": "{0.15969153225806446, 0.31045015732260139}",
      "hasCurveFrom": true,
      "hasCurveTo": true,
      "point": "{0.16130241935483861, 0.50291975892485463}"
    },
    {
      "_class": "curvePoint",
      "cornerRadius": 0,
      "curveFrom": "{0.58291733870967744, 0.83870980853527199}",
      "curveMode": 3,
      "curveTo": "{0.31085483870967739, 0.83870980853527199}",
      "hasCurveFrom": true,
      "hasCurveTo": true,
      "point": "{0.5, 0.83870980853527199}"
    },
    {
      "_class": "curvePoint",
      "cornerRadius": 0,
      "curveFrom": "{0.73260483870967741, 0.74653851249535985}",
      "curveMode": 3,
      "curveTo": "{0.6612842741935484, 0.80911709065628101}",
      "hasCurveFrom": true,
      "hasCurveTo": true,
      "point": "{0.72304233870967749, 0.75492761857891899}"
    },
    {
      "_class": "curvePoint",
      "cornerRadius": 0,
      "curveFrom": "{0.75604233870967741, 0.75604253702741897}",
      "curveMode": 4,
      "curveTo": "{0.74704637096774196, 0.74704859272586699}",
      "hasCurveFrom": false,
      "hasCurveTo": true,
      "point": "{0.75604233870967741, 0.75604253702741897}"
    },
    {
      "_class": "curvePoint",
      "cornerRadius": 0,
      "curveFrom": "{0.84582862903225808, 0.84582875436104643}",
      "curveMode": 4,
      "curveTo": "{0.8360060483870968, 0.8360061817008444}",
      "hasCurveFrom": true,
      "hasCurveTo": false,
      "point": "{0.8360060483870968, 0.8360061817008444}"
    },
    {
      "_class": "curvePoint",
      "cornerRadius": 0,
      "curveFrom": "{0.74637500000000001, 0.95123592673803281}",
      "curveMode": 3,
      "curveTo": "{0.84534274193548375, 0.86184285424610052}",
      "hasCurveFrom": true,
      "hasCurveTo": true,
      "point": "{0.83503427419354836, 0.87115333054840194}"
    },
    {
      "_class": "curvePoint",
      "cornerRadius": 0,
      "curveFrom": "{0.22385887096774196, 1}",
      "curveMode": 3,
      "curveTo": "{0.62888306451612896, 1}",
      "hasCurveFrom": true,
      "hasCurveTo": true,
      "point": "{0.5, 1}"
    },
    {
      "_class": "curvePoint",
      "cornerRadius": 0,
      "curveFrom": "{-2.016129032258738e-06, 0.22418006616290495}",
      "curveMode": 2,
      "curveTo": "{2.0161290322569469e-06, 0.77614332713871059}",
      "hasCurveFrom": true,
      "hasCurveTo": true,
      "point": "{0, 0.5000044387141297}"
    }
  ],
  "resizingConstraint": 63,
  "resizingType": 0,
  "rotation": 0,
  "sharedStyleID": "6384751B-1CEA-4B08-9A1E-01F42BC9555A",
  "shouldBreakMaskChain": false,
  "style": {
    "_class": "style",
    "blur": {
      "_class": "blur",
      "center": "{0.5, 0.5}",
      "isEnabled": false,
      "motionAngle": 0,
      "radius": 10,
      "saturation": 1,
      "type": 0
    },
    "borderOptions": {
      "_class": "borderOptions",
      "dashPattern": [
      ],
      "isEnabled": true,
      "lineCapStyle": 0,
      "lineJoinStyle": 9223372036854776000
    },
    "borders": [
    ],
    "colorControls": {
      "_class": "colorControls",
      "brightness": 0,
      "contrast": 1,
      "hue": 0,
      "isEnabled": false,
      "saturation": 1
    },
    "contextSettings": {
      "_class": "graphicsContextSettings",
      "blendMode": 0,
      "opacity": 1
    },
    "do_objectID": "97DB7A4F-1D33-4AE0-9750-23F76BC38059",
    "endMarkerType": 0,
    "fills": [
      {
        "_class": "fill",
        "color": {
          "_class": "color",
          "alpha": 1,
          "blue": 0,
          "green": 0,
          "red": 0
        },
        "contextSettings": {
          "_class": "graphicsContextSettings",
          "blendMode": 0,
          "opacity": 1
        },
        "fillType": 0,
        "gradient": {
          "_class": "gradient",
          "elipseLength": 0,
          "from": "{0.5, 0}",
          "gradientType": 0,
          "stops": [
            {
              "_class": "gradientStop",
              "color": {
                "_class": "color",
                "alpha": 1,
                "blue": 1,
                "green": 1,
                "red": 1
              },
              "position": 0
            },
            {
              "_class": "gradientStop",
              "color": {
                "_class": "color",
                "alpha": 1,
                "blue": 0,
                "green": 0,
                "red": 0
              },
              "position": 1
            }
          ],
          "to": "{0.5, 1}"
        },
        "isEnabled": true,
        "noiseIndex": 0,
        "noiseIntensity": 0,
        "patternFillType": 1,
        "patternTileScale": 1
      }
    ],
    "innerShadows": [
    ],
    "miterLimit": 10,
    "shadows": [
    ],
    "startMarkerType": 0,
    "windingRule": 1
  }
}