{
  "_class": "shapePath",
  "booleanOperation": -1,
  "clippingMaskMode": 0,
  "do_objectID": "2E87BE94-A9D2-480D-B54D-D7A995D84DFB",
  "edited": true,
  "exportOptions": {
    "_class": "exportOptions",
    "exportFormats": [
    ],
    "includedLayerIds": [
    ],
    "layerOptions": 0,
    "shouldTrim": false
  },
  "frame": {
    "_class": "rect",
    "constrainProportions": false,
    "height": 23.95428550839964,
    "width": 20.95906443515509,
    "x": 1.520467772252321,
    "y": 0.04571454160035771
  },
  "hasClippingMask": false,
  "isClosed": true,
  "isFixedToViewport": false,
  "isFlippedHorizontal": false,
  "isFlippedVertical": false,
  "isLocked": false,
  "isVisible": true,
  "layerListExpandedType": 1,
  "name": "hand-middle-finger",
  "nameIsFixed": false,
  "pointRadiusBehaviour": 1,
  "points": [
    {
      "_class": "curvePoint",
      "cornerRadius": 0,
      "curveFrom": "{0.99981673775353608, 0.58595368721275165}",
      "curveMode": 4,
      "curveTo": "{0.99984375000015169, 0.61939198657177763}",
      "hasCurveFrom": true,
      "hasCurveTo": false,
      "point": "{0.99984375000015169, 0.61939198657177763}"
    },
    {
      "_class": "curvePoint",
      "cornerRadius": 0,
      "curveFrom": "{0.93671875006141292, 0.54871154729649352}",
      "curveMode": 4,
      "curveTo": "{0.97379559165197116, 0.55681806679786283}",
      "hasCurveFrom": false,
      "hasCurveTo": true,
      "point": "{0.93671875006141292, 0.54871154729649352}"
    },
    {
      "_class": "curvePoint",
      "cornerRadius": 0,
      "curveFrom": "{0.85714285728149664, 0.53127091942337146}",
      "curveMode": 1,
      "curveTo": "{0.85714285728149664, 0.53127091942337146}",
      "hasCurveFrom": false,
      "hasCurveTo": false,
      "point": "{0.85714285728149664, 0.53127091942337146}"
    },
    {
      "_class": "curvePoint",
      "cornerRadius": 0,
      "curveFrom": "{0.85714285728149664, 0.41207702030840621}",
      "curveMode": 4,
      "curveTo": "{0.85714285728149664, 0.43441977314922553}",
      "hasCurveFrom": true,
      "hasCurveTo": false,
      "point": "{0.85714285728149664, 0.43441977314922553}"
    },
    {
      "_class": "curvePoint",
      "cornerRadius": 0,
      "curveFrom": "{0.80546875018878794, 0.3884452624960012}",
      "curveMode": 4,
      "curveTo": "{0.83551339301677319, 0.39283959762640708}",
      "hasCurveFrom": false,
      "hasCurveTo": true,
      "point": "{0.80546875018878794, 0.3884452624960012}"
    },
    {
      "_class": "curvePoint",
      "cornerRadius": 0,
      "curveFrom": "{0.67997767888200256, 0.37014529797515533}",
      "curveMode": 4,
      "curveTo": "{0.71975446455768599, 0.37594582034729113}",
      "hasCurveFrom": true,
      "hasCurveTo": false,
      "point": "{0.71975446455768599, 0.37594582034729113}"
    },
    {
      "_class": "curvePoint",
      "cornerRadius": 0,
      "curveFrom": "{0.64285714320374143, 0.42190080062215807}",
      "curveMode": 4,
      "curveTo": "{0.64285714320374143, 0.39233180778911575}",
      "hasCurveFrom": false,
      "hasCurveTo": true,
      "point": "{0.64285714320374143, 0.42190080062215807}"
    },
    {
      "_class": "curvePoint",
      "cornerRadius": 0,
      "curveFrom": "{0.64285714320374143, 0.49302707546586461}",
      "curveMode": 4,
      "curveTo": "{0.64285714320374143, 0.48439801136570854}",
      "hasCurveFrom": true,
      "hasCurveTo": false,
      "point": "{0.64285714320374143, 0.48439801136570854}"
    },
    {
      "_class": "curvePoint",
      "cornerRadius": 0,
      "curveFrom": "{0.61513777269794967, 0.50002231405159614}",
      "curveMode": 2,
      "curveTo": "{0.63486222802990744, 0.50002231405159614}",
      "hasCurveFrom": true,
      "hasCurveTo": true,
      "point": "{0.62500000036392855, 0.50002231405159614}"
    },
    {
      "_class": "curvePoint",
      "cornerRadius": 0,
      "curveFrom": "{0.60714285752411568, 0.48439801136570854}",
      "curveMode": 4,
      "curveTo": "{0.60714285752411568, 0.49302707546586461}",
      "hasCurveFrom": false,
      "hasCurveTo": true,
      "point": "{0.60714285752411568, 0.48439801136570854}"
    },
    {
      "_class": "curvePoint",
      "cornerRadius": 0,
      "curveFrom": "{0.60714285752411568, 0.046370685566849139}",
      "curveMode": 4,
      "curveTo": "{0.60714285752411568, 0.097696519889989966}",
      "hasCurveFrom": true,
      "hasCurveTo": false,
      "point": "{0.60714285752411568, 0.097696519889989966}"
    },
    {
      "_class": "curvePoint",
      "cornerRadius": 0,
      "curveFrom": "{0.47431955159397854, -0.0007376765387491198}",
      "curveMode": 3,
      "curveTo": "{0.56194196471083913, 0.0016070583717811052}",
      "hasCurveFrom": true,
      "hasCurveTo": true,
      "point": "{0.50330357191060349, 4.4628103192348811e-05}"
    },
    {
      "_class": "curvePoint",
      "cornerRadius": 0,
      "curveFrom": "{0.40458394114492435, 0.044125150394133637}",
      "curveMode": 2,
      "curveTo": "{0.44621086136107546, 0.0087926397616686879}",
      "hasCurveFrom": true,
      "hasCurveTo": true,
      "point": "{0.42539740125299996, 0.026458895077901161}"
    },
    {
      "_class": "curvePoint",
      "cornerRadius": 0,
      "curveFrom": "{0.39285714344636052, 0.093790444218518024}",
      "curveMode": 4,
      "curveTo": "{0.39284335604024029, 0.068418497656868957}",
      "hasCurveFrom": false,
      "hasCurveTo": true,
      "point": "{0.39285714344636052, 0.093790444218518024}"
    },
    {
      "_class": "curvePoint",
      "cornerRadius": 0,
      "curveFrom": "{0.39285714344636052, 0.49302707546586455}",
      "curveMode": 4,
      "curveTo": "{0.39285714344636052, 0.48439801136570848}",
      "hasCurveFrom": true,
      "hasCurveTo": false,
      "point": "{0.39285714344636052, 0.48439801136570848}"
    },
    {
      "_class": "curvePoint",
      "cornerRadius": 0,
      "curveFrom": "{0.36513777294056876, 0.50002231405159614}",
      "curveMode": 2,
      "curveTo": "{0.38486222827252642, 0.50002231405159614}",
      "hasCurveFrom": true,
      "hasCurveTo": true,
      "point": "{0.37500000060654759, 0.50002231405159614}"
    },
    {
      "_class": "curvePoint",
      "cornerRadius": 0,
      "curveFrom": "{0.35714285776673466, 0.48439801136570848}",
      "curveMode": 4,
      "curveTo": "{0.35714285776673466, 0.49302707546586455}",
      "hasCurveFrom": false,
      "hasCurveTo": true,
      "point": "{0.35714285776673466, 0.48439801136570848}"
    },
    {
      "_class": "curvePoint",
      "cornerRadius": 0,
      "curveFrom": "{0.35714285776673466, 0.3923122774107583}",
      "curveMode": 4,
      "curveTo": "{0.35714285776673466, 0.42190080062215801}",
      "hasCurveFrom": true,
      "hasCurveTo": false,
      "point": "{0.35714285776673466, 0.42190080062215801}"
    },
    {
      "_class": "curvePoint",
      "cornerRadius": 0,
      "curveFrom": "{0.28024553641279026, 0.37592628996893368}",
      "curveMode": 4,
      "curveTo": "{0.32002232208847353, 0.37012576759679794}",
      "hasCurveFrom": false,
      "hasCurveTo": true,
      "point": "{0.28024553641279026, 0.37592628996893368}"
    },
    {
      "_class": "curvePoint",
      "cornerRadius": 0,
      "curveFrom": "{0.17158482223252861, 0.39178495719510964}",
      "curveMode": 4,
      "curveTo": "{0.21176339362210769, 0.38592584368790178}",
      "hasCurveFrom": true,
      "hasCurveTo": false,
      "point": "{0.21176339362210769, 0.38592584368790178}"
    },
    {
      "_class": "curvePoint",
      "cornerRadius": 0,
      "curveFrom": "{0.14285714368897956, 0.44721217097329596}",
      "curveMode": 4,
      "curveTo": "{0.14285714368897956, 0.41740881359996534}",
      "hasCurveFrom": false,
      "hasCurveTo": true,
      "point": "{0.14285714368897956, 0.44721217097329596}"
    },
    {
      "_class": "curvePoint",
      "cornerRadius": 0,
      "curveFrom": "{0.14285714368897956, 0.74301591844006654}",
      "curveMode": 4,
      "curveTo": "{0.14285714368897956, 0.73438685433991047}",
      "hasCurveFrom": true,
      "hasCurveTo": false,
      "point": "{0.14285714368897956, 0.73438685433991047}"
    },
    {
      "_class": "curvePoint",
      "cornerRadius": 0,
      "curveFrom": "{0.1151377731831878, 0.75001115702579813}",
      "curveMode": 2,
      "curveTo": "{0.13486222851514545, 0.75001115702579813}",
      "hasCurveFrom": true,
      "hasCurveTo": true,
      "point": "{0.12500000084916663, 0.75001115702579813}"
    },
    {
      "_class": "curvePoint",
      "cornerRadius": 0,
      "curveFrom": "{0.10714285800935371, 0.73438685433991047}",
      "curveMode": 4,
      "curveTo": "{0.10714285800935371, 0.74301591844006654}",
      "hasCurveFrom": false,
      "hasCurveTo": true,
      "point": "{0.10714285800935371, 0.73438685433991047}"
    },
    {
      "_class": "curvePoint",
      "cornerRadius": 0,
      "curveFrom": "{0.10714285800935371, 0.5859559788239781}",
      "curveMode": 1,
      "curveTo": "{0.10714285800935371, 0.5859559788239781}",
      "hasCurveFrom": false,
      "hasCurveTo": false,
      "point": "{0.10714285800935371, 0.5859559788239781}"
    },
    {
      "_class": "curvePoint",
      "cornerRadius": 0,
      "curveFrom": "{0.017833789177814679, 0.62760592833615025}",
      "curveMode": 4,
      "curveTo": "{0.046071429497193485, 0.61525154636001733}",
      "hasCurveFrom": true,
      "hasCurveTo": false,
      "point": "{0.046071429497193485, 0.61525154636001733}"
    },
    {
      "_class": "curvePoint",
      "cornerRadius": 0,
      "curveFrom": "{9.7047613501913082e-10, 0.68048301007359813}",
      "curveMode": 4,
      "curveTo": "{-2.206501940644226e-06, 0.65285949963153211}",
      "hasCurveFrom": false,
      "hasCurveTo": true,
      "point": "{9.7047613501913082e-10, 0.68048301007359813}"
    },
    {
      "_class": "curvePoint",
      "cornerRadius": 0,
      "curveFrom": "{-3.3695708148202181e-06, 0.84330436681641985}",
      "curveMode": 4,
      "curveTo": "{9.7047613501913082e-10, 0.82397269986511856}",
      "hasCurveFrom": true,
      "hasCurveTo": false,
      "point": "{9.7047613501913082e-10, 0.82397269986511856}"
    },
    {
      "_class": "curvePoint",
      "cornerRadius": 0,
      "curveFrom": "{0.024397322375370546, 0.87551336835019045}",
      "curveMode": 4,
      "curveTo": "{0.0087730032158344871, 0.86184493169201126}",
      "hasCurveFrom": false,
      "hasCurveTo": true,
      "point": "{0.024397322375370546, 0.87551336835019045}"
    },
    {
      "_class": "curvePoint",
      "cornerRadius": 0,
      "curveFrom": "{0.14031615805262138, 0.97694399702697399}",
      "curveMode": 4,
      "curveTo": "{0.093437500879797283, 0.93592082860950354}",
      "hasCurveFrom": true,
      "hasCurveTo": false,
      "point": "{0.093437500879797283, 0.93592082860950354}"
    },
    {
      "_class": "curvePoint",
      "cornerRadius": 0,
      "curveFrom": "{0.27020089356539551, 1}",
      "curveMode": 4,
      "curveTo": "{0.20389947147075321, 0.99999382638470202}",
      "hasCurveFrom": false,
      "hasCurveTo": true,
      "point": "{0.27020089356539551, 1}"
    },
    {
      "_class": "curvePoint",
      "cornerRadius": 0,
      "curveFrom": "{0.88813920739550323, 0.99994608536953666}",
      "curveMode": 4,
      "curveTo": "{0.75011160738536786, 1}",
      "hasCurveFrom": true,
      "hasCurveTo": false,
      "point": "{0.75011160738536786, 1}"
    },
    {
      "_class": "curvePoint",
      "cornerRadius": 0,
      "curveFrom": "{1, 0.78125976239757333}",
      "curveMode": 4,
      "curveTo": "{1.0000000137543468, 0.90202853463693111}",
      "hasCurveFrom": false,
      "hasCurveTo": true,
      "point": "{1, 0.78125976239757333}"
    }
  ],
  "resizingConstraint": 63,
  "resizingType": 0,
  "rotation": 0,
  "sharedStyleID": "6384751B-1CEA-4B08-9A1E-01F42BC9555A",
  "shouldBreakMaskChain": false,
  "style": {
    "_class": "style",
    "blur": {
      "_class": "blur",
      "center": "{0.5, 0.5}",
      "isEnabled": false,
      "motionAngle": 0,
      "radius": 10,
      "saturation": 1,
      "type": 0
    },
    "borderOptions": {
      "_class": "borderOptions",
      "dashPattern": [
      ],
      "isEnabled": true,
      "lineCapStyle": 0,
      "lineJoinStyle": 9223372036854776000
    },
    "borders": [
    ],
    "colorControls": {
      "_class": "colorControls",
      "brightness": 0,
      "contrast": 1,
      "hue": 0,
      "isEnabled": false,
      "saturation": 1
    },
    "contextSettings": {
      "_class": "graphicsContextSettings",
      "blendMode": 0,
      "opacity": 1
    },
    "do_objectID": "F16515E0-7146-4D44-BFC0-5D18DBF7AA5D",
    "endMarkerType": 0,
    "fills": [
      {
        "_class": "fill",
        "color": {
          "_class": "color",
          "alpha": 1,
          "blue": 0,
          "green": 0,
          "red": 0
        },
        "contextSettings": {
          "_class": "graphicsContextSettings",
          "blendMode": 0,
          "opacity": 1
        },
        "fillType": 0,
        "gradient": {
          "_class": "gradient",
          "elipseLength": 0,
          "from": "{0.5, 0}",
          "gradientType": 0,
          "stops": [
            {
              "_class": "gradientStop",
              "color": {
                "_class": "color",
                "alpha": 1,
                "blue": 1,
                "green": 1,
                "red": 1
              },
              "position": 0
            },
            {
              "_class": "gradientStop",
              "color": {
                "_class": "color",
                "alpha": 1,
                "blue": 0,
                "green": 0,
                "red": 0
              },
              "position": 1
            }
          ],
          "to": "{0.5, 1}"
        },
        "isEnabled": true,
        "noiseIndex": 0,
        "noiseIntensity": 0,
        "patternFillType": 1,
        "patternTileScale": 1
      }
    ],
    "innerShadows": [
    ],
    "miterLimit": 10,
    "shadows": [
    ],
    "startMarkerType": 0,
    "windingRule": 1
  }
}