{
  "_class": "shapePath",
  "booleanOperation": -1,
  "clippingMaskMode": 0,
  "do_objectID": "53F0462E-06EE-4097-A571-E502C03E6E3A",
  "edited": true,
  "exportOptions": {
    "_class": "exportOptions",
    "exportFormats": [
    ],
    "includedLayerIds": [
    ],
    "layerOptions": 0,
    "shouldTrim": false
  },
  "frame": {
    "_class": "rect",
    "constrainProportions": false,
    "height": 23.96787719298246,
    "width": 13.64778947368421,
    "x": 5.166744639376218,
    "y": -0.005000000000000783
  },
  "hasClippingMask": false,
  "isClosed": true,
  "isFixedToViewport": false,
  "isFlippedHorizontal": false,
  "isFlippedVertical": false,
  "isLocked": false,
  "isVisible": true,
  "layerListExpandedType": 1,
  "name": "icons / brand / fa kaggle",
  "nameIsFixed": false,
  "pointRadiusBehaviour": 1,
  "points": [
    {
      "_class": "curvePoint",
      "cornerRadius": 0,
      "curveFrom": "{0.99519890260630994, 0.97930091778949424}",
      "curveMode": 1,
      "curveTo": "{0.99519890260630994, 0.97930091778949424}",
      "hasCurveFrom": false,
      "hasCurveTo": false,
      "point": "{0.99519890260630994, 0.97930091778949424}"
    },
    {
      "_class": "curvePoint",
      "cornerRadius": 0,
      "curveFrom": "{0.49519890260631, 0.62546377660613162}",
      "curveMode": 1,
      "curveTo": "{0.49519890260631, 0.62546377660613162}",
      "hasCurveFrom": false,
      "hasCurveTo": false,
      "point": "{0.49519890260631, 0.62546377660613162}"
    },
    {
      "_class": "curvePoint",
      "cornerRadius": 0,
      "curveFrom": "{0.98353909465020573, 0.35598515914860379}",
      "curveMode": 4,
      "curveTo": "{0.97462277091906713, 0.36125756688146843}",
      "hasCurveFrom": true,
      "hasCurveTo": false,
      "point": "{0.97462277091906713, 0.36125756688146843}"
    },
    {
      "_class": "curvePoint",
      "cornerRadius": 0,
      "curveFrom": "{0.95644718792866923, 0.34075375903143917}",
      "curveMode": 4,
      "curveTo": "{0.98045267489711918, 0.34075375903143917}",
      "hasCurveFrom": false,
      "hasCurveTo": true,
      "point": "{0.95644718792866923, 0.34075375903143917}"
    },
    {
      "_class": "curvePoint",
      "cornerRadius": 0,
      "curveFrom": "{0.70713305898491075, 0.34075375903143917}",
      "curveMode": 4,
      "curveTo": "{0.71913580246913567, 0.34075375903143917}",
      "hasCurveFrom": true,
      "hasCurveTo": false,
      "point": "{0.71913580246913567, 0.34075375903143917}"
    },
    {
      "_class": "curvePoint",
      "cornerRadius": 0,
      "curveFrom": "{0.68312757201646079, 0.35110330013669205}",
      "curveMode": 4,
      "curveTo": "{0.69513031550068582, 0.34426869752001565}",
      "hasCurveFrom": false,
      "hasCurveTo": true,
      "point": "{0.68312757201646079, 0.35110330013669205}"
    },
    {
      "_class": "curvePoint",
      "cornerRadius": 0,
      "curveFrom": "{0.22942386831275721, 0.61218512009373172}",
      "curveMode": 1,
      "curveTo": "{0.22942386831275721, 0.61218512009373172}",
      "hasCurveFrom": false,
      "hasCurveTo": false,
      "point": "{0.22942386831275721, 0.61218512009373172}"
    },
    {
      "_class": "curvePoint",
      "cornerRadius": 0,
      "curveFrom": "{0.22942386831275721, 0.004881859011911736}",
      "curveMode": 4,
      "curveTo": "{0.22942386831275721, 0.014645577035735208}",
      "hasCurveFrom": true,
      "hasCurveTo": false,
      "point": "{0.22942386831275721, 0.014645577035735208}"
    },
    {
      "_class": "curvePoint",
      "cornerRadius": 0,
      "curveFrom": "{0.20370370370370369, 0}",
      "curveMode": 4,
      "curveTo": "{0.22085048010973937, 0}",
      "hasCurveFrom": false,
      "hasCurveTo": true,
      "point": "{0.20370370370370369, 0}"
    },
    {
      "_class": "curvePoint",
      "cornerRadius": 0,
      "curveFrom": "{0.0085733882030178312, 0}",
      "curveMode": 4,
      "curveTo": "{0.025720164609053495, 0}",
      "hasCurveFrom": true,
      "hasCurveTo": false,
      "point": "{0.025720164609053495, 0}"
    },
    {
      "_class": "curvePoint",
      "cornerRadius": 0,
      "curveFrom": "{0, 0.014645577035735208}",
      "curveMode": 4,
      "curveTo": "{0, 0.004881859011911736}",
      "hasCurveFrom": false,
      "hasCurveTo": true,
      "point": "{0, 0.014645577035735208}"
    },
    {
      "_class": "curvePoint",
      "cornerRadius": 0,
      "curveFrom": "{0, 0.99492286662761176}",
      "curveMode": 4,
      "curveTo": "{0, 0.98515914860378828}",
      "hasCurveFrom": true,
      "hasCurveTo": false,
      "point": "{0, 0.98515914860378828}"
    },
    {
      "_class": "curvePoint",
      "cornerRadius": 0,
      "curveFrom": "{0.025720164609053495, 0.99980472563952349}",
      "curveMode": 4,
      "curveTo": "{0.0085733882030178312, 0.99980472563952349}",
      "hasCurveFrom": false,
      "hasCurveTo": true,
      "point": "{0.025720164609053495, 0.99980472563952349}"
    },
    {
      "_class": "curvePoint",
      "cornerRadius": 0,
      "curveFrom": "{0.22085048010973937, 0.99980472563952349}",
      "curveMode": 4,
      "curveTo": "{0.20370370370370369, 0.99980472563952349}",
      "hasCurveFrom": true,
      "hasCurveTo": false,
      "point": "{0.20370370370370369, 0.99980472563952349}"
    },
    {
      "_class": "curvePoint",
      "cornerRadius": 0,
      "curveFrom": "{0.22942386831275721, 0.98515914860378828}",
      "curveMode": 4,
      "curveTo": "{0.22942386831275721, 0.99492286662761176}",
      "hasCurveFrom": false,
      "hasCurveTo": true,
      "point": "{0.22942386831275721, 0.98515914860378828}"
    },
    {
      "_class": "curvePoint",
      "cornerRadius": 0,
      "curveFrom": "{0.22942386831275721, 0.77231009568443665}",
      "curveMode": 1,
      "curveTo": "{0.22942386831275721, 0.77231009568443665}",
      "hasCurveFrom": false,
      "hasCurveTo": false,
      "point": "{0.22942386831275721, 0.77231009568443665}"
    },
    {
      "_class": "curvePoint",
      "cornerRadius": 0,
      "curveFrom": "{0.33504801097393688, 0.715094708064831}",
      "curveMode": 1,
      "curveTo": "{0.33504801097393688, 0.715094708064831}",
      "hasCurveFrom": false,
      "hasCurveTo": false,
      "point": "{0.33504801097393688, 0.715094708064831}"
    },
    {
      "_class": "curvePoint",
      "cornerRadius": 0,
      "curveFrom": "{0.72427983539094642, 0.99648506151142358}",
      "curveMode": 4,
      "curveTo": "{0.71399176954732502, 0.98965045889474712}",
      "hasCurveFrom": true,
      "hasCurveTo": false,
      "point": "{0.71399176954732502, 0.98965045889474712}"
    },
    {
      "_class": "curvePoint",
      "cornerRadius": 0,
      "curveFrom": "{0.74999999999999989, 1}",
      "curveMode": 4,
      "curveTo": "{0.73628257887517135, 1}",
      "hasCurveFrom": false,
      "hasCurveTo": true,
      "point": "{0.74999999999999989, 1}"
    },
    {
      "_class": "curvePoint",
      "cornerRadius": 0,
      "curveFrom": "{0.99142661179698222, 1}",
      "curveMode": 4,
      "curveTo": "{0.97942386831275718, 1}",
      "hasCurveFrom": true,
      "hasCurveTo": false,
      "point": "{0.97942386831275718, 1}"
    },
    {
      "_class": "curvePoint",
      "cornerRadius": 0,
      "curveFrom": "{1, 0.99414176918570596}",
      "curveMode": 4,
      "curveTo": "{0.99828532235939649, 0.99804725639523528}",
      "hasCurveFrom": false,
      "hasCurveTo": true,
      "point": "{1, 0.99414176918570596}"
    }
  ],
  "resizingConstraint": 63,
  "resizingType": 0,
  "rotation": 0,
  "sharedStyleID": "6384751B-1CEA-4B08-9A1E-01F42BC9555A",
  "shouldBreakMaskChain": false,
  "style": {
    "_class": "style",
    "blur": {
      "_class": "blur",
      "center": "{0.5, 0.5}",
      "isEnabled": false,
      "motionAngle": 0,
      "radius": 10,
      "saturation": 1,
      "type": 0
    },
    "borderOptions": {
      "_class": "borderOptions",
      "dashPattern": [
      ],
      "isEnabled": true,
      "lineCapStyle": 0,
      "lineJoinStyle": 9223372036854776000
    },
    "borders": [
    ],
    "colorControls": {
      "_class": "colorControls",
      "brightness": 0,
      "contrast": 1,
      "hue": 0,
      "isEnabled": false,
      "saturation": 1
    },
    "contextSettings": {
      "_class": "graphicsContextSettings",
      "blendMode": 0,
      "opacity": 1
    },
    "do_objectID": "222B6E6E-D264-43AC-8336-2711ACAE6A72",
    "endMarkerType": 0,
    "fills": [
      {
        "_class": "fill",
        "color": {
          "_class": "color",
          "alpha": 1,
          "blue": 0,
          "green": 0,
          "red": 0
        },
        "contextSettings": {
          "_class": "graphicsContextSettings",
          "blendMode": 0,
          "opacity": 1
        },
        "fillType": 0,
        "gradient": {
          "_class": "gradient",
          "elipseLength": 0,
          "from": "{0.5, 0}",
          "gradientType": 0,
          "stops": [
            {
              "_class": "gradientStop",
              "color": {
                "_class": "color",
                "alpha": 1,
                "blue": 1,
                "green": 1,
                "red": 1
              },
              "position": 0
            },
            {
              "_class": "gradientStop",
              "color": {
                "_class": "color",
                "alpha": 1,
                "blue": 0,
                "green": 0,
                "red": 0
              },
              "position": 1
            }
          ],
          "to": "{0.5, 1}"
        },
        "isEnabled": true,
        "noiseIndex": 0,
        "noiseIntensity": 0,
        "patternFillType": 1,
        "patternTileScale": 1
      }
    ],
    "innerShadows": [
    ],
    "miterLimit": 10,
    "shadows": [
    ],
    "startMarkerType": 0,
    "windingRule": 1
  }
}