{
  "_class": "shapePath",
  "booleanOperation": -1,
  "clippingMaskMode": 0,
  "do_objectID": "E5AABB88-D233-426F-9F1F-0017E3841807",
  "edited": true,
  "exportOptions": {
    "_class": "exportOptions",
    "exportFormats": [
    ],
    "includedLayerIds": [
    ],
    "layerOptions": 0,
    "shouldTrim": false
  },
  "frame": {
    "_class": "rect",
    "constrainProportions": false,
    "height": 23.95578387096774,
    "width": 24.00713500611599,
    "x": -0.002135006115990379,
    "y": 0.02113991935483739
  },
  "hasClippingMask": false,
  "isClosed": true,
  "isFixedToViewport": false,
  "isFlippedHorizontal": false,
  "isFlippedVertical": false,
  "isLocked": false,
  "isVisible": true,
  "layerListExpandedType": 1,
  "name": "icons / brand / fa firefox",
  "nameIsFixed": false,
  "pointRadiusBehaviour": 1,
  "points": [
    {
      "_class": "curvePoint",
      "cornerRadius": 0,
      "curveFrom": "{0.99879017821862914, 0.46754768832848365}",
      "curveMode": 4,
      "curveTo": "{0.99951607128745168, 0.47967183963789201}",
      "hasCurveFrom": true,
      "hasCurveTo": true,
      "point": "{0.99903214257490325, 0.47069996766892985}"
    },
    {
      "_class": "curvePoint",
      "cornerRadius": 0,
      "curveFrom": "{0.99854821386235493, 0.4612431296475914}",
      "curveMode": 4,
      "curveTo": "{0.99854821386235493, 0.46439540898803755}",
      "hasCurveFrom": false,
      "hasCurveTo": true,
      "point": "{0.99854821386235493, 0.4612431296475914}"
    },
    {
      "_class": "curvePoint",
      "cornerRadius": 0,
      "curveFrom": "{0.99854821386235493, 0.46100064662140322}",
      "curveMode": 1,
      "curveTo": "{0.99854821386235493, 0.46100064662140322}",
      "hasCurveFrom": false,
      "hasCurveTo": false,
      "point": "{0.99854821386235493, 0.46100064662140322}"
    },
    {
      "_class": "curvePoint",
      "cornerRadius": 0,
      "curveFrom": "{0.9978223207935325, 0.45154380860006466}",
      "curveMode": 1,
      "curveTo": "{0.9978223207935325, 0.45154380860006466}",
      "hasCurveFrom": false,
      "hasCurveTo": false,
      "point": "{0.9978223207935325, 0.45154380860006466}"
    },
    {
      "_class": "curvePoint",
      "cornerRadius": 0,
      "curveFrom": "{0.99526646742916547, 0.42321456514710637}",
      "curveMode": 4,
      "curveTo": "{0.9978223207935325, 0.45130132557387653}",
      "hasCurveFrom": true,
      "hasCurveTo": false,
      "point": "{0.9978223207935325, 0.45130132557387653}"
    },
    {
      "_class": "curvePoint",
      "cornerRadius": 0,
      "curveFrom": "{0.98306249506080823, 0.36790737148399616}",
      "curveMode": 4,
      "curveTo": "{0.99032868669609109, 0.39539691642418362}",
      "hasCurveFrom": true,
      "hasCurveTo": true,
      "point": "{0.98306249506080823, 0.36814985451018428}"
    },
    {
      "_class": "curvePoint",
      "cornerRadius": 0,
      "curveFrom": "{0.98282053070453401, 0.36766488845780798}",
      "curveMode": 4,
      "curveTo": "{0.98306249506080823, 0.36790737148399616}",
      "hasCurveFrom": false,
      "hasCurveTo": true,
      "point": "{0.98282053070453401, 0.36766488845780798}"
    },
    {
      "_class": "curvePoint",
      "cornerRadius": 0,
      "curveFrom": "{0.98040088714179219, 0.35909715486582605}",
      "curveMode": 4,
      "curveTo": "{0.9806428514980664, 0.35958212091820241}",
      "hasCurveFrom": true,
      "hasCurveTo": false,
      "point": "{0.9806428514980664, 0.35958212091820241}"
    },
    {
      "_class": "curvePoint",
      "cornerRadius": 0,
      "curveFrom": "{0.97943302971669566, 0.3559448755253799}",
      "curveMode": 4,
      "curveTo": "{0.98040088714179219, 0.35861218881344975}",
      "hasCurveFrom": true,
      "hasCurveTo": true,
      "point": "{0.98015892278551819, 0.35836970578726157}"
    },
    {
      "_class": "curvePoint",
      "cornerRadius": 0,
      "curveFrom": "{0.97773927922277637, 0.35036776592305208}",
      "curveMode": 4,
      "curveTo": "{0.97870713664787312, 0.35327756223731011}",
      "hasCurveFrom": true,
      "hasCurveTo": true,
      "point": "{0.97798124357905059, 0.35085273197542838}"
    },
    {
      "_class": "curvePoint",
      "cornerRadius": 0,
      "curveFrom": "{0.97677142179767973, 0.34673052053022957}",
      "curveMode": 4,
      "curveTo": "{0.97773927922277637, 0.34964031684448754}",
      "hasCurveFrom": true,
      "hasCurveTo": true,
      "point": "{0.97749731486650215, 0.34915535079211124}"
    },
    {
      "_class": "curvePoint",
      "cornerRadius": 0,
      "curveFrom": "{0.97507767130376055, 0.34139589395408992}",
      "curveMode": 2,
      "curveTo": "{0.97604552872885719, 0.3443056902683479}",
      "hasCurveFrom": true,
      "hasCurveTo": true,
      "point": "{0.97531963566003466, 0.3421233430326544}"
    },
    {
      "_class": "curvePoint",
      "cornerRadius": 0,
      "curveFrom": "{0.97386784952238969, 0.33767782088587134}",
      "curveMode": 2,
      "curveTo": "{0.97483570694748634, 0.34091092790171357}",
      "hasCurveFrom": true,
      "hasCurveTo": true,
      "point": "{0.97459374259121212, 0.34010265114775301}"
    },
    {
      "_class": "curvePoint",
      "cornerRadius": 0,
      "curveFrom": "{0.97217409902847052, 0.33307064338829617}",
      "curveMode": 4,
      "curveTo": "{0.97314195645356716, 0.33549547365017784}",
      "hasCurveFrom": false,
      "hasCurveTo": true,
      "point": "{0.97217409902847052, 0.33307064338829617}"
    },
    {
      "_class": "curvePoint",
      "cornerRadius": 0,
      "curveFrom": "{0.97072231289082556, 0.32870594891690919}",
      "curveMode": 4,
      "curveTo": "{0.97144820595964798, 0.33088829615260268}",
      "hasCurveFrom": true,
      "hasCurveTo": false,
      "point": "{0.97144820595964798, 0.33088829615260268}"
    },
    {
      "_class": "curvePoint",
      "cornerRadius": 0,
      "curveFrom": "{0.96883008306819385, 0.32341030754930489}",
      "curveMode": 4,
      "curveTo": "{0.9697544554657288, 0.32628111865502746}",
      "hasCurveFrom": true,
      "hasCurveTo": true,
      "point": "{0.96902856239690627, 0.32409877141933402}"
    },
    {
      "_class": "curvePoint",
      "cornerRadius": 0,
      "curveFrom": "{0.96733481190298709, 0.31989573229873908}",
      "curveMode": 2,
      "curveTo": "{0.96858761663588044, 0.32273534998383446}",
      "hasCurveFrom": true,
      "hasCurveTo": true,
      "point": "{0.96830266932808373, 0.32207807953443263}"
    },
    {
      "_class": "curvePoint",
      "cornerRadius": 0,
      "curveFrom": "{0.9653990970527937, 0.31480358874878761}",
      "curveMode": 4,
      "curveTo": "{0.96660891883416455, 0.31747090203685746}",
      "hasCurveFrom": true,
      "hasCurveTo": true,
      "point": "{0.96564106140906791, 0.31528855480116391}"
    },
    {
      "_class": "curvePoint",
      "cornerRadius": 0,
      "curveFrom": "{0.96394731091514874, 0.3111663433559651}",
      "curveMode": 4,
      "curveTo": "{0.9651571326965197, 0.31407613967022308}",
      "hasCurveFrom": true,
      "hasCurveTo": true,
      "point": "{0.96491516834024549, 0.31359117361784677}"
    },
    {
      "_class": "curvePoint",
      "cornerRadius": 0,
      "curveFrom": "{0.96201159606495545, 0.30631668283220176}",
      "curveMode": 4,
      "curveTo": "{0.96289879870462736, 0.30898399612027155}",
      "hasCurveFrom": true,
      "hasCurveTo": true,
      "point": "{0.96201159606495545, 0.30655916585838994}"
    },
    {
      "_class": "curvePoint",
      "cornerRadius": 0,
      "curveFrom": "{0.9586240950771171, 0.29807225994180414}",
      "curveMode": 4,
      "curveTo": "{0.96176963170868124, 0.30607419980601358}",
      "hasCurveFrom": true,
      "hasCurveTo": true,
      "point": "{0.96176963170868124, 0.3058317167798254}"
    },
    {
      "_class": "curvePoint",
      "cornerRadius": 0,
      "curveFrom": "{0.95168778353059091, 0.28279582929194957}",
      "curveMode": 4,
      "curveTo": "{0.95523659408927863, 0.29031280310378277}",
      "hasCurveFrom": false,
      "hasCurveTo": true,
      "point": "{0.95168778353059091, 0.28279582929194957}"
    },
    {
      "_class": "curvePoint",
      "cornerRadius": 0,
      "curveFrom": "{0.94999403303667163, 0.27932023924991922}",
      "curveMode": 4,
      "curveTo": "{0.95096189046176838, 0.28134093113482062}",
      "hasCurveFrom": true,
      "hasCurveTo": false,
      "point": "{0.95096189046176838, 0.28134093113482062}"
    },
    {
      "_class": "curvePoint",
      "cornerRadius": 0,
      "curveFrom": "{0.94781635383020413, 0.27503637245392826}",
      "curveMode": 4,
      "curveTo": "{0.94926813996784909, 0.27770368574199805}",
      "hasCurveFrom": true,
      "hasCurveTo": true,
      "point": "{0.94830028254275245, 0.27600630455868091}"
    },
    {
      "_class": "curvePoint",
      "cornerRadius": 0,
      "curveFrom": "{0.94612260333628484, 0.27115664403491757}",
      "curveMode": 4,
      "curveTo": "{0.94733242511765581, 0.27382395732298742}",
      "hasCurveFrom": true,
      "hasCurveTo": true,
      "point": "{0.94684849640510738, 0.27285402521823471}"
    },
    {
      "_class": "curvePoint",
      "cornerRadius": 0,
      "curveFrom": "{0.94370295977354324, 0.26679194956353058}",
      "curveMode": 4,
      "curveTo": "{0.94515474591118831, 0.26970174587778856}",
      "hasCurveFrom": true,
      "hasCurveTo": true,
      "point": "{0.94442885284236577, 0.26800436469447136}"
    },
    {
      "_class": "curvePoint",
      "cornerRadius": 0,
      "curveFrom": "{0.94160593535250048, 0.26315470417070808}",
      "curveMode": 2,
      "curveTo": "{0.94321903106099481, 0.26557953443258975}",
      "hasCurveFrom": true,
      "hasCurveTo": true,
      "point": "{0.94241248320674764, 0.26436711930164891}"
    },
    {
      "_class": "curvePoint",
      "cornerRadius": 0,
      "curveFrom": "{0.9392669465751835, 0.25854752667313291}",
      "curveMode": 4,
      "curveTo": "{0.94071873271282858, 0.26145732298739094}",
      "hasCurveFrom": true,
      "hasCurveTo": true,
      "point": "{0.93999283964400604, 0.25975994180407375}"
    },
    {
      "_class": "curvePoint",
      "cornerRadius": 0,
      "curveFrom": "{0.93708926736871601, 0.25466779825412217}",
      "curveMode": 2,
      "curveTo": "{0.93854105350636097, 0.25709262851600384}",
      "hasCurveFrom": true,
      "hasCurveTo": true,
      "point": "{0.93781516043753854, 0.25588021338506306}"
    },
    {
      "_class": "curvePoint",
      "cornerRadius": 0,
      "curveFrom": "{0.93467665488689355, 0.25011757799870676}",
      "curveMode": 4,
      "curveTo": "{0.93612140994361925, 0.25297041707080503}",
      "hasCurveFrom": true,
      "hasCurveTo": true,
      "point": "{0.93539551687479672, 0.25151551891367602}"
    },
    {
      "_class": "curvePoint",
      "cornerRadius": 0,
      "curveFrom": "{0.93224998024323247, 0.24601923698674427}",
      "curveMode": 4,
      "curveTo": "{0.93386842336400067, 0.2487676386194633}",
      "hasCurveFrom": true,
      "hasCurveTo": true,
      "point": "{0.932975873312055, 0.24747413514387326}"
    },
    {
      "_class": "curvePoint",
      "cornerRadius": 0,
      "curveFrom": "{0.92983033668049087, 0.24205868089233754}",
      "curveMode": 2,
      "curveTo": "{0.93128212281813594, 0.24480682185580341}",
      "hasCurveFrom": true,
      "hasCurveTo": true,
      "point": "{0.9305562297493134, 0.24343275137407047}"
    },
    {
      "_class": "curvePoint",
      "cornerRadius": 0,
      "curveFrom": "{0.92741069311774915, 0.23801729712253475}",
      "curveMode": 2,
      "curveTo": "{0.92886247925539422, 0.24076543808600062}",
      "hasCurveFrom": true,
      "hasCurveTo": true,
      "point": "{0.92813658618657169, 0.23939136760426771}"
    },
    {
      "_class": "curvePoint",
      "cornerRadius": 0,
      "curveFrom": "{0.92499104955500744, 0.23429922405431619}",
      "curveMode": 2,
      "curveTo": "{0.9264428356926524, 0.23672405431619786}",
      "hasCurveFrom": true,
      "hasCurveTo": true,
      "point": "{0.92571694262382997, 0.23551163918525703}"
    },
    {
      "_class": "curvePoint",
      "cornerRadius": 0,
      "curveFrom": "{0.92233358124285358, 0.22987998100549628}",
      "curveMode": 4,
      "curveTo": "{0.9240231921299108, 0.23260184287099903}",
      "hasCurveFrom": true,
      "hasCurveTo": true,
      "point": "{0.92305533470481405, 0.23114694471387004}"
    },
    {
      "_class": "curvePoint",
      "cornerRadius": 0,
      "curveFrom": "{0.92063569114207233, 0.2275096993210475}",
      "curveMode": 4,
      "curveTo": "{0.92152509565738649, 0.22866465607824119}",
      "hasCurveFrom": false,
      "hasCurveTo": true,
      "point": "{0.92063569114207233, 0.2275096993210475}"
    },
    {
      "_class": "curvePoint",
      "cornerRadius": 0,
      "curveFrom": "{0.91701036540482184, 0.22193866189783382}",
      "curveMode": 4,
      "curveTo": "{0.9177321188667823, 0.22320562560620755}",
      "hasCurveFrom": true,
      "hasCurveTo": false,
      "point": "{0.9177321188667823, 0.22320562560620755}"
    },
    {
      "_class": "curvePoint",
      "cornerRadius": 0,
      "curveFrom": "{0.91434461787894394, 0.21811348205625605}",
      "curveMode": 4,
      "curveTo": "{0.91620187981935475, 0.22072333697057869}",
      "hasCurveFrom": true,
      "hasCurveTo": true,
      "point": "{0.9153124753040407, 0.21956838021338507}"
    },
    {
      "_class": "curvePoint",
      "cornerRadius": 0,
      "curveFrom": "{0.91144104560365391, 0.21399127061105722}",
      "curveMode": 4,
      "curveTo": "{0.9131347960975732, 0.21641610087293889}",
      "hasCurveFrom": true,
      "hasCurveTo": true,
      "point": "{0.91216693867247645, 0.21496120271580987}"
    },
    {
      "_class": "curvePoint",
      "cornerRadius": 0,
      "curveFrom": "{0.90998925946600895, 0.21180892337536372}",
      "curveMode": 4,
      "curveTo": "{0.91071515253483148, 0.21277885548011638}",
      "hasCurveFrom": false,
      "hasCurveTo": true,
      "point": "{0.90998925946600895, 0.21180892337536372}"
    },
    {
      "_class": "curvePoint",
      "cornerRadius": 0,
      "curveFrom": "{0.90563390105307384, 0.20574684772065954}",
      "curveMode": 4,
      "curveTo": "{0.90635979412189638, 0.20671677982541223}",
      "hasCurveFrom": true,
      "hasCurveTo": false,
      "point": "{0.90635979412189638, 0.20671677982541223}"
    },
    {
      "_class": "curvePoint",
      "cornerRadius": 0,
      "curveFrom": "{0.90232705485066023, 0.20138215324927256}",
      "curveMode": 4,
      "curveTo": "{0.90514997234052552, 0.20501939864209504}",
      "hasCurveFrom": true,
      "hasCurveTo": true,
      "point": "{0.90434342448627836, 0.20404946653734238}"
    },
    {
      "_class": "curvePoint",
      "cornerRadius": 0,
      "curveFrom": "{0.88427717322547805, 0.17747934852893629}",
      "curveMode": 4,
      "curveTo": "{0.90071395914216579, 0.19895732298739088}",
      "hasCurveFrom": true,
      "hasCurveTo": true,
      "point": "{0.89877824429197251, 0.19653249272550921}"
    },
    {
      "_class": "curvePoint",
      "cornerRadius": 0,
      "curveFrom": "{0.8398386407577082, 0.13064761457322985}",
      "curveMode": 4,
      "curveTo": "{0.86843515787657821, 0.15948973003556416}",
      "hasCurveFrom": true,
      "hasCurveTo": true,
      "point": "{0.85137339415859148, 0.14270126091173616}"
    },
    {
      "_class": "curvePoint",
      "cornerRadius": 0,
      "curveFrom": "{0.80642851498066437, 0.10192369867442612}",
      "curveMode": 4,
      "curveTo": "{0.8275184408108146, 0.11937432973650178}",
      "hasCurveFrom": true,
      "hasCurveTo": true,
      "point": "{0.81449399352313678, 0.10895570643388297}"
    },
    {
      "_class": "curvePoint",
      "cornerRadius": 0,
      "curveFrom": "{0.77373298052063544, 0.077432823916909158}",
      "curveMode": 4,
      "curveTo": "{0.79804041729649311, 0.095376656967345624}",
      "hasCurveFrom": true,
      "hasCurveTo": true,
      "point": "{0.78932970047062312, 0.08907209828645328}"
    },
    {
      "_class": "curvePoint",
      "cornerRadius": 0,
      "curveFrom": "{0.7348877203089349, 0.055851923698674429}",
      "curveMode": 4,
      "curveTo": "{0.75713322556088825, 0.067208176527643063}",
      "hasCurveFrom": true,
      "hasCurveTo": true,
      "point": "{0.73972700743441844, 0.058519236986744265}"
    },
    {
      "_class": "curvePoint",
      "cornerRadius": 0,
      "curveFrom": "{0.68960521213374149, 0.033537138498221791}",
      "curveMode": 3,
      "curveTo": "{0.73004843318345158, 0.053427093436792764}",
      "hasCurveFrom": true,
      "hasCurveTo": true,
      "point": "{0.72520914605796827, 0.051002263174911092}"
    },
    {
      "_class": "curvePoint",
      "cornerRadius": 0,
      "curveFrom": "{0.60957034745527139, 0.010750080827675397}",
      "curveMode": 4,
      "curveTo": "{0.65209833944774853, 0.020273436186550274}",
      "hasCurveFrom": true,
      "hasCurveTo": true,
      "point": "{0.61344177715565806, 0.011477529906239896}"
    },
    {
      "_class": "curvePoint",
      "cornerRadius": 0,
      "curveFrom": "{0.60206945241077203, 0.0090526996443582274}",
      "curveMode": 4,
      "curveTo": "{0.6056989177548846, 0.0097801487229227293}",
      "hasCurveFrom": false,
      "hasCurveTo": true,
      "point": "{0.60206945241077203, 0.0090526996443582274}"
    },
    {
      "_class": "curvePoint",
      "cornerRadius": 0,
      "curveFrom": "{0.5998111184188798, 0.0088102166181700629}",
      "curveMode": 4,
      "curveTo": "{0.60182748805449793, 0.0090526996443582274}",
      "hasCurveFrom": true,
      "hasCurveTo": false,
      "point": "{0.60182748805449793, 0.0090526996443582274}"
    },
    {
      "_class": "curvePoint",
      "cornerRadius": 0,
      "curveFrom": "{0.57098116013818545, 0.0033205708858713226}",
      "curveMode": 4,
      "curveTo": "{0.59819802271038547, 0.0083252505657937289}",
      "hasCurveFrom": true,
      "hasCurveTo": true,
      "point": "{0.59626230786019196, 0.008082767539605561}"
    },
    {
      "_class": "curvePoint",
      "cornerRadius": 0,
      "curveFrom": "{0.51964026170670496, 0}",
      "curveMode": 4,
      "curveTo": "{0.54535676178036829, 0.00061748397793404456}",
      "hasCurveFrom": false,
      "hasCurveTo": true,
      "point": "{0.51964026170670496, 0}"
    },
    {
      "_class": "curvePoint",
      "cornerRadius": 0,
      "curveFrom": "{0.4673826288858694, 0.00036565451624636264}",
      "curveMode": 4,
      "curveTo": "{0.49820625248008482, 0}",
      "hasCurveFrom": true,
      "hasCurveTo": false,
      "point": "{0.49820625248008482, 0}"
    },
    {
      "_class": "curvePoint",
      "cornerRadius": 0,
      "curveFrom": "{0.33877190539176333, 0.024409957969608792}",
      "curveMode": 3,
      "curveTo": "{0.43666845585184494, 0.0037495607419980597}",
      "hasCurveFrom": true,
      "hasCurveTo": true,
      "point": "{0.40650176145217459, 0.010103459424506951}"
    },
    {
      "_class": "curvePoint",
      "cornerRadius": 0,
      "curveFrom": "{0.23714687575661214, 0.090931134820562559}",
      "curveMode": 4,
      "curveTo": "{0.27900670939204347, 0.053022955059812485}",
      "hasCurveFrom": true,
      "hasCurveTo": true,
      "point": "{0.23932455496307967, 0.088910442935661166}"
    },
    {
      "_class": "curvePoint",
      "cornerRadius": 0,
      "curveFrom": "{0.23448526783759627, 0.093275137407048181}",
      "curveMode": 4,
      "curveTo": "{0.23545312526269294, 0.092305205302295509}",
      "hasCurveFrom": false,
      "hasCurveTo": true,
      "point": "{0.23448526783759627, 0.093275137407048181}"
    },
    {
      "_class": "curvePoint",
      "cornerRadius": 0,
      "curveFrom": "{0.2335174104124996, 0.094245069511800839}",
      "curveMode": 1,
      "curveTo": "{0.2335174104124996, 0.094245069511800839}",
      "hasCurveFrom": false,
      "hasCurveTo": false,
      "point": "{0.2335174104124996, 0.094245069511800839}"
    },
    {
      "_class": "curvePoint",
      "cornerRadius": 0,
      "curveFrom": "{0.23377953846512994, 0.094245069511800839}",
      "curveMode": 1,
      "curveTo": "{0.23377953846512994, 0.094245069511800839}",
      "hasCurveFrom": false,
      "hasCurveTo": false,
      "point": "{0.23377953846512994, 0.094245069511800839}"
    },
    {
      "_class": "curvePoint",
      "cornerRadius": 0,
      "curveFrom": "{0.23353757410885576, 0.094487552537989003}",
      "curveMode": 1,
      "curveTo": "{0.23353757410885576, 0.094487552537989003}",
      "hasCurveFrom": false,
      "hasCurveTo": false,
      "point": "{0.23353757410885576, 0.094487552537989003}"
    },
    {
      "_class": "curvePoint",
      "cornerRadius": 0,
      "curveFrom": "{0.23391317134636092, 0.094245069511800839}",
      "curveMode": 4,
      "curveTo": "{0.23377953846512994, 0.094245069511800839}",
      "hasCurveFrom": true,
      "hasCurveTo": false,
      "point": "{0.23377953846512994, 0.094245069511800839}"
    },
    {
      "_class": "curvePoint",
      "cornerRadius": 0,
      "curveFrom": "{0.23402150282140413, 0.094002586485612674}",
      "curveMode": 4,
      "curveTo": "{0.23402150282140413, 0.094136506223731001}",
      "hasCurveFrom": false,
      "hasCurveTo": true,
      "point": "{0.23402150282140413, 0.094002586485612674}"
    },
    {
      "_class": "curvePoint",
      "cornerRadius": 0,
      "curveFrom": "{0.23391005202253459, 0.094113388094083428}",
      "curveMode": 4,
      "curveTo": "{0.23377953846512994, 0.094245069511800839}",
      "hasCurveFrom": true,
      "hasCurveTo": false,
      "point": "{0.23377953846512994, 0.094245069511800839}"
    },
    {
      "_class": "curvePoint",
      "cornerRadius": 0,
      "curveFrom": "{0.26378311864312698, 0.076301325573876491}",
      "curveMode": 4,
      "curveTo": "{0.23408004004829572, 0.09402821168768187}",
      "hasCurveFrom": true,
      "hasCurveTo": true,
      "point": "{0.23426346717767826, 0.094002586485612674}"
    },
    {
      "_class": "curvePoint",
      "cornerRadius": 0,
      "curveFrom": "{0.33395278196263617, 0.054477853216941485}",
      "curveMode": 4,
      "curveTo": "{0.30467509485346161, 0.06167151632719043}",
      "hasCurveFrom": false,
      "hasCurveTo": true,
      "point": "{0.33395278196263617, 0.054477853216941485}"
    },
    {
      "_class": "curvePoint",
      "cornerRadius": 0,
      "curveFrom": "{0.34653492848889295, 0.05132557387649532}",
      "curveMode": 4,
      "curveTo": "{0.34580903542007047, 0.051568056902683478}",
      "hasCurveFrom": true,
      "hasCurveTo": false,
      "point": "{0.34580903542007047, 0.051568056902683478}"
    },
    {
      "_class": "curvePoint",
      "cornerRadius": 0,
      "curveFrom": "{0.35161617997065048, 0.050355641771742649}",
      "curveMode": 4,
      "curveTo": "{0.34750278591398964, 0.05132557387649532}",
      "hasCurveFrom": true,
      "hasCurveTo": true,
      "point": "{0.34822867898281212, 0.051083090850307149}"
    },
    {
      "_class": "curvePoint",
      "cornerRadius": 0,
      "curveFrom": "{0.35911707501514978, 0.048900743614613641}",
      "curveMode": 4,
      "curveTo": "{0.35500368095848889, 0.049628192693178148}",
      "hasCurveFrom": true,
      "hasCurveTo": true,
      "point": "{0.3586331463026014, 0.048900743614613641}"
    },
    {
      "_class": "curvePoint",
      "cornerRadius": 0,
      "curveFrom": "{0.48973750001048894, 0.025056579372777235}",
      "curveMode": 4,
      "curveTo": "{0.35984296808397231, 0.048658260588425484}",
      "hasCurveFrom": true,
      "hasCurveTo": true,
      "point": "{0.36032689679652058, 0.048658260588425484}"
    },
    {
      "_class": "curvePoint",
      "cornerRadius": 0,
      "curveFrom": "{0.74448550467771146, 0.17547023359198188}",
      "curveMode": 3,
      "curveTo": "{0.62765718308676544, 0.063853863562883931}",
      "hasCurveFrom": true,
      "hasCurveTo": true,
      "point": "{0.7237573599203232, 0.15573472356935014}"
    },
    {
      "_class": "curvePoint",
      "cornerRadius": 0,
      "curveFrom": "{0.83917435786310202, 0.32135063045586809}",
      "curveMode": 4,
      "curveTo": "{0.76269113674265765, 0.19770590991755577}",
      "hasCurveFrom": true,
      "hasCurveTo": true,
      "point": "{0.77795737572573709, 0.22193258971871968}"
    },
    {
      "_class": "curvePoint",
      "cornerRadius": 0,
      "curveFrom": "{0.71625646487582384, 0.62726317491108952}",
      "curveMode": 3,
      "curveTo": "{0.83336721331252195, 0.44645166505011313}",
      "hasCurveFrom": true,
      "hasCurveTo": true,
      "point": "{0.78570023512651066, 0.52016650501131578}"
    },
    {
      "_class": "curvePoint",
      "cornerRadius": 0,
      "curveFrom": "{0.43285519034996728, 0.5390185681377303}",
      "curveMode": 3,
      "curveTo": "{0.56117747620043745, 0.66418121564823795}",
      "hasCurveFrom": true,
      "hasCurveTo": true,
      "point": "{0.46509746306323602, 0.57036049143226641}"
    },
    {
      "_class": "curvePoint",
      "cornerRadius": 0,
      "curveFrom": "{0.41320349662077155, 0.42959486744261238}",
      "curveMode": 3,
      "curveTo": "{0.41432254749025577, 0.49614807428063368}",
      "hasCurveFrom": true,
      "hasCurveTo": true,
      "point": "{0.41355905517683789, 0.45113967022308443}"
    },
    {
      "_class": "curvePoint",
      "cornerRadius": 0,
      "curveFrom": "{0.42952870269093313, 0.38073876495311998}",
      "curveMode": 3,
      "curveTo": "{0.41749538979942552, 0.40822725307145169}",
      "hasCurveFrom": true,
      "hasCurveTo": true,
      "point": "{0.42614120170309472, 0.38849822179114135}"
    },
    {
      "_class": "curvePoint",
      "cornerRadius": 0,
      "curveFrom": "{0.436545669022884, 0.33323229873908827}",
      "curveMode": 4,
      "curveTo": "{0.45251531653697918, 0.3366270611057226}",
      "hasCurveFrom": true,
      "hasCurveTo": true,
      "point": "{0.46291978385676846, 0.33880940834141615}"
    },
    {
      "_class": "curvePoint",
      "cornerRadius": 0,
      "curveFrom": "{0.32163276348900965, 0.44208697057872615}",
      "curveMode": 2,
      "curveTo": "{0.38720510403930963, 0.3441440349175558}",
      "hasCurveFrom": true,
      "hasCurveTo": true,
      "point": "{0.35260420109210339, 0.39577271257678631}"
    },
    {
      "_class": "curvePoint",
      "cornerRadius": 0,
      "curveFrom": "{0.33032418769020622, 0.5390545364532815}",
      "curveMode": 4,
      "curveTo": "{0.32332651398292883, 0.51337698027804723}",
      "hasCurveFrom": true,
      "hasCurveTo": true,
      "point": "{0.34252235291401301, 0.564055932751374}"
    },
    {
      "_class": "curvePoint",
      "cornerRadius": 0,
      "curveFrom": "{0.29340358859035653, 0.31795586808923376}",
      "curveMode": 3,
      "curveTo": "{0.32207956277108774, 0.51230432023924999}",
      "hasCurveFrom": true,
      "hasCurveTo": true,
      "point": "{0.31808395293032188, 0.48476398318784353}"
    },
    {
      "_class": "curvePoint",
      "cornerRadius": 0,
      "curveFrom": "{0.45283793567867803, 0.091719204655674111}",
      "curveMode": 4,
      "curveTo": "{0.40541292184894084, 0.1755981247979308}",
      "hasCurveFrom": true,
      "hasCurveTo": true,
      "point": "{0.50824777326546289, 0.14021580989330748}"
    },
    {
      "_class": "curvePoint",
      "cornerRadius": 0,
      "curveFrom": "{0.1501606896760482, 0.2157088587132234}",
      "curveMode": 3,
      "curveTo": "{0.31372859451738683, 0.095134173941157446}",
      "hasCurveFrom": true,
      "hasCurveTo": true,
      "point": "{0.21040981438831641, 0.17125363724539283}"
    },
    {
      "_class": "curvePoint",
      "cornerRadius": 0,
      "curveFrom": "{0.087754049453668659, 0.31165130940834146}",
      "curveMode": 4,
      "curveTo": "{0.10711119795560223, 0.27867361784675071}",
      "hasCurveFrom": true,
      "hasCurveTo": true,
      "point": "{0.084366548465830291, 0.35384335596508248}"
    },
    {
      "_class": "curvePoint",
      "cornerRadius": 0,
      "curveFrom": "{0.10178798211757049, 0.20229146459747818}",
      "curveMode": 4,
      "curveTo": "{0.10372369696776385, 0.24860572259941802}",
      "hasCurveFrom": true,
      "hasCurveTo": true,
      "point": "{0.13638888506477673, 0.18434772065955382}"
    },
    {
      "_class": "curvePoint",
      "cornerRadius": 0,
      "curveFrom": "{0.004518310895354362, 0.38704332363401234}",
      "curveMode": 3,
      "curveTo": "{0.057750469275671644, 0.25911332040090529}",
      "hasCurveFrom": true,
      "hasCurveTo": true,
      "point": "{0.03597367721099639, 0.31140882638215328}"
    },
    {
      "_class": "curvePoint",
      "cornerRadius": 0,
      "curveFrom": "{0.0042763465390801931, 0.57011800840607818}",
      "curveMode": 3,
      "curveTo": "{-0.0063700851369832643, 0.47748949240219857}",
      "hasCurveFrom": true,
      "hasCurveTo": true,
      "point": "{0.0035504534702576846, 0.56357096669899764}"
    },
    {
      "_class": "curvePoint",
      "cornerRadius": 0,
      "curveFrom": "{0.045894215818237341, 0.81961283543485286}",
      "curveMode": 4,
      "curveTo": "{0.0050022396079027016, 0.57642256708697059}",
      "hasCurveFrom": true,
      "hasCurveTo": true,
      "point": "{0.0057281326767252092, 0.58296960879405113}"
    },
    {
      "_class": "curvePoint",
      "cornerRadius": 0,
      "curveFrom": "{0.77571920543020101, 1}",
      "curveMode": 3,
      "curveTo": "{0.25172522822213084, 1}",
      "hasCurveFrom": true,
      "hasCurveTo": true,
      "point": "{0.49929509208331863, 1}"
    },
    {
      "_class": "curvePoint",
      "cornerRadius": 0,
      "curveFrom": "{0.99975803564372578, 0.48888619463304234}",
      "curveMode": 4,
      "curveTo": "{1, 0.77523844164241829}",
      "hasCurveFrom": true,
      "hasCurveTo": true,
      "point": "{1, 0.49801972195279665}"
    }
  ],
  "resizingConstraint": 63,
  "resizingType": 0,
  "rotation": 0,
  "sharedStyleID": "6384751B-1CEA-4B08-9A1E-01F42BC9555A",
  "shouldBreakMaskChain": false,
  "style": {
    "_class": "style",
    "blur": {
      "_class": "blur",
      "center": "{0.5, 0.5}",
      "isEnabled": false,
      "motionAngle": 0,
      "radius": 10,
      "saturation": 1,
      "type": 0
    },
    "borderOptions": {
      "_class": "borderOptions",
      "dashPattern": [
      ],
      "isEnabled": true,
      "lineCapStyle": 0,
      "lineJoinStyle": 9223372036854776000
    },
    "borders": [
    ],
    "colorControls": {
      "_class": "colorControls",
      "brightness": 0,
      "contrast": 1,
      "hue": 0,
      "isEnabled": false,
      "saturation": 1
    },
    "contextSettings": {
      "_class": "graphicsContextSettings",
      "blendMode": 0,
      "opacity": 1
    },
    "do_objectID": "2EFA98FC-4B24-4E6E-9F5D-2E189C335A5F",
    "endMarkerType": 0,
    "fills": [
      {
        "_class": "fill",
        "color": {
          "_class": "color",
          "alpha": 1,
          "blue": 0,
          "green": 0,
          "red": 0
        },
        "contextSettings": {
          "_class": "graphicsContextSettings",
          "blendMode": 0,
          "opacity": 1
        },
        "fillType": 0,
        "gradient": {
          "_class": "gradient",
          "elipseLength": 0,
          "from": "{0.5, 0}",
          "gradientType": 0,
          "stops": [
            {
              "_class": "gradientStop",
              "color": {
                "_class": "color",
                "alpha": 1,
                "blue": 1,
                "green": 1,
                "red": 1
              },
              "position": 0
            },
            {
              "_class": "gradientStop",
              "color": {
                "_class": "color",
                "alpha": 1,
                "blue": 0,
                "green": 0,
                "red": 0
              },
              "position": 1
            }
          ],
          "to": "{0.5, 1}"
        },
        "isEnabled": true,
        "noiseIndex": 0,
        "noiseIntensity": 0,
        "patternFillType": 1,
        "patternTileScale": 1
      }
    ],
    "innerShadows": [
    ],
    "miterLimit": 10,
    "shadows": [
    ],
    "startMarkerType": 0,
    "windingRule": 1
  }
}