{
  "_class": "shapePath",
  "booleanOperation": -1,
  "clippingMaskMode": 0,
  "do_objectID": "54A0A441-B9FF-4C3B-94CD-A77F124C08F1",
  "edited": true,
  "exportOptions": {
    "_class": "exportOptions",
    "exportFormats": [
    ],
    "includedLayerIds": [
    ],
    "layerOptions": 0,
    "shouldTrim": false
  },
  "frame": {
    "_class": "rect",
    "constrainProportions": false,
    "height": 21.00002850540978,
    "width": 23.99999428525058,
    "x": -5.000000058430487e-8,
    "y": 1.500004425100007
  },
  "hasClippingMask": false,
  "isClosed": true,
  "isFixedToViewport": false,
  "isFlippedHorizontal": false,
  "isFlippedVertical": false,
  "isLocked": false,
  "isVisible": true,
  "layerListExpandedType": 1,
  "name": "share",
  "nameIsFixed": false,
  "pointRadiusBehaviour": 1,
  "points": [
    {
      "_class": "curvePoint",
      "cornerRadius": 0,
      "curveFrom": "{0.98377172272441815, 0.35231181043737198}",
      "curveMode": 4,
      "curveTo": "{1.005424071720376, 0.37368454937220225}",
      "hasCurveFrom": false,
      "hasCurveTo": true,
      "point": "{0.98377172272441815, 0.35231181043737198}"
    },
    {
      "_class": "curvePoint",
      "cornerRadius": 0,
      "curveFrom": "{0.60992397589812808, -0.016638583143630307}",
      "curveMode": 4,
      "curveTo": "{0.64001382693833408, 0.013060037381478498}",
      "hasCurveFrom": true,
      "hasCurveTo": false,
      "point": "{0.64001382693833408, 0.013060037381478498}"
    },
    {
      "_class": "curvePoint",
      "cornerRadius": 0,
      "curveFrom": "{0.56250013628322215, 0.053604625372314758}",
      "curveMode": 4,
      "curveTo": "{0.56250013628322215, 0.0074707592307928627}",
      "hasCurveFrom": false,
      "hasCurveTo": true,
      "point": "{0.56250013628322215, 0.053604625372314758}"
    },
    {
      "_class": "curvePoint",
      "cornerRadius": 0,
      "curveFrom": "{0.24877154464767459, 0.23639902086590447}",
      "curveMode": 4,
      "curveTo": "{0.56250013628322215, 0.23229411570651506}",
      "hasCurveFrom": true,
      "hasCurveTo": false,
      "point": "{0.56250013628322215, 0.23229411570651506}"
    },
    {
      "_class": "curvePoint",
      "cornerRadius": 0,
      "curveFrom": "{0, 0.78519292107659611}",
      "curveMode": 3,
      "curveTo": "{0, 0.3082582986235014}",
      "hasCurveFrom": true,
      "hasCurveTo": true,
      "point": "{0, 0.64804801738000006}"
    },
    {
      "_class": "curvePoint",
      "cornerRadius": 0,
      "curveFrom": "{0.18942582714432146, 1.0142595753815729}",
      "curveMode": 3,
      "curveTo": "{0.077306659354952137, 0.92105880864685707}",
      "hasCurveFrom": true,
      "hasCurveTo": true,
      "point": "{0.16275980505864496, 0.99209219466493581}"
    },
    {
      "_class": "curvePoint",
      "cornerRadius": 0,
      "curveFrom": "{0.12903518751280332, 0.62681590325487146}",
      "curveMode": 3,
      "curveTo": "{0.22742974260195664, 0.98643818445899067}",
      "hasCurveFrom": true,
      "hasCurveTo": true,
      "point": "{0.21759770896983949, 0.95050519737043726}"
    },
    {
      "_class": "curvePoint",
      "cornerRadius": 0,
      "curveFrom": "{0.56250013628322215, 0.53590307985260488}",
      "curveMode": 4,
      "curveTo": "{0.25960357852207305, 0.54088298382791622}",
      "hasCurveFrom": false,
      "hasCurveTo": true,
      "point": "{0.56250013628322215, 0.53590307985260488}"
    },
    {
      "_class": "curvePoint",
      "cornerRadius": 0,
      "curveFrom": "{0.56250013628322215, 0.7783469481979407}",
      "curveMode": 4,
      "curveTo": "{0.56250013628322215, 0.73214165358164973}",
      "hasCurveFrom": true,
      "hasCurveTo": false,
      "point": "{0.56250013628322215, 0.73214165358164973}"
    },
    {
      "_class": "curvePoint",
      "cornerRadius": 0,
      "curveFrom": "{0.64001382693833408, 0.77268624157248589}",
      "curveMode": 4,
      "curveTo": "{0.60996108528211901, 0.80234914786021017}",
      "hasCurveFrom": false,
      "hasCurveTo": true,
      "point": "{0.64001382693833408, 0.77268624157248589}"
    },
    {
      "_class": "curvePoint",
      "cornerRadius": 0,
      "curveFrom": "{1.0053947748382779, 0.41205726530208908}",
      "curveMode": 4,
      "curveTo": "{0.98377172272441826, 0.43340098641904445}",
      "hasCurveFrom": true,
      "hasCurveTo": false,
      "point": "{0.98377172272441826, 0.43340098641904445}"
    }
  ],
  "resizingConstraint": 63,
  "resizingType": 0,
  "rotation": 0,
  "sharedStyleID": "6384751B-1CEA-4B08-9A1E-01F42BC9555A",
  "shouldBreakMaskChain": false,
  "style": {
    "_class": "style",
    "blur": {
      "_class": "blur",
      "center": "{0.5, 0.5}",
      "isEnabled": false,
      "motionAngle": 0,
      "radius": 10,
      "saturation": 1,
      "type": 0
    },
    "borderOptions": {
      "_class": "borderOptions",
      "dashPattern": [
      ],
      "isEnabled": true,
      "lineCapStyle": 0,
      "lineJoinStyle": 9223372036854776000
    },
    "borders": [
    ],
    "colorControls": {
      "_class": "colorControls",
      "brightness": 0,
      "contrast": 1,
      "hue": 0,
      "isEnabled": false,
      "saturation": 1
    },
    "contextSettings": {
      "_class": "graphicsContextSettings",
      "blendMode": 0,
      "opacity": 1
    },
    "do_objectID": "729A0D4B-C08B-4317-9919-6A164D608FA9",
    "endMarkerType": 0,
    "fills": [
      {
        "_class": "fill",
        "color": {
          "_class": "color",
          "alpha": 1,
          "blue": 0,
          "green": 0,
          "red": 0
        },
        "contextSettings": {
          "_class": "graphicsContextSettings",
          "blendMode": 0,
          "opacity": 1
        },
        "fillType": 0,
        "gradient": {
          "_class": "gradient",
          "elipseLength": 0,
          "from": "{0.5, 0}",
          "gradientType": 0,
          "stops": [
            {
              "_class": "gradientStop",
              "color": {
                "_class": "color",
                "alpha": 1,
                "blue": 1,
                "green": 1,
                "red": 1
              },
              "position": 0
            },
            {
              "_class": "gradientStop",
              "color": {
                "_class": "color",
                "alpha": 1,
                "blue": 0,
                "green": 0,
                "red": 0
              },
              "position": 1
            }
          ],
          "to": "{0.5, 1}"
        },
        "isEnabled": true,
        "noiseIndex": 0,
        "noiseIntensity": 0,
        "patternFillType": 1,
        "patternTileScale": 1
      }
    ],
    "innerShadows": [
    ],
    "miterLimit": 10,
    "shadows": [
    ],
    "startMarkerType": 0,
    "windingRule": 1
  }
}