{
  "_class": "shapePath",
  "booleanOperation": -1,
  "clippingMaskMode": 0,
  "do_objectID": "6C55823E-6BE9-4A50-B628-F0C70DC509B0",
  "edited": true,
  "exportOptions": {
    "_class": "exportOptions",
    "exportFormats": [
    ],
    "includedLayerIds": [
    ],
    "layerOptions": 0,
    "shouldTrim": false
  },
  "frame": {
    "_class": "rect",
    "constrainProportions": false,
    "height": 10.32252514048253,
    "width": 21.00003524375015,
    "x": 1.499964799999852,
    "y": 6.83871399225864
  },
  "hasClippingMask": false,
  "isClosed": true,
  "isFixedToViewport": false,
  "isFlippedHorizontal": false,
  "isFlippedVertical": false,
  "isLocked": false,
  "isVisible": true,
  "layerListExpandedType": 1,
  "name": "long-arrow-alt-left",
  "nameIsFixed": false,
  "pointRadiusBehaviour": 1,
  "points": [
    {
      "_class": "curvePoint",
      "cornerRadius": 0,
      "curveFrom": "{0.29924001243301496, 0.68164387296662465}",
      "curveMode": 1,
      "curveTo": "{0.29924001243301496, 0.68164387296662465}",
      "hasCurveFrom": false,
      "hasCurveTo": false,
      "point": "{0.29924001243301496, 0.68164387296662465}"
    },
    {
      "_class": "curvePoint",
      "cornerRadius": 0,
      "curveFrom": "{0.98800671650661298, 0.68164387296662465}",
      "curveMode": 4,
      "curveTo": "{0.9732143305563663, 0.68164387296662465}",
      "hasCurveFrom": true,
      "hasCurveTo": false,
      "point": "{0.9732143305563663, 0.68164387296662465}"
    },
    {
      "_class": "curvePoint",
      "cornerRadius": 0,
      "curveFrom": "{1, 0.62715139223264638}",
      "curveMode": 4,
      "curveTo": "{1, 0.65724486471798593}",
      "hasCurveFrom": false,
      "hasCurveTo": true,
      "point": "{1, 0.62715139223264638}"
    },
    {
      "_class": "curvePoint",
      "cornerRadius": 0,
      "curveFrom": "{1, 0.34275967632207516}",
      "curveMode": 4,
      "curveTo": "{1, 0.37285314880741466}",
      "hasCurveFrom": true,
      "hasCurveTo": false,
      "point": "{1, 0.37285314880741466}"
    },
    {
      "_class": "curvePoint",
      "cornerRadius": 0,
      "curveFrom": "{0.9732143305563663, 0.31836066807343644}",
      "curveMode": 4,
      "curveTo": "{0.98800671650661298, 0.31836066807343644}",
      "hasCurveFrom": false,
      "hasCurveTo": true,
      "point": "{0.9732143305563663, 0.31836066807343644}"
    },
    {
      "_class": "curvePoint",
      "cornerRadius": 0,
      "curveFrom": "{0.29924001243301496, 0.31836066807343644}",
      "curveMode": 1,
      "curveTo": "{0.29924001243301496, 0.31836066807343644}",
      "hasCurveFrom": false,
      "hasCurveTo": false,
      "point": "{0.29924001243301496, 0.31836066807343644}"
    },
    {
      "_class": "curvePoint",
      "cornerRadius": 0,
      "curveFrom": "{0.29924001243301496, 0.012108385308417641}",
      "curveMode": 4,
      "curveTo": "{0.29924001243301496, 0.10920490389624453}",
      "hasCurveFrom": true,
      "hasCurveTo": false,
      "point": "{0.29924001243301496, 0.10920490389624453}"
    },
    {
      "_class": "curvePoint",
      "cornerRadius": 0,
      "curveFrom": "{0.20778704053508837, 0.032138913018215809}",
      "curveMode": 4,
      "curveTo": "{0.2415369840340669, -0.036517071666535589}",
      "hasCurveFrom": false,
      "hasCurveTo": true,
      "point": "{0.20778704053508837, 0.032138913018215809}"
    },
    {
      "_class": "curvePoint",
      "cornerRadius": 0,
      "curveFrom": "{-0.0052304599936495635, 0.46549944813529992}",
      "curveMode": 4,
      "curveTo": "{0.015691379980948692, 0.42293627964200181}",
      "hasCurveFrom": true,
      "hasCurveTo": false,
      "point": "{0.015691379980948692, 0.42293627964200181}"
    },
    {
      "_class": "curvePoint",
      "cornerRadius": 0,
      "curveFrom": "{0.015691379980948692, 0.57706372035799824}",
      "curveMode": 4,
      "curveTo": "{-0.0052304599936495635, 0.53450509290476111}",
      "hasCurveFrom": false,
      "hasCurveTo": true,
      "point": "{0.015691379980948692, 0.57706372035799824}"
    },
    {
      "_class": "curvePoint",
      "cornerRadius": 0,
      "curveFrom": "{0.24153475189494658, 1.0365170716665355}",
      "curveMode": 4,
      "curveTo": "{0.20778704053508837, 0.96786108698178408}",
      "hasCurveFrom": true,
      "hasCurveTo": false,
      "point": "{0.20778704053508837, 0.96786108698178408}"
    },
    {
      "_class": "curvePoint",
      "cornerRadius": 0,
      "curveFrom": "{0.29924001243301496, 0.89079509610375529}",
      "curveMode": 4,
      "curveTo": "{0.29924001243301496, 0.98789161469158226}",
      "hasCurveFrom": false,
      "hasCurveTo": true,
      "point": "{0.29924001243301496, 0.89079509610375529}"
    }
  ],
  "resizingConstraint": 63,
  "resizingType": 0,
  "rotation": 0,
  "sharedStyleID": "6384751B-1CEA-4B08-9A1E-01F42BC9555A",
  "shouldBreakMaskChain": false,
  "style": {
    "_class": "style",
    "blur": {
      "_class": "blur",
      "center": "{0.5, 0.5}",
      "isEnabled": false,
      "motionAngle": 0,
      "radius": 10,
      "saturation": 1,
      "type": 0
    },
    "borderOptions": {
      "_class": "borderOptions",
      "dashPattern": [
      ],
      "isEnabled": true,
      "lineCapStyle": 0,
      "lineJoinStyle": 9223372036854776000
    },
    "borders": [
    ],
    "colorControls": {
      "_class": "colorControls",
      "brightness": 0,
      "contrast": 1,
      "hue": 0,
      "isEnabled": false,
      "saturation": 1
    },
    "contextSettings": {
      "_class": "graphicsContextSettings",
      "blendMode": 0,
      "opacity": 1
    },
    "do_objectID": "FF50BDC1-5BD8-4371-963C-77BD5D146F0C",
    "endMarkerType": 0,
    "fills": [
      {
        "_class": "fill",
        "color": {
          "_class": "color",
          "alpha": 1,
          "blue": 0,
          "green": 0,
          "red": 0
        },
        "contextSettings": {
          "_class": "graphicsContextSettings",
          "blendMode": 0,
          "opacity": 1
        },
        "fillType": 0,
        "gradient": {
          "_class": "gradient",
          "elipseLength": 0,
          "from": "{0.5, 0}",
          "gradientType": 0,
          "stops": [
            {
              "_class": "gradientStop",
              "color": {
                "_class": "color",
                "alpha": 1,
                "blue": 1,
                "green": 1,
                "red": 1
              },
              "position": 0
            },
            {
              "_class": "gradientStop",
              "color": {
                "_class": "color",
                "alpha": 1,
                "blue": 0,
                "green": 0,
                "red": 0
              },
              "position": 1
            }
          ],
          "to": "{0.5, 1}"
        },
        "isEnabled": true,
        "noiseIndex": 0,
        "noiseIntensity": 0,
        "patternFillType": 1,
        "patternTileScale": 1
      }
    ],
    "innerShadows": [
    ],
    "miterLimit": 10,
    "shadows": [
    ],
    "startMarkerType": 0,
    "windingRule": 1
  }
}