{
  "_class": "shapePath",
  "booleanOperation": -1,
  "clippingMaskMode": 0,
  "do_objectID": "2990E9CE-73BE-460C-9D48-B4B81C86A8DF",
  "edited": true,
  "exportOptions": {
    "_class": "exportOptions",
    "exportFormats": [
    ],
    "includedLayerIds": [
    ],
    "layerOptions": 0,
    "shouldTrim": false
  },
  "frame": {
    "_class": "rect",
    "constrainProportions": false,
    "height": 24.0000001,
    "width": 18.000000075,
    "x": 2.999999962499999,
    "y": -5.000000058430487e-8
  },
  "hasClippingMask": false,
  "isClosed": true,
  "isFixedToViewport": false,
  "isFlippedHorizontal": false,
  "isFlippedVertical": false,
  "isLocked": false,
  "isVisible": true,
  "layerListExpandedType": 1,
  "name": "cross",
  "nameIsFixed": false,
  "pointRadiusBehaviour": 1,
  "points": [
    {
      "_class": "curvePoint",
      "cornerRadius": 0,
      "curveFrom": "{0.91666666666666663, 0.25}",
      "curveMode": 4,
      "curveTo": "{0.96268229166666675, 0.25}",
      "hasCurveFrom": false,
      "hasCurveTo": true,
      "point": "{0.91666666666666663, 0.25}"
    },
    {
      "_class": "curvePoint",
      "cornerRadius": 0,
      "curveFrom": "{0.66666666666666663, 0.25}",
      "curveMode": 1,
      "curveTo": "{0.66666666666666663, 0.25}",
      "hasCurveFrom": false,
      "hasCurveTo": false,
      "point": "{0.66666666666666663, 0.25}"
    },
    {
      "_class": "curvePoint",
      "cornerRadius": 0,
      "curveFrom": "{0.66666666666666663, 0.027988281249999997}",
      "curveMode": 4,
      "curveTo": "{0.66666666666666663, 0.0625}",
      "hasCurveFrom": true,
      "hasCurveTo": false,
      "point": "{0.66666666666666663, 0.0625}"
    },
    {
      "_class": "curvePoint",
      "cornerRadius": 0,
      "curveFrom": "{0.58333333333333337, 0}",
      "curveMode": 4,
      "curveTo": "{0.62934895833333326, 0}",
      "hasCurveFrom": false,
      "hasCurveTo": true,
      "point": "{0.58333333333333337, 0}"
    },
    {
      "_class": "curvePoint",
      "cornerRadius": 0,
      "curveFrom": "{0.37065104166666663, 0}",
      "curveMode": 4,
      "curveTo": "{0.41666666666666669, 0}",
      "hasCurveFrom": true,
      "hasCurveTo": false,
      "point": "{0.41666666666666669, 0}"
    },
    {
      "_class": "curvePoint",
      "cornerRadius": 0,
      "curveFrom": "{0.33333333333333331, 0.0625}",
      "curveMode": 4,
      "curveTo": "{0.33333333333333331, 0.02798828125}",
      "hasCurveFrom": false,
      "hasCurveTo": true,
      "point": "{0.33333333333333331, 0.0625}"
    },
    {
      "_class": "curvePoint",
      "cornerRadius": 0,
      "curveFrom": "{0.33333333333333331, 0.25}",
      "curveMode": 1,
      "curveTo": "{0.33333333333333331, 0.25}",
      "hasCurveFrom": false,
      "hasCurveTo": false,
      "point": "{0.33333333333333331, 0.25}"
    },
    {
      "_class": "curvePoint",
      "cornerRadius": 0,
      "curveFrom": "{0.037317708333333331, 0.25}",
      "curveMode": 4,
      "curveTo": "{0.083333333333333329, 0.25}",
      "hasCurveFrom": true,
      "hasCurveTo": false,
      "point": "{0.083333333333333329, 0.25}"
    },
    {
      "_class": "curvePoint",
      "cornerRadius": 0,
      "curveFrom": "{0, 0.3125}",
      "curveMode": 4,
      "curveTo": "{0, 0.27798828125000002}",
      "hasCurveFrom": false,
      "hasCurveTo": true,
      "point": "{0, 0.3125}"
    },
    {
      "_class": "curvePoint",
      "cornerRadius": 0,
      "curveFrom": "{0, 0.47201171875000003}",
      "curveMode": 4,
      "curveTo": "{0, 0.4375}",
      "hasCurveFrom": true,
      "hasCurveTo": false,
      "point": "{0, 0.4375}"
    },
    {
      "_class": "curvePoint",
      "cornerRadius": 0,
      "curveFrom": "{0.083333333333333329, 0.5}",
      "curveMode": 4,
      "curveTo": "{0.037317708333333331, 0.5}",
      "hasCurveFrom": false,
      "hasCurveTo": true,
      "point": "{0.083333333333333329, 0.5}"
    },
    {
      "_class": "curvePoint",
      "cornerRadius": 0,
      "curveFrom": "{0.33333333333333331, 0.5}",
      "curveMode": 1,
      "curveTo": "{0.33333333333333331, 0.5}",
      "hasCurveFrom": false,
      "hasCurveTo": false,
      "point": "{0.33333333333333331, 0.5}"
    },
    {
      "_class": "curvePoint",
      "cornerRadius": 0,
      "curveFrom": "{0.33333333333333331, 0.97201171875000003}",
      "curveMode": 4,
      "curveTo": "{0.33333333333333331, 0.9375}",
      "hasCurveFrom": true,
      "hasCurveTo": false,
      "point": "{0.33333333333333331, 0.9375}"
    },
    {
      "_class": "curvePoint",
      "cornerRadius": 0,
      "curveFrom": "{0.41666666666666669, 1}",
      "curveMode": 4,
      "curveTo": "{0.37065104166666668, 1}",
      "hasCurveFrom": false,
      "hasCurveTo": true,
      "point": "{0.41666666666666669, 1}"
    },
    {
      "_class": "curvePoint",
      "cornerRadius": 0,
      "curveFrom": "{0.62934895833333337, 1}",
      "curveMode": 4,
      "curveTo": "{0.58333333333333337, 1}",
      "hasCurveFrom": true,
      "hasCurveTo": false,
      "point": "{0.58333333333333337, 1}"
    },
    {
      "_class": "curvePoint",
      "cornerRadius": 0,
      "curveFrom": "{0.66666666666666663, 0.9375}",
      "curveMode": 4,
      "curveTo": "{0.66666666666666663, 0.97201171875000003}",
      "hasCurveFrom": false,
      "hasCurveTo": true,
      "point": "{0.66666666666666663, 0.9375}"
    },
    {
      "_class": "curvePoint",
      "cornerRadius": 0,
      "curveFrom": "{0.66666666666666663, 0.5}",
      "curveMode": 1,
      "curveTo": "{0.66666666666666663, 0.5}",
      "hasCurveFrom": false,
      "hasCurveTo": false,
      "point": "{0.66666666666666663, 0.5}"
    },
    {
      "_class": "curvePoint",
      "cornerRadius": 0,
      "curveFrom": "{0.96268229166666675, 0.5}",
      "curveMode": 4,
      "curveTo": "{0.91666666666666663, 0.5}",
      "hasCurveFrom": true,
      "hasCurveTo": false,
      "point": "{0.91666666666666663, 0.5}"
    },
    {
      "_class": "curvePoint",
      "cornerRadius": 0,
      "curveFrom": "{1, 0.4375}",
      "curveMode": 4,
      "curveTo": "{1, 0.47201171874999998}",
      "hasCurveFrom": false,
      "hasCurveTo": true,
      "point": "{1, 0.4375}"
    },
    {
      "_class": "curvePoint",
      "cornerRadius": 0,
      "curveFrom": "{1, 0.27798828124999997}",
      "curveMode": 4,
      "curveTo": "{1, 0.3125}",
      "hasCurveFrom": true,
      "hasCurveTo": false,
      "point": "{1, 0.3125}"
    }
  ],
  "resizingConstraint": 63,
  "resizingType": 0,
  "rotation": 0,
  "sharedStyleID": "6384751B-1CEA-4B08-9A1E-01F42BC9555A",
  "shouldBreakMaskChain": false,
  "style": {
    "_class": "style",
    "blur": {
      "_class": "blur",
      "center": "{0.5, 0.5}",
      "isEnabled": false,
      "motionAngle": 0,
      "radius": 10,
      "saturation": 1,
      "type": 0
    },
    "borderOptions": {
      "_class": "borderOptions",
      "dashPattern": [
      ],
      "isEnabled": true,
      "lineCapStyle": 0,
      "lineJoinStyle": 9223372036854776000
    },
    "borders": [
    ],
    "colorControls": {
      "_class": "colorControls",
      "brightness": 0,
      "contrast": 1,
      "hue": 0,
      "isEnabled": false,
      "saturation": 1
    },
    "contextSettings": {
      "_class": "graphicsContextSettings",
      "blendMode": 0,
      "opacity": 1
    },
    "do_objectID": "FEF5D1EA-17F5-4F50-AB4E-2E11B6F16596",
    "endMarkerType": 0,
    "fills": [
      {
        "_class": "fill",
        "color": {
          "_class": "color",
          "alpha": 1,
          "blue": 0,
          "green": 0,
          "red": 0
        },
        "contextSettings": {
          "_class": "graphicsContextSettings",
          "blendMode": 0,
          "opacity": 1
        },
        "fillType": 0,
        "gradient": {
          "_class": "gradient",
          "elipseLength": 0,
          "from": "{0.5, 0}",
          "gradientType": 0,
          "stops": [
            {
              "_class": "gradientStop",
              "color": {
                "_class": "color",
                "alpha": 1,
                "blue": 1,
                "green": 1,
                "red": 1
              },
              "position": 0
            },
            {
              "_class": "gradientStop",
              "color": {
                "_class": "color",
                "alpha": 1,
                "blue": 0,
                "green": 0,
                "red": 0
              },
              "position": 1
            }
          ],
          "to": "{0.5, 1}"
        },
        "isEnabled": true,
        "noiseIndex": 0,
        "noiseIntensity": 0,
        "patternFillType": 1,
        "patternTileScale": 1
      }
    ],
    "innerShadows": [
    ],
    "miterLimit": 10,
    "shadows": [
    ],
    "startMarkerType": 0,
    "windingRule": 1
  }
}