{
  "_class": "shapePath",
  "booleanOperation": -1,
  "clippingMaskMode": 0,
  "do_objectID": "B77401E2-672C-40AB-87D4-143E8F2AB7A5",
  "edited": true,
  "exportOptions": {
    "_class": "exportOptions",
    "exportFormats": [
    ],
    "includedLayerIds": [
    ],
    "layerOptions": 0,
    "shouldTrim": false
  },
  "frame": {
    "_class": "rect",
    "constrainProportions": false,
    "height": 21.0000000875,
    "width": 15.0000000625,
    "x": 4.49999996875,
    "y": 1.499999956249999
  },
  "hasClippingMask": false,
  "isClosed": true,
  "isFixedToViewport": false,
  "isFlippedHorizontal": false,
  "isFlippedVertical": false,
  "isLocked": false,
  "isVisible": true,
  "layerListExpandedType": 1,
  "name": "rupee-sign",
  "nameIsFixed": false,
  "pointRadiusBehaviour": 1,
  "points": [
    {
      "_class": "curvePoint",
      "cornerRadius": 0,
      "curveFrom": "{0.98320937500000005, 0.14285714285714285}",
      "curveMode": 4,
      "curveTo": "{0.96250000000000002, 0.14285714285714285}",
      "hasCurveFrom": true,
      "hasCurveTo": false,
      "point": "{0.96250000000000002, 0.14285714285714285}"
    },
    {
      "_class": "curvePoint",
      "cornerRadius": 0,
      "curveFrom": "{1, 0.11607142857142856}",
      "curveMode": 4,
      "curveTo": "{1, 0.13086383928571427}",
      "hasCurveFrom": false,
      "hasCurveTo": true,
      "point": "{1, 0.11607142857142856}"
    },
    {
      "_class": "curvePoint",
      "cornerRadius": 0,
      "curveFrom": "{1, 0.011993303571428564}",
      "curveMode": 4,
      "curveTo": "{1, 0.026785714285714281}",
      "hasCurveFrom": true,
      "hasCurveTo": false,
      "point": "{1, 0.026785714285714281}"
    },
    {
      "_class": "curvePoint",
      "cornerRadius": 0,
      "curveFrom": "{0.96250000000000002, 0}",
      "curveMode": 4,
      "curveTo": "{0.98320937500000005, 0}",
      "hasCurveFrom": false,
      "hasCurveTo": true,
      "point": "{0.96250000000000002, 0}"
    },
    {
      "_class": "curvePoint",
      "cornerRadius": 0,
      "curveFrom": "{0.016790625, 0}",
      "curveMode": 4,
      "curveTo": "{0.037499999999999999, 0}",
      "hasCurveFrom": true,
      "hasCurveTo": false,
      "point": "{0.037499999999999999, 0}"
    },
    {
      "_class": "curvePoint",
      "cornerRadius": 0,
      "curveFrom": "{0, 0.026785714285714281}",
      "curveMode": 4,
      "curveTo": "{0, 0.011993303571428564}",
      "hasCurveFrom": false,
      "hasCurveTo": true,
      "point": "{0, 0.026785714285714281}"
    },
    {
      "_class": "curvePoint",
      "cornerRadius": 0,
      "curveFrom": "{0, 0.14146205357142852}",
      "curveMode": 4,
      "curveTo": "{0, 0.12666964285714283}",
      "hasCurveFrom": true,
      "hasCurveTo": false,
      "point": "{0, 0.12666964285714283}"
    },
    {
      "_class": "curvePoint",
      "cornerRadius": 0,
      "curveFrom": "{0.037499999999999999, 0.1534553571428571}",
      "curveMode": 4,
      "curveTo": "{0.016790625, 0.1534553571428571}",
      "hasCurveFrom": false,
      "hasCurveTo": true,
      "point": "{0.037499999999999999, 0.1534553571428571}"
    },
    {
      "_class": "curvePoint",
      "cornerRadius": 0,
      "curveFrom": "{0.3893375, 0.1534553571428571}",
      "curveMode": 4,
      "curveTo": "{0.30399999999999999, 0.1534553571428571}",
      "hasCurveFrom": true,
      "hasCurveTo": false,
      "point": "{0.30399999999999999, 0.1534553571428571}"
    },
    {
      "_class": "curvePoint",
      "cornerRadius": 0,
      "curveFrom": "{0.49453124999999998, 0.21428571428571422}",
      "curveMode": 4,
      "curveTo": "{0.454815625, 0.17568303571428567}",
      "hasCurveFrom": false,
      "hasCurveTo": true,
      "point": "{0.49453124999999998, 0.21428571428571422}"
    },
    {
      "_class": "curvePoint",
      "cornerRadius": 0,
      "curveFrom": "{0.016790625, 0.21428571428571422}",
      "curveMode": 4,
      "curveTo": "{0.037499999999999999, 0.21428571428571422}",
      "hasCurveFrom": true,
      "hasCurveTo": false,
      "point": "{0.037499999999999999, 0.21428571428571422}"
    },
    {
      "_class": "curvePoint",
      "cornerRadius": 0,
      "curveFrom": "{0, 0.24107142857142855}",
      "curveMode": 4,
      "curveTo": "{0, 0.2262790178571428}",
      "hasCurveFrom": false,
      "hasCurveTo": true,
      "point": "{0, 0.24107142857142855}"
    },
    {
      "_class": "curvePoint",
      "cornerRadius": 0,
      "curveFrom": "{0, 0.34514955357142857}",
      "curveMode": 4,
      "curveTo": "{0, 0.33035714285714279}",
      "hasCurveFrom": true,
      "hasCurveTo": false,
      "point": "{0, 0.33035714285714279}"
    },
    {
      "_class": "curvePoint",
      "cornerRadius": 0,
      "curveFrom": "{0.037499999999999999, 0.3571428571428571}",
      "curveMode": 4,
      "curveTo": "{0.016790625, 0.3571428571428571}",
      "hasCurveFrom": false,
      "hasCurveTo": true,
      "point": "{0.037499999999999999, 0.3571428571428571}"
    },
    {
      "_class": "curvePoint",
      "cornerRadius": 0,
      "curveFrom": "{0.51418750000000002, 0.43769196428571427}",
      "curveMode": 4,
      "curveTo": "{0.53361562500000004, 0.3571428571428571}",
      "hasCurveFrom": true,
      "hasCurveTo": false,
      "point": "{0.53361562500000004, 0.3571428571428571}"
    },
    {
      "_class": "curvePoint",
      "cornerRadius": 0,
      "curveFrom": "{0.29999999999999999, 0.48801785714285711}",
      "curveMode": 4,
      "curveTo": "{0.43061249999999995, 0.48801785714285711}",
      "hasCurveFrom": false,
      "hasCurveTo": true,
      "point": "{0.29999999999999999, 0.48801785714285711}"
    },
    {
      "_class": "curvePoint",
      "cornerRadius": 0,
      "curveFrom": "{0.016790625, 0.48801785714285711}",
      "curveMode": 4,
      "curveTo": "{0.037499999999999999, 0.48801785714285711}",
      "hasCurveFrom": true,
      "hasCurveTo": false,
      "point": "{0.037499999999999999, 0.48801785714285711}"
    },
    {
      "_class": "curvePoint",
      "cornerRadius": 0,
      "curveFrom": "{0, 0.51480357142857136}",
      "curveMode": 4,
      "curveTo": "{0, 0.50001116071428564}",
      "hasCurveFrom": false,
      "hasCurveTo": true,
      "point": "{0, 0.51480357142857136}"
    },
    {
      "_class": "curvePoint",
      "cornerRadius": 0,
      "curveFrom": "{0, 0.64060937499999993}",
      "curveMode": 4,
      "curveTo": "{0, 0.63313392857142847}",
      "hasCurveFrom": true,
      "hasCurveTo": false,
      "point": "{0, 0.63313392857142847}"
    },
    {
      "_class": "curvePoint",
      "cornerRadius": 0,
      "curveFrom": "{0.012065625, 0.65281696428571423}",
      "curveMode": 4,
      "curveTo": "{0.0043749999999999995, 0.64774553571428561}",
      "hasCurveFrom": false,
      "hasCurveTo": true,
      "point": "{0.012065625, 0.65281696428571423}"
    },
    {
      "_class": "curvePoint",
      "cornerRadius": 0,
      "curveFrom": "{0.53478025951478114, 0.99746396055821429}",
      "curveMode": 4,
      "curveTo": "{0.52785312499999992, 0.99289732142857123}",
      "hasCurveFrom": true,
      "hasCurveTo": false,
      "point": "{0.52785312499999992, 0.99289732142857123}"
    },
    {
      "_class": "curvePoint",
      "cornerRadius": 0,
      "curveFrom": "{0.55328749999999993, 1}",
      "curveMode": 4,
      "curveTo": "{0.54386097303258218, 0.99999979599022981}",
      "hasCurveFrom": false,
      "hasCurveTo": true,
      "point": "{0.55328749999999993, 1}"
    },
    {
      "_class": "curvePoint",
      "cornerRadius": 0,
      "curveFrom": "{0.84543124999999986, 1}",
      "curveMode": 4,
      "curveTo": "{0.81129374999999992, 1}",
      "hasCurveFrom": true,
      "hasCurveTo": false,
      "point": "{0.81129374999999992, 1}"
    },
    {
      "_class": "curvePoint",
      "cornerRadius": 0,
      "curveFrom": "{0.83672812499999993, 0.95353125000000005}",
      "curveMode": 4,
      "curveTo": "{0.86181249999999987, 0.97007142857142858}",
      "hasCurveFrom": false,
      "hasCurveTo": true,
      "point": "{0.83672812499999993, 0.95353125000000005}"
    },
    {
      "_class": "curvePoint",
      "cornerRadius": 0,
      "curveFrom": "{0.60428124999999999, 0.63742410714285713}",
      "curveMode": 4,
      "curveTo": "{0.36522187499999997, 0.64264732142857139}",
      "hasCurveFrom": true,
      "hasCurveTo": false,
      "point": "{0.36522187499999997, 0.64264732142857139}"
    },
    {
      "_class": "curvePoint",
      "cornerRadius": 0,
      "curveFrom": "{0.79746562500000007, 0.3571428571428571}",
      "curveMode": 4,
      "curveTo": "{0.77504687499999991, 0.52346205357142861}",
      "hasCurveFrom": false,
      "hasCurveTo": true,
      "point": "{0.79746562500000007, 0.3571428571428571}"
    },
    {
      "_class": "curvePoint",
      "cornerRadius": 0,
      "curveFrom": "{0.98320937500000005, 0.3571428571428571}",
      "curveMode": 4,
      "curveTo": "{0.96250000000000002, 0.3571428571428571}",
      "hasCurveFrom": true,
      "hasCurveTo": false,
      "point": "{0.96250000000000002, 0.3571428571428571}"
    },
    {
      "_class": "curvePoint",
      "cornerRadius": 0,
      "curveFrom": "{1, 0.33035714285714279}",
      "curveMode": 4,
      "curveTo": "{1, 0.34514955357142857}",
      "hasCurveFrom": false,
      "hasCurveTo": true,
      "point": "{1, 0.33035714285714279}"
    },
    {
      "_class": "curvePoint",
      "cornerRadius": 0,
      "curveFrom": "{1, 0.2262790178571428}",
      "curveMode": 4,
      "curveTo": "{1, 0.24107142857142855}",
      "hasCurveFrom": true,
      "hasCurveTo": false,
      "point": "{1, 0.24107142857142855}"
    },
    {
      "_class": "curvePoint",
      "cornerRadius": 0,
      "curveFrom": "{0.96250000000000002, 0.21428571428571425}",
      "curveMode": 4,
      "curveTo": "{0.98320937500000005, 0.21428571428571425}",
      "hasCurveFrom": false,
      "hasCurveTo": true,
      "point": "{0.96250000000000002, 0.21428571428571425}"
    },
    {
      "_class": "curvePoint",
      "cornerRadius": 0,
      "curveFrom": "{0.76819999999999999, 0.18852455357142855}",
      "curveMode": 4,
      "curveTo": "{0.77909375000000003, 0.21428571428571425}",
      "hasCurveFrom": true,
      "hasCurveTo": false,
      "point": "{0.77909375000000003, 0.21428571428571425}"
    },
    {
      "_class": "curvePoint",
      "cornerRadius": 0,
      "curveFrom": "{0.73455625000000002, 0.14285714285714285}",
      "curveMode": 4,
      "curveTo": "{0.75321875000000005, 0.16462946428571429}",
      "hasCurveFrom": false,
      "hasCurveTo": true,
      "point": "{0.73455625000000002, 0.14285714285714285}"
    }
  ],
  "resizingConstraint": 63,
  "resizingType": 0,
  "rotation": 0,
  "sharedStyleID": "6384751B-1CEA-4B08-9A1E-01F42BC9555A",
  "shouldBreakMaskChain": false,
  "style": {
    "_class": "style",
    "blur": {
      "_class": "blur",
      "center": "{0.5, 0.5}",
      "isEnabled": false,
      "motionAngle": 0,
      "radius": 10,
      "saturation": 1,
      "type": 0
    },
    "borderOptions": {
      "_class": "borderOptions",
      "dashPattern": [
      ],
      "isEnabled": true,
      "lineCapStyle": 0,
      "lineJoinStyle": 9223372036854776000
    },
    "borders": [
    ],
    "colorControls": {
      "_class": "colorControls",
      "brightness": 0,
      "contrast": 1,
      "hue": 0,
      "isEnabled": false,
      "saturation": 1
    },
    "contextSettings": {
      "_class": "graphicsContextSettings",
      "blendMode": 0,
      "opacity": 1
    },
    "do_objectID": "8A2C9F3B-BD84-4EE4-8548-38B04C72F5C8",
    "endMarkerType": 0,
    "fills": [
      {
        "_class": "fill",
        "color": {
          "_class": "color",
          "alpha": 1,
          "blue": 0,
          "green": 0,
          "red": 0
        },
        "contextSettings": {
          "_class": "graphicsContextSettings",
          "blendMode": 0,
          "opacity": 1
        },
        "fillType": 0,
        "gradient": {
          "_class": "gradient",
          "elipseLength": 0,
          "from": "{0.5, 0}",
          "gradientType": 0,
          "stops": [
            {
              "_class": "gradientStop",
              "color": {
                "_class": "color",
                "alpha": 1,
                "blue": 1,
                "green": 1,
                "red": 1
              },
              "position": 0
            },
            {
              "_class": "gradientStop",
              "color": {
                "_class": "color",
                "alpha": 1,
                "blue": 0,
                "green": 0,
                "red": 0
              },
              "position": 1
            }
          ],
          "to": "{0.5, 1}"
        },
        "isEnabled": true,
        "noiseIndex": 0,
        "noiseIntensity": 0,
        "patternFillType": 1,
        "patternTileScale": 1
      }
    ],
    "innerShadows": [
    ],
    "miterLimit": 10,
    "shadows": [
    ],
    "startMarkerType": 0,
    "windingRule": 1
  }
}